<?xml version="1.0" encoding="utf-8"?>
<svg xmlns="http://www.w3.org/2000/svg" xmlns:xlink="http://www.w3.org/1999/xlink" width="600" height="400" viewBox="0 0 2400 1600">
<defs>
  <clipPath id="clip750">
    <rect x="0" y="0" width="2400" height="1600"/>
  </clipPath>
</defs>
<path clip-path="url(#clip750)" d="
M0 1600 L2400 1600 L2400 0 L0 0  Z
  " fill="#ffffff" fill-rule="evenodd" fill-opacity="1"/>
<defs>
  <clipPath id="clip751">
    <rect x="480" y="0" width="1681" height="1600"/>
  </clipPath>
</defs>
<path clip-path="url(#clip750)" d="
M179.654 1486.45 L2352.76 1486.45 L2352.76 47.2441 L179.654 47.2441  Z
  " fill="#ffffff" fill-rule="evenodd" fill-opacity="1"/>
<defs>
  <clipPath id="clip752">
    <rect x="179" y="47" width="2174" height="1440"/>
  </clipPath>
</defs>
<polyline clip-path="url(#clip752)" style="stroke:#000000; stroke-width:2; stroke-opacity:0.1; fill:none" points="
  450.604,1486.45 450.604,47.2441 
  "/>
<polyline clip-path="url(#clip752)" style="stroke:#000000; stroke-width:2; stroke-opacity:0.1; fill:none" points="
  858.664,1486.45 858.664,47.2441 
  "/>
<polyline clip-path="url(#clip752)" style="stroke:#000000; stroke-width:2; stroke-opacity:0.1; fill:none" points="
  1266.72,1486.45 1266.72,47.2441 
  "/>
<polyline clip-path="url(#clip752)" style="stroke:#000000; stroke-width:2; stroke-opacity:0.1; fill:none" points="
  1674.79,1486.45 1674.79,47.2441 
  "/>
<polyline clip-path="url(#clip752)" style="stroke:#000000; stroke-width:2; stroke-opacity:0.1; fill:none" points="
  2082.85,1486.45 2082.85,47.2441 
  "/>
<polyline clip-path="url(#clip750)" style="stroke:#000000; stroke-width:4; stroke-opacity:1; fill:none" points="
  179.654,1486.45 2352.76,1486.45 
  "/>
<polyline clip-path="url(#clip750)" style="stroke:#000000; stroke-width:4; stroke-opacity:1; fill:none" points="
  450.604,1486.45 450.604,1469.18 
  "/>
<polyline clip-path="url(#clip750)" style="stroke:#000000; stroke-width:4; stroke-opacity:1; fill:none" points="
  858.664,1486.45 858.664,1469.18 
  "/>
<polyline clip-path="url(#clip750)" style="stroke:#000000; stroke-width:4; stroke-opacity:1; fill:none" points="
  1266.72,1486.45 1266.72,1469.18 
  "/>
<polyline clip-path="url(#clip750)" style="stroke:#000000; stroke-width:4; stroke-opacity:1; fill:none" points="
  1674.79,1486.45 1674.79,1469.18 
  "/>
<polyline clip-path="url(#clip750)" style="stroke:#000000; stroke-width:4; stroke-opacity:1; fill:none" points="
  2082.85,1486.45 2082.85,1469.18 
  "/>
<path clip-path="url(#clip750)" d="M 0 0 M404.273 1530.29 L433.949 1530.29 L433.949 1534.23 L404.273 1534.23 L404.273 1530.29 Z" fill="#000000" fill-rule="evenodd" fill-opacity="1" /><path clip-path="url(#clip750)" d="M 0 0 M439.064 1512.56 L457.421 1512.56 L457.421 1516.5 L443.347 1516.5 L443.347 1524.97 Q444.365 1524.62 445.384 1524.46 Q446.402 1524.27 447.421 1524.27 Q453.208 1524.27 456.587 1527.44 Q459.967 1530.62 459.967 1536.03 Q459.967 1541.61 456.495 1544.71 Q453.022 1547.79 446.703 1547.79 Q444.527 1547.79 442.259 1547.42 Q440.013 1547.05 437.606 1546.31 L437.606 1541.61 Q439.689 1542.74 441.911 1543.3 Q444.134 1543.86 446.61 1543.86 Q450.615 1543.86 452.953 1541.75 Q455.291 1539.64 455.291 1536.03 Q455.291 1532.42 452.953 1530.31 Q450.615 1528.21 446.61 1528.21 Q444.735 1528.21 442.86 1528.62 Q441.009 1529.04 439.064 1529.92 L439.064 1512.56 Z" fill="#000000" fill-rule="evenodd" fill-opacity="1" /><path clip-path="url(#clip750)" d="M 0 0 M465.036 1541.24 L469.921 1541.24 L469.921 1547.12 L465.036 1547.12 L465.036 1541.24 Z" fill="#000000" fill-rule="evenodd" fill-opacity="1" /><path clip-path="url(#clip750)" d="M 0 0 M484.99 1515.64 Q481.379 1515.64 479.55 1519.2 Q477.745 1522.75 477.745 1529.87 Q477.745 1536.98 479.55 1540.55 Q481.379 1544.09 484.99 1544.09 Q488.624 1544.09 490.43 1540.55 Q492.258 1536.98 492.258 1529.87 Q492.258 1522.75 490.43 1519.2 Q488.624 1515.64 484.99 1515.64 M484.99 1511.93 Q490.8 1511.93 493.856 1516.54 Q496.934 1521.12 496.934 1529.87 Q496.934 1538.6 493.856 1543.21 Q490.8 1547.79 484.99 1547.79 Q479.18 1547.79 476.101 1543.21 Q473.046 1538.6 473.046 1529.87 Q473.046 1521.12 476.101 1516.54 Q479.18 1511.93 484.99 1511.93 Z" fill="#000000" fill-rule="evenodd" fill-opacity="1" /><path clip-path="url(#clip750)" d="M 0 0 M813.132 1530.29 L842.808 1530.29 L842.808 1534.23 L813.132 1534.23 L813.132 1530.29 Z" fill="#000000" fill-rule="evenodd" fill-opacity="1" /><path clip-path="url(#clip750)" d="M 0 0 M851.905 1543.18 L868.224 1543.18 L868.224 1547.12 L846.28 1547.12 L846.28 1543.18 Q848.942 1540.43 853.525 1535.8 Q858.132 1531.15 859.312 1529.81 Q861.558 1527.28 862.437 1525.55 Q863.34 1523.79 863.34 1522.1 Q863.34 1519.34 861.396 1517.61 Q859.474 1515.87 856.372 1515.87 Q854.173 1515.87 851.72 1516.63 Q849.289 1517.4 846.511 1518.95 L846.511 1514.23 Q849.335 1513.09 851.789 1512.51 Q854.243 1511.93 856.28 1511.93 Q861.65 1511.93 864.845 1514.62 Q868.039 1517.31 868.039 1521.8 Q868.039 1523.93 867.229 1525.85 Q866.442 1527.74 864.335 1530.34 Q863.757 1531.01 860.655 1534.23 Q857.553 1537.42 851.905 1543.18 Z" fill="#000000" fill-rule="evenodd" fill-opacity="1" /><path clip-path="url(#clip750)" d="M 0 0 M873.294 1541.24 L878.178 1541.24 L878.178 1547.12 L873.294 1547.12 L873.294 1541.24 Z" fill="#000000" fill-rule="evenodd" fill-opacity="1" /><path clip-path="url(#clip750)" d="M 0 0 M883.294 1512.56 L901.65 1512.56 L901.65 1516.5 L887.576 1516.5 L887.576 1524.97 Q888.595 1524.62 889.613 1524.46 Q890.632 1524.27 891.65 1524.27 Q897.437 1524.27 900.817 1527.44 Q904.196 1530.62 904.196 1536.03 Q904.196 1541.61 900.724 1544.71 Q897.252 1547.79 890.932 1547.79 Q888.757 1547.79 886.488 1547.42 Q884.243 1547.05 881.835 1546.31 L881.835 1541.61 Q883.919 1542.74 886.141 1543.3 Q888.363 1543.86 890.84 1543.86 Q894.844 1543.86 897.182 1541.75 Q899.52 1539.64 899.52 1536.03 Q899.52 1532.42 897.182 1530.31 Q894.844 1528.21 890.84 1528.21 Q888.965 1528.21 887.09 1528.62 Q885.238 1529.04 883.294 1529.92 L883.294 1512.56 Z" fill="#000000" fill-rule="evenodd" fill-opacity="1" /><path clip-path="url(#clip750)" d="M 0 0 M1248.24 1515.64 Q1244.63 1515.64 1242.8 1519.2 Q1241 1522.75 1241 1529.87 Q1241 1536.98 1242.8 1540.55 Q1244.63 1544.09 1248.24 1544.09 Q1251.88 1544.09 1253.68 1540.55 Q1255.51 1536.98 1255.51 1529.87 Q1255.51 1522.75 1253.68 1519.2 Q1251.88 1515.64 1248.24 1515.64 M1248.24 1511.93 Q1254.05 1511.93 1257.11 1516.54 Q1260.19 1521.12 1260.19 1529.87 Q1260.19 1538.6 1257.11 1543.21 Q1254.05 1547.79 1248.24 1547.79 Q1242.43 1547.79 1239.35 1543.21 Q1236.3 1538.6 1236.3 1529.87 Q1236.3 1521.12 1239.35 1516.54 Q1242.43 1511.93 1248.24 1511.93 Z" fill="#000000" fill-rule="evenodd" fill-opacity="1" /><path clip-path="url(#clip750)" d="M 0 0 M1265.25 1541.24 L1270.14 1541.24 L1270.14 1547.12 L1265.25 1547.12 L1265.25 1541.24 Z" fill="#000000" fill-rule="evenodd" fill-opacity="1" /><path clip-path="url(#clip750)" d="M 0 0 M1285.21 1515.64 Q1281.6 1515.64 1279.77 1519.2 Q1277.96 1522.75 1277.96 1529.87 Q1277.96 1536.98 1279.77 1540.55 Q1281.6 1544.09 1285.21 1544.09 Q1288.84 1544.09 1290.65 1540.55 Q1292.48 1536.98 1292.48 1529.87 Q1292.48 1522.75 1290.65 1519.2 Q1288.84 1515.64 1285.21 1515.64 M1285.21 1511.93 Q1291.02 1511.93 1294.07 1516.54 Q1297.15 1521.12 1297.15 1529.87 Q1297.15 1538.6 1294.07 1543.21 Q1291.02 1547.79 1285.21 1547.79 Q1279.4 1547.79 1276.32 1543.21 Q1273.26 1538.6 1273.26 1529.87 Q1273.26 1521.12 1276.32 1516.54 Q1279.4 1511.93 1285.21 1511.93 Z" fill="#000000" fill-rule="evenodd" fill-opacity="1" /><path clip-path="url(#clip750)" d="M 0 0 M1651.45 1543.18 L1667.77 1543.18 L1667.77 1547.12 L1645.83 1547.12 L1645.83 1543.18 Q1648.49 1540.43 1653.07 1535.8 Q1657.68 1531.15 1658.86 1529.81 Q1661.1 1527.28 1661.98 1525.55 Q1662.89 1523.79 1662.89 1522.1 Q1662.89 1519.34 1660.94 1517.61 Q1659.02 1515.87 1655.92 1515.87 Q1653.72 1515.87 1651.27 1516.63 Q1648.84 1517.4 1646.06 1518.95 L1646.06 1514.23 Q1648.88 1513.09 1651.34 1512.51 Q1653.79 1511.93 1655.83 1511.93 Q1661.2 1511.93 1664.39 1514.62 Q1667.59 1517.31 1667.59 1521.8 Q1667.59 1523.93 1666.78 1525.85 Q1665.99 1527.74 1663.88 1530.34 Q1663.3 1531.01 1660.2 1534.23 Q1657.1 1537.42 1651.45 1543.18 Z" fill="#000000" fill-rule="evenodd" fill-opacity="1" /><path clip-path="url(#clip750)" d="M 0 0 M1672.84 1541.24 L1677.73 1541.24 L1677.73 1547.12 L1672.84 1547.12 L1672.84 1541.24 Z" fill="#000000" fill-rule="evenodd" fill-opacity="1" /><path clip-path="url(#clip750)" d="M 0 0 M1682.84 1512.56 L1701.2 1512.56 L1701.2 1516.5 L1687.12 1516.5 L1687.12 1524.97 Q1688.14 1524.62 1689.16 1524.46 Q1690.18 1524.27 1691.2 1524.27 Q1696.98 1524.27 1700.36 1527.44 Q1703.74 1530.62 1703.74 1536.03 Q1703.74 1541.61 1700.27 1544.71 Q1696.8 1547.79 1690.48 1547.79 Q1688.3 1547.79 1686.04 1547.42 Q1683.79 1547.05 1681.38 1546.31 L1681.38 1541.61 Q1683.47 1542.74 1685.69 1543.3 Q1687.91 1543.86 1690.39 1543.86 Q1694.39 1543.86 1696.73 1541.75 Q1699.07 1539.64 1699.07 1536.03 Q1699.07 1532.42 1696.73 1530.31 Q1694.39 1528.21 1690.39 1528.21 Q1688.51 1528.21 1686.64 1528.62 Q1684.79 1529.04 1682.84 1529.92 L1682.84 1512.56 Z" fill="#000000" fill-rule="evenodd" fill-opacity="1" /><path clip-path="url(#clip750)" d="M 0 0 M2054.64 1512.56 L2073 1512.56 L2073 1516.5 L2058.92 1516.5 L2058.92 1524.97 Q2059.94 1524.62 2060.96 1524.46 Q2061.98 1524.27 2063 1524.27 Q2068.78 1524.27 2072.16 1527.44 Q2075.54 1530.62 2075.54 1536.03 Q2075.54 1541.61 2072.07 1544.71 Q2068.6 1547.79 2062.28 1547.79 Q2060.1 1547.79 2057.83 1547.42 Q2055.59 1547.05 2053.18 1546.31 L2053.18 1541.61 Q2055.27 1542.74 2057.49 1543.3 Q2059.71 1543.86 2062.19 1543.86 Q2066.19 1543.86 2068.53 1541.75 Q2070.87 1539.64 2070.87 1536.03 Q2070.87 1532.42 2068.53 1530.31 Q2066.19 1528.21 2062.19 1528.21 Q2060.31 1528.21 2058.44 1528.62 Q2056.58 1529.04 2054.64 1529.92 L2054.64 1512.56 Z" fill="#000000" fill-rule="evenodd" fill-opacity="1" /><path clip-path="url(#clip750)" d="M 0 0 M2080.61 1541.24 L2085.5 1541.24 L2085.5 1547.12 L2080.61 1547.12 L2080.61 1541.24 Z" fill="#000000" fill-rule="evenodd" fill-opacity="1" /><path clip-path="url(#clip750)" d="M 0 0 M2100.57 1515.64 Q2096.95 1515.64 2095.13 1519.2 Q2093.32 1522.75 2093.32 1529.87 Q2093.32 1536.98 2095.13 1540.55 Q2096.95 1544.09 2100.57 1544.09 Q2104.2 1544.09 2106.01 1540.55 Q2107.83 1536.98 2107.83 1529.87 Q2107.83 1522.75 2106.01 1519.2 Q2104.2 1515.64 2100.57 1515.64 M2100.57 1511.93 Q2106.38 1511.93 2109.43 1516.54 Q2112.51 1521.12 2112.51 1529.87 Q2112.51 1538.6 2109.43 1543.21 Q2106.38 1547.79 2100.57 1547.79 Q2094.76 1547.79 2091.68 1543.21 Q2088.62 1538.6 2088.62 1529.87 Q2088.62 1521.12 2091.68 1516.54 Q2094.76 1511.93 2100.57 1511.93 Z" fill="#000000" fill-rule="evenodd" fill-opacity="1" /><polyline clip-path="url(#clip752)" style="stroke:#000000; stroke-width:2; stroke-opacity:0.1; fill:none" points="
  179.654,1445.72 2352.76,1445.72 
  "/>
<polyline clip-path="url(#clip752)" style="stroke:#000000; stroke-width:2; stroke-opacity:0.1; fill:none" points="
  179.654,1106.28 2352.76,1106.28 
  "/>
<polyline clip-path="url(#clip752)" style="stroke:#000000; stroke-width:2; stroke-opacity:0.1; fill:none" points="
  179.654,766.846 2352.76,766.846 
  "/>
<polyline clip-path="url(#clip752)" style="stroke:#000000; stroke-width:2; stroke-opacity:0.1; fill:none" points="
  179.654,427.411 2352.76,427.411 
  "/>
<polyline clip-path="url(#clip752)" style="stroke:#000000; stroke-width:2; stroke-opacity:0.1; fill:none" points="
  179.654,87.9763 2352.76,87.9763 
  "/>
<polyline clip-path="url(#clip750)" style="stroke:#000000; stroke-width:4; stroke-opacity:1; fill:none" points="
  179.654,1486.45 179.654,47.2441 
  "/>
<polyline clip-path="url(#clip750)" style="stroke:#000000; stroke-width:4; stroke-opacity:1; fill:none" points="
  179.654,1445.72 205.731,1445.72 
  "/>
<polyline clip-path="url(#clip750)" style="stroke:#000000; stroke-width:4; stroke-opacity:1; fill:none" points="
  179.654,1106.28 205.731,1106.28 
  "/>
<polyline clip-path="url(#clip750)" style="stroke:#000000; stroke-width:4; stroke-opacity:1; fill:none" points="
  179.654,766.846 205.731,766.846 
  "/>
<polyline clip-path="url(#clip750)" style="stroke:#000000; stroke-width:4; stroke-opacity:1; fill:none" points="
  179.654,427.411 205.731,427.411 
  "/>
<polyline clip-path="url(#clip750)" style="stroke:#000000; stroke-width:4; stroke-opacity:1; fill:none" points="
  179.654,87.9763 205.731,87.9763 
  "/>
<path clip-path="url(#clip750)" d="M 0 0 M51.2236 1446.17 L80.8994 1446.17 L80.8994 1450.1 L51.2236 1450.1 L51.2236 1446.17 Z" fill="#000000" fill-rule="evenodd" fill-opacity="1" /><path clip-path="url(#clip750)" d="M 0 0 M86.779 1459.06 L94.4178 1459.06 L94.4178 1432.7 L86.1077 1434.36 L86.1077 1430.1 L94.3715 1428.44 L99.0474 1428.44 L99.0474 1459.06 L106.686 1459.06 L106.686 1463 L86.779 1463 L86.779 1459.06 Z" fill="#000000" fill-rule="evenodd" fill-opacity="1" /><path clip-path="url(#clip750)" d="M 0 0 M111.756 1457.12 L116.64 1457.12 L116.64 1463 L111.756 1463 L111.756 1457.12 Z" fill="#000000" fill-rule="evenodd" fill-opacity="1" /><path clip-path="url(#clip750)" d="M 0 0 M131.709 1431.52 Q128.098 1431.52 126.27 1435.08 Q124.464 1438.62 124.464 1445.75 Q124.464 1452.86 126.27 1456.42 Q128.098 1459.96 131.709 1459.96 Q135.344 1459.96 137.149 1456.42 Q138.978 1452.86 138.978 1445.75 Q138.978 1438.62 137.149 1435.08 Q135.344 1431.52 131.709 1431.52 M131.709 1427.81 Q137.519 1427.81 140.575 1432.42 Q143.654 1437 143.654 1445.75 Q143.654 1454.48 140.575 1459.08 Q137.519 1463.67 131.709 1463.67 Q125.899 1463.67 122.82 1459.08 Q119.765 1454.48 119.765 1445.75 Q119.765 1437 122.82 1432.42 Q125.899 1427.81 131.709 1427.81 Z" fill="#000000" fill-rule="evenodd" fill-opacity="1" /><path clip-path="url(#clip750)" d="M 0 0 M50.9921 1106.73 L80.6679 1106.73 L80.6679 1110.67 L50.9921 1110.67 L50.9921 1106.73 Z" fill="#000000" fill-rule="evenodd" fill-opacity="1" /><path clip-path="url(#clip750)" d="M 0 0 M95.7373 1092.08 Q92.1262 1092.08 90.2975 1095.64 Q88.4919 1099.19 88.4919 1106.32 Q88.4919 1113.42 90.2975 1116.99 Q92.1262 1120.53 95.7373 1120.53 Q99.3715 1120.53 101.177 1116.99 Q103.006 1113.42 103.006 1106.32 Q103.006 1099.19 101.177 1095.64 Q99.3715 1092.08 95.7373 1092.08 M95.7373 1088.38 Q101.547 1088.38 104.603 1092.98 Q107.682 1097.57 107.682 1106.32 Q107.682 1115.04 104.603 1119.65 Q101.547 1124.23 95.7373 1124.23 Q89.9271 1124.23 86.8484 1119.65 Q83.7929 1115.04 83.7929 1106.32 Q83.7929 1097.57 86.8484 1092.98 Q89.9271 1088.38 95.7373 1088.38 Z" fill="#000000" fill-rule="evenodd" fill-opacity="1" /><path clip-path="url(#clip750)" d="M 0 0 M112.751 1117.68 L117.635 1117.68 L117.635 1123.56 L112.751 1123.56 L112.751 1117.68 Z" fill="#000000" fill-rule="evenodd" fill-opacity="1" /><path clip-path="url(#clip750)" d="M 0 0 M122.751 1089 L141.107 1089 L141.107 1092.94 L127.033 1092.94 L127.033 1101.41 Q128.052 1101.06 129.07 1100.9 Q130.089 1100.71 131.107 1100.71 Q136.894 1100.71 140.274 1103.89 Q143.654 1107.06 143.654 1112.47 Q143.654 1118.05 140.181 1121.15 Q136.709 1124.23 130.39 1124.23 Q128.214 1124.23 125.945 1123.86 Q123.7 1123.49 121.293 1122.75 L121.293 1118.05 Q123.376 1119.19 125.598 1119.74 Q127.82 1120.3 130.297 1120.3 Q134.302 1120.3 136.64 1118.19 Q138.978 1116.08 138.978 1112.47 Q138.978 1108.86 136.64 1106.76 Q134.302 1104.65 130.297 1104.65 Q128.422 1104.65 126.547 1105.07 Q124.695 1105.48 122.751 1106.36 L122.751 1089 Z" fill="#000000" fill-rule="evenodd" fill-opacity="1" /><path clip-path="url(#clip750)" d="M 0 0 M94.7419 752.645 Q91.1308 752.645 89.3021 756.21 Q87.4966 759.752 87.4966 766.881 Q87.4966 773.988 89.3021 777.552 Q91.1308 781.094 94.7419 781.094 Q98.3761 781.094 100.182 777.552 Q102.01 773.988 102.01 766.881 Q102.01 759.752 100.182 756.21 Q98.3761 752.645 94.7419 752.645 M94.7419 748.941 Q100.552 748.941 103.608 753.548 Q106.686 758.131 106.686 766.881 Q106.686 775.608 103.608 780.214 Q100.552 784.798 94.7419 784.798 Q88.9317 784.798 85.8531 780.214 Q82.7975 775.608 82.7975 766.881 Q82.7975 758.131 85.8531 753.548 Q88.9317 748.941 94.7419 748.941 Z" fill="#000000" fill-rule="evenodd" fill-opacity="1" /><path clip-path="url(#clip750)" d="M 0 0 M111.756 778.247 L116.64 778.247 L116.64 784.126 L111.756 784.126 L111.756 778.247 Z" fill="#000000" fill-rule="evenodd" fill-opacity="1" /><path clip-path="url(#clip750)" d="M 0 0 M131.709 752.645 Q128.098 752.645 126.27 756.21 Q124.464 759.752 124.464 766.881 Q124.464 773.988 126.27 777.552 Q128.098 781.094 131.709 781.094 Q135.344 781.094 137.149 777.552 Q138.978 773.988 138.978 766.881 Q138.978 759.752 137.149 756.21 Q135.344 752.645 131.709 752.645 M131.709 748.941 Q137.519 748.941 140.575 753.548 Q143.654 758.131 143.654 766.881 Q143.654 775.608 140.575 780.214 Q137.519 784.798 131.709 784.798 Q125.899 784.798 122.82 780.214 Q119.765 775.608 119.765 766.881 Q119.765 758.131 122.82 753.548 Q125.899 748.941 131.709 748.941 Z" fill="#000000" fill-rule="evenodd" fill-opacity="1" /><path clip-path="url(#clip750)" d="M 0 0 M95.7373 413.21 Q92.1262 413.21 90.2975 416.775 Q88.4919 420.316 88.4919 427.446 Q88.4919 434.553 90.2975 438.117 Q92.1262 441.659 95.7373 441.659 Q99.3715 441.659 101.177 438.117 Q103.006 434.553 103.006 427.446 Q103.006 420.316 101.177 416.775 Q99.3715 413.21 95.7373 413.21 M95.7373 409.506 Q101.547 409.506 104.603 414.113 Q107.682 418.696 107.682 427.446 Q107.682 436.173 104.603 440.779 Q101.547 445.363 95.7373 445.363 Q89.9271 445.363 86.8484 440.779 Q83.7929 436.173 83.7929 427.446 Q83.7929 418.696 86.8484 414.113 Q89.9271 409.506 95.7373 409.506 Z" fill="#000000" fill-rule="evenodd" fill-opacity="1" /><path clip-path="url(#clip750)" d="M 0 0 M112.751 438.812 L117.635 438.812 L117.635 444.691 L112.751 444.691 L112.751 438.812 Z" fill="#000000" fill-rule="evenodd" fill-opacity="1" /><path clip-path="url(#clip750)" d="M 0 0 M122.751 410.131 L141.107 410.131 L141.107 414.067 L127.033 414.067 L127.033 422.539 Q128.052 422.191 129.07 422.029 Q130.089 421.844 131.107 421.844 Q136.894 421.844 140.274 425.016 Q143.654 428.187 143.654 433.603 Q143.654 439.182 140.181 442.284 Q136.709 445.363 130.39 445.363 Q128.214 445.363 125.945 444.992 Q123.7 444.622 121.293 443.881 L121.293 439.182 Q123.376 440.316 125.598 440.872 Q127.82 441.427 130.297 441.427 Q134.302 441.427 136.64 439.321 Q138.978 437.215 138.978 433.603 Q138.978 429.992 136.64 427.886 Q134.302 425.779 130.297 425.779 Q128.422 425.779 126.547 426.196 Q124.695 426.613 122.751 427.492 L122.751 410.131 Z" fill="#000000" fill-rule="evenodd" fill-opacity="1" /><path clip-path="url(#clip750)" d="M 0 0 M86.779 101.321 L94.4178 101.321 L94.4178 74.9555 L86.1077 76.6222 L86.1077 72.3629 L94.3715 70.6963 L99.0474 70.6963 L99.0474 101.321 L106.686 101.321 L106.686 105.256 L86.779 105.256 L86.779 101.321 Z" fill="#000000" fill-rule="evenodd" fill-opacity="1" /><path clip-path="url(#clip750)" d="M 0 0 M111.756 99.3767 L116.64 99.3767 L116.64 105.256 L111.756 105.256 L111.756 99.3767 Z" fill="#000000" fill-rule="evenodd" fill-opacity="1" /><path clip-path="url(#clip750)" d="M 0 0 M131.709 73.775 Q128.098 73.775 126.27 77.3398 Q124.464 80.8814 124.464 88.011 Q124.464 95.1174 126.27 98.6822 Q128.098 102.224 131.709 102.224 Q135.344 102.224 137.149 98.6822 Q138.978 95.1174 138.978 88.011 Q138.978 80.8814 137.149 77.3398 Q135.344 73.775 131.709 73.775 M131.709 70.0713 Q137.519 70.0713 140.575 74.6777 Q143.654 79.261 143.654 88.011 Q143.654 96.7378 140.575 101.344 Q137.519 105.928 131.709 105.928 Q125.899 105.928 122.82 101.344 Q119.765 96.7378 119.765 88.011 Q119.765 79.261 122.82 74.6777 Q125.899 70.0713 131.709 70.0713 Z" fill="#000000" fill-rule="evenodd" fill-opacity="1" /><polyline clip-path="url(#clip752)" style="stroke:#800080; stroke-width:12; stroke-opacity:1; fill:none" points="
  241.157,766.846 242.789,760.058 244.421,753.27 246.053,746.483 247.686,739.699 249.318,732.917 250.95,726.139 252.582,719.364 254.214,712.595 255.847,705.831 
  257.479,699.072 259.111,692.321 260.743,685.577 262.376,678.842 264.008,672.115 265.64,665.397 267.272,658.69 268.905,651.994 270.537,645.309 272.169,638.636 
  273.801,631.976 275.434,625.329 277.066,618.697 278.698,612.079 280.33,605.477 281.963,598.891 283.595,592.322 285.227,585.77 286.859,579.237 288.492,572.722 
  290.124,566.227 291.756,559.751 293.388,553.297 295.021,546.863 296.653,540.452 298.285,534.063 299.917,527.698 301.55,521.356 303.182,515.04 304.814,508.748 
  306.446,502.482 308.078,496.242 309.711,490.03 311.343,483.845 312.975,477.689 314.607,471.561 316.24,465.463 317.872,459.395 319.504,453.358 321.136,447.353 
  322.769,441.379 324.401,435.437 326.033,429.529 327.665,423.655 329.298,417.815 330.93,412.01 332.562,406.24 334.194,400.506 335.827,394.809 337.459,389.15 
  339.091,383.528 340.723,377.944 342.356,372.399 343.988,366.894 345.62,361.428 347.252,356.003 348.885,350.62 350.517,345.278 352.149,339.978 353.781,334.72 
  355.414,329.506 357.046,324.336 358.678,319.21 360.31,314.129 361.942,309.092 363.575,304.102 365.207,299.158 366.839,294.261 368.471,289.411 370.104,284.609 
  371.736,279.855 373.368,275.149 375,270.493 376.633,265.887 378.265,261.33 379.897,256.825 381.529,252.37 383.162,247.966 384.794,243.615 386.426,239.316 
  388.058,235.069 389.691,230.876 391.323,226.736 392.955,222.651 394.587,218.619 396.22,214.643 397.852,210.722 399.484,206.856 401.116,203.047 402.749,199.293 
  404.381,195.597 406.013,191.958 407.645,188.376 409.278,184.852 410.91,181.386 412.542,177.979 414.174,174.63 415.806,171.341 417.439,168.112 419.071,164.942 
  420.703,161.832 422.335,158.783 423.968,155.795 425.6,152.868 427.232,150.002 428.864,147.198 430.497,144.456 432.129,141.776 433.761,139.159 435.393,136.604 
  437.026,134.113 438.658,131.685 440.29,129.32 441.922,127.019 443.555,124.782 445.187,122.609 446.819,120.501 448.451,118.457 450.084,116.478 451.716,114.564 
  453.348,112.716 454.98,110.932 456.613,109.215 458.245,107.563 459.877,105.977 461.509,104.457 463.142,103.003 464.774,101.616 466.406,100.295 468.038,99.0413 
  469.67,97.854 471.303,96.7336 472.935,95.6803 474.567,94.694 476.199,93.7749 477.832,92.9232 479.464,92.1389 481.096,91.422 482.728,90.7726 484.361,90.1909 
  485.993,89.6769 487.625,89.2305 489.257,88.8519 490.89,88.5411 492.522,88.2982 494.154,88.1231 495.786,88.0158 497.419,87.9765 499.051,88.005 500.683,88.1015 
  502.315,88.2657 503.948,88.4979 505.58,88.7979 507.212,89.1657 508.844,89.6012 510.477,90.1045 512.109,90.6755 513.741,91.314 515.373,92.0202 517.006,92.7938 
  518.638,93.6348 520.27,94.5431 521.902,95.5187 523.534,96.5614 525.167,97.6711 526.799,98.8477 528.431,100.091 530.063,101.401 531.696,102.778 533.328,104.221 
  534.96,105.73 536.592,107.306 538.225,108.947 539.857,110.654 541.489,112.427 543.121,114.265 544.754,116.169 546.386,118.137 548.018,120.171 549.65,122.269 
  551.283,124.432 552.915,126.658 554.547,128.949 556.179,131.304 557.812,133.722 559.444,136.203 561.076,138.748 562.708,141.355 564.341,144.025 565.973,146.757 
  567.605,149.552 569.237,152.407 570.87,155.325 572.502,158.303 574.134,161.343 575.766,164.443 577.398,167.603 579.031,170.823 580.663,174.103 582.295,177.441 
  583.927,180.839 585.56,184.296 587.192,187.811 588.824,191.383 590.456,195.013 592.089,198.701 593.721,202.445 595.353,206.246 596.985,210.102 598.618,214.015 
  600.25,217.982 601.882,222.005 603.514,226.082 605.147,230.213 606.779,234.398 608.411,238.636 610.043,242.927 611.676,247.27 613.308,251.665 614.94,256.112 
  616.572,260.609 618.205,265.158 619.837,269.756 621.469,274.405 623.101,279.102 624.734,283.848 626.366,288.643 627.998,293.485 629.63,298.375 631.262,303.312 
  632.895,308.295 634.527,313.323 636.159,318.398 637.791,323.517 639.424,328.68 641.056,333.887 642.688,339.137 644.32,344.431 645.953,349.766 647.585,355.143 
  649.217,360.562 650.849,366.02 652.482,371.52 654.114,377.058 655.746,382.636 657.378,388.252 659.011,393.905 660.643,399.597 662.275,405.324 663.907,411.088 
  665.54,416.888 667.172,422.722 668.804,428.591 670.436,434.494 672.069,440.43 673.701,446.399 675.333,452.4 676.965,458.432 678.598,464.495 680.23,470.588 
  681.862,476.711 683.494,482.863 685.126,489.043 686.759,495.251 688.391,501.486 690.023,507.748 691.655,514.036 693.288,520.349 694.92,526.686 696.552,533.048 
  698.184,539.433 699.817,545.841 701.449,552.271 703.081,558.722 704.713,565.194 706.346,571.686 707.978,578.198 709.61,584.729 711.242,591.277 712.875,597.844 
  714.507,604.427 716.139,611.027 717.771,617.642 719.404,624.272 721.036,630.916 722.668,637.574 724.3,644.245 725.933,650.928 727.565,657.623 729.197,664.328 
  730.829,671.044 732.462,677.77 734.094,684.504 735.726,691.247 737.358,697.997 738.99,704.754 740.623,711.517 742.255,718.286 743.887,725.059 745.519,731.837 
  747.152,738.619 748.784,745.403 750.416,752.189 752.048,758.977 753.681,765.765 755.313,772.554 756.945,779.342 758.577,786.129 760.21,792.914 761.842,799.696 
  763.474,806.475 765.106,813.25 766.739,820.02 768.371,826.785 770.003,833.544 771.635,840.297 773.268,847.042 774.9,853.779 776.532,860.507 778.164,867.226 
  779.797,873.935 781.429,880.633 783.061,887.32 784.693,893.995 786.326,900.657 787.958,907.306 789.59,913.941 791.222,920.561 792.854,927.165 794.487,933.754 
  796.119,940.326 797.751,946.88 799.383,953.417 801.016,959.935 802.648,966.433 804.28,972.912 805.912,979.37 807.545,985.806 809.177,992.221 810.809,998.614 
  812.441,1004.98 814.074,1011.33 815.706,1017.65 817.338,1023.94 818.97,1030.21 820.603,1036.46 822.235,1042.68 823.867,1048.86 825.499,1055.03 827.132,1061.16 
  828.764,1067.26 830.396,1073.33 832.028,1079.38 833.661,1085.39 835.293,1091.36 836.925,1097.31 838.557,1103.22 840.19,1109.1 841.822,1114.95 843.454,1120.76 
  845.086,1126.54 846.718,1132.28 848.351,1137.98 849.983,1143.64 851.615,1149.27 853.247,1154.86 854.88,1160.41 856.512,1165.93 858.144,1171.4 859.776,1176.83 
  861.409,1182.22 863.041,1187.57 864.673,1192.87 866.305,1198.14 867.938,1203.36 869.57,1208.54 871.202,1213.67 872.834,1218.76 874.467,1223.8 876.099,1228.8 
  877.731,1233.75 879.363,1238.66 880.996,1243.51 882.628,1248.32 884.26,1253.08 885.892,1257.8 887.525,1262.46 889.157,1267.08 890.789,1271.64 892.421,1276.15 
  894.054,1280.62 895.686,1285.03 897.318,1289.39 898.95,1293.7 900.582,1297.95 902.215,1302.15 903.847,1306.3 905.479,1310.4 907.111,1314.44 908.744,1318.42 
  910.376,1322.35 912.008,1326.22 913.64,1330.04 915.273,1333.81 916.905,1337.51 918.537,1341.16 920.169,1344.75 921.802,1348.28 923.434,1351.76 925.066,1355.18 
  926.698,1358.53 928.331,1361.83 929.963,1365.07 931.595,1368.25 933.227,1371.37 934.86,1374.43 936.492,1377.43 938.124,1380.36 939.756,1383.24 941.389,1386.05 
  943.021,1388.8 944.653,1391.49 946.285,1394.12 947.918,1396.69 949.55,1399.19 951.182,1401.63 952.814,1404 954.446,1406.31 956.079,1408.56 957.711,1410.74 
  959.343,1412.86 960.975,1414.91 962.608,1416.9 964.24,1418.83 965.872,1420.69 967.504,1422.48 969.137,1424.21 970.769,1425.87 972.401,1427.47 974.033,1429 
  975.666,1430.46 977.298,1431.86 978.93,1433.19 980.562,1434.46 982.195,1435.65 983.827,1436.79 985.459,1437.85 987.091,1438.85 988.724,1439.78 990.356,1440.64 
  991.988,1441.43 993.62,1442.16 995.253,1442.82 996.885,1443.41 998.517,1443.94 1000.15,1444.4 1001.78,1444.79 1003.41,1445.11 1005.05,1445.36 1006.68,1445.55 
  1008.31,1445.66 1009.94,1445.71 1011.57,1445.7 1013.21,1445.61 1014.84,1445.46 1016.47,1445.24 1018.1,1444.95 1019.74,1444.59 1021.37,1444.17 1023,1443.67 
  1024.63,1443.11 1026.27,1442.49 1027.9,1441.79 1029.53,1441.03 1031.16,1440.2 1032.79,1439.3 1034.43,1438.33 1036.06,1437.3 1037.69,1436.2 1039.32,1435.04 
  1040.96,1433.8 1042.59,1432.5 1044.22,1431.14 1045.85,1429.71 1047.48,1428.21 1049.12,1426.64 1050.75,1425.01 1052.38,1423.31 1054.01,1421.55 1055.65,1419.72 
  1057.28,1417.83 1058.91,1415.87 1060.54,1413.85 1062.17,1411.76 1063.81,1409.61 1065.44,1407.39 1067.07,1405.11 1068.7,1402.77 1070.34,1400.36 1071.97,1397.89 
  1073.6,1395.35 1075.23,1392.76 1076.86,1390.1 1078.5,1387.37 1080.13,1384.59 1081.76,1381.74 1083.39,1378.84 1085.03,1375.87 1086.66,1372.84 1088.29,1369.75 
  1089.92,1366.6 1091.55,1363.39 1093.19,1360.12 1094.82,1356.79 1096.45,1353.4 1098.08,1349.95 1099.72,1346.45 1101.35,1342.88 1102.98,1339.26 1104.61,1335.58 
  1106.25,1331.85 1107.88,1328.06 1109.51,1324.21 1111.14,1320.3 1112.77,1316.35 1114.41,1312.33 1116.04,1308.26 1117.67,1304.14 1119.3,1299.97 1120.94,1295.74 
  1122.57,1291.45 1124.2,1287.12 1125.83,1282.73 1127.46,1278.29 1129.1,1273.8 1130.73,1269.26 1132.36,1264.67 1133.99,1260.03 1135.63,1255.34 1137.26,1250.6 
  1138.89,1245.82 1140.52,1240.98 1142.15,1236.1 1143.79,1231.17 1145.42,1226.19 1147.05,1221.17 1148.68,1216.11 1150.32,1210.99 1151.95,1205.84 1153.58,1200.64 
  1155.21,1195.39 1156.84,1190.11 1158.48,1184.78 1160.11,1179.41 1161.74,1174 1163.37,1168.54 1165.01,1163.05 1166.64,1157.52 1168.27,1151.95 1169.9,1146.34 
  1171.53,1140.69 1173.17,1135.01 1174.8,1129.28 1176.43,1123.52 1178.06,1117.73 1179.7,1111.9 1181.33,1106.04 1182.96,1100.14 1184.59,1094.21 1186.22,1088.25 
  1187.86,1082.25 1189.49,1076.22 1191.12,1070.17 1192.75,1064.08 1194.39,1057.96 1196.02,1051.81 1197.65,1045.64 1199.28,1039.43 1200.92,1033.2 1202.55,1026.94 
  1204.18,1020.66 1205.81,1014.35 1207.44,1008.02 1209.08,1001.66 1210.71,995.278 1212.34,988.874 1213.97,982.448 1215.61,976 1217.24,969.531 1218.87,963.042 
  1220.5,956.533 1222.13,950.006 1223.77,943.46 1225.4,936.896 1227.03,930.315 1228.66,923.718 1230.3,917.106 1231.93,910.478 1233.56,903.836 1235.19,897.18 
  1236.82,890.511 1238.46,883.83 1240.09,877.137 1241.72,870.433 1243.35,863.719 1244.99,856.995 1246.62,850.262 1248.25,843.521 1249.88,836.772 1251.51,830.016 
  1253.15,823.253 1254.78,816.485 1256.41,809.712 1258.04,802.935 1259.68,796.155 1261.31,789.371 1262.94,782.585 1264.57,775.797 1266.2,769.009 1267.84,762.22 
  1269.47,755.432 1271.1,748.645 1272.73,741.86 1274.37,735.077 1276,728.297 1277.63,721.522 1279.26,714.75 1280.89,707.985 1282.53,701.224 1284.16,694.471 
  1285.79,687.725 1287.42,680.986 1289.06,674.256 1290.69,667.536 1292.32,660.825 1293.95,654.125 1295.59,647.437 1297.22,640.76 1298.85,634.096 1300.48,627.445 
  1302.11,620.808 1303.75,614.186 1305.38,607.578 1307.01,600.987 1308.64,594.413 1310.28,587.855 1311.91,581.316 1313.54,574.795 1315.17,568.293 1316.8,561.812 
  1318.44,555.35 1320.07,548.91 1321.7,542.492 1323.33,536.096 1324.97,529.723 1326.6,523.374 1328.23,517.049 1329.86,510.749 1331.49,504.475 1333.13,498.227 
  1334.76,492.006 1336.39,485.812 1338.02,479.647 1339.66,473.51 1341.29,467.402 1342.92,461.325 1344.55,455.278 1346.18,449.262 1347.82,443.278 1349.45,437.326 
  1351.08,431.408 1352.71,425.522 1354.35,419.671 1355.98,413.855 1357.61,408.074 1359.24,402.329 1360.87,396.62 1362.51,390.948 1364.14,385.314 1365.77,379.718 
  1367.4,374.161 1369.04,368.643 1370.67,363.165 1372.3,357.727 1373.93,352.33 1375.57,346.975 1377.2,341.661 1378.83,336.39 1380.46,331.162 1382.09,325.978 
  1383.73,320.838 1385.36,315.742 1386.99,310.692 1388.62,305.687 1390.26,300.728 1391.89,295.816 1393.52,290.951 1395.15,286.133 1396.78,281.364 1398.42,276.643 
  1400.05,271.971 1401.68,267.349 1403.31,262.776 1404.95,258.254 1406.58,253.783 1408.21,249.363 1409.84,244.995 1411.47,240.679 1413.11,236.416 1414.74,232.206 
  1416.37,228.049 1418,223.946 1419.64,219.897 1421.27,215.904 1422.9,211.965 1424.53,208.081 1426.16,204.254 1427.8,200.483 1429.43,196.768 1431.06,193.111 
  1432.69,189.51 1434.33,185.968 1435.96,182.484 1437.59,179.058 1439.22,175.69 1440.85,172.382 1442.49,169.134 1444.12,165.945 1445.75,162.816 1447.38,159.748 
  1449.02,156.74 1450.65,153.794 1452.28,150.908 1453.91,148.085 1455.54,145.323 1457.18,142.623 1458.81,139.986 1460.44,137.411 1462.07,134.9 1463.71,132.451 
  1465.34,130.066 1466.97,127.745 1468.6,125.487 1470.24,123.294 1471.87,121.165 1473.5,119.101 1475.13,117.101 1476.76,115.167 1478.4,113.297 1480.03,111.493 
  1481.66,109.755 1483.29,108.082 1484.93,106.475 1486.56,104.934 1488.19,103.459 1489.82,102.051 1491.45,100.709 1493.09,99.4335 1494.72,98.225 1496.35,97.0832 
  1497.98,96.0085 1499.62,95.0009 1501.25,94.0604 1502.88,93.1872 1504.51,92.3814 1506.14,91.643 1507.78,90.9721 1509.41,90.3689 1511.04,89.8333 1512.67,89.3653 
  1514.31,88.9652 1515.94,88.6328 1517.57,88.3682 1519.2,88.1715 1520.83,88.0426 1522.47,87.9817 1524.1,87.9886 1525.73,88.0634 1527.36,88.206 1529,88.4166 
  1530.63,88.695 1532.26,89.0412 1533.89,89.4551 1535.52,89.9369 1537.16,90.4863 1538.79,91.1033 1540.42,91.7879 1542.05,92.54 1543.69,93.3596 1545.32,94.2465 
  1546.95,95.2006 1548.58,96.222 1550.21,97.3104 1551.85,98.4657 1553.48,99.6879 1555.11,100.977 1556.74,102.332 1558.38,103.754 1560.01,105.242 1561.64,106.797 
  1563.27,108.417 1564.91,110.103 1566.54,111.855 1568.17,113.673 1569.8,115.555 1571.43,117.503 1573.07,119.516 1574.7,121.594 1576.33,123.736 1577.96,125.942 
  1579.6,128.213 1581.23,130.547 1582.86,132.945 1584.49,135.406 1586.12,137.931 1587.76,140.518 1589.39,143.168 1591.02,145.88 1592.65,148.655 1594.29,151.491 
  1595.92,154.389 1597.55,157.348 1599.18,160.368 1600.81,163.449 1602.45,166.59 1604.08,169.791 1605.71,173.051 1607.34,176.371 1608.98,179.751 1610.61,183.189 
  1612.24,186.685 1613.87,190.239 1615.5,193.851 1617.14,197.52 1618.77,201.246 1620.4,205.029 1622.03,208.868 1623.67,212.762 1625.3,216.713 1626.93,220.718 
  1628.56,224.777 1630.19,228.891 1631.83,233.059 1633.46,237.28 1635.09,241.554 1636.72,245.881 1638.36,250.259 1639.99,254.69 1641.62,259.171 1643.25,263.704 
  1644.89,268.286 1646.52,272.919 1648.15,277.601 1649.78,282.331 1651.41,287.111 1653.05,291.938 1654.68,296.812 1656.31,301.734 1657.94,306.702 1659.58,311.717 
  1661.21,316.776 1662.84,321.881 1664.47,327.03 1666.1,332.224 1667.74,337.46 1669.37,342.74 1671,348.062 1672.63,353.426 1674.27,358.831 1675.9,364.277 
  1677.53,369.764 1679.16,375.29 1680.79,380.855 1682.43,386.459 1684.06,392.1 1685.69,397.78 1687.32,403.496 1688.96,409.248 1690.59,415.037 1692.22,420.86 
  1693.85,426.718 1695.48,432.61 1697.12,438.536 1698.75,444.494 1700.38,450.485 1702.01,456.507 1703.65,462.56 1705.28,468.644 1706.91,474.757 1708.54,480.9 
  1710.17,487.071 1711.81,493.271 1713.44,499.497 1715.07,505.751 1716.7,512.03 1718.34,518.335 1719.97,524.665 1721.6,531.019 1723.23,537.397 1724.86,543.797 
  1726.5,550.22 1728.13,556.665 1729.76,563.13 1731.39,569.616 1733.03,576.122 1734.66,582.646 1736.29,589.19 1737.92,595.75 1739.56,602.328 1741.19,608.923 
  1742.82,615.533 1744.45,622.158 1746.08,628.798 1747.72,635.452 1749.35,642.119 1750.98,648.798 1752.61,655.489 1754.25,662.191 1755.88,668.904 1757.51,675.626 
  1759.14,682.358 1760.77,689.098 1762.41,695.846 1764.04,702.601 1765.67,709.362 1767.3,716.129 1768.94,722.901 1770.57,729.678 1772.2,736.458 1773.83,743.241 
  1775.46,750.027 1777.1,756.814 1778.73,763.603 1780.36,770.391 1781.99,777.18 1783.63,783.967 1785.26,790.753 1786.89,797.536 1788.52,804.316 1790.15,811.092 
  1791.79,817.864 1793.42,824.631 1795.05,831.392 1796.68,838.147 1798.32,844.894 1799.95,851.634 1801.58,858.365 1803.21,865.087 1804.84,871.799 1806.48,878.501 
  1808.11,885.192 1809.74,891.87 1811.37,898.537 1813.01,905.19 1814.64,911.829 1816.27,918.454 1817.9,925.063 1819.53,931.657 1821.17,938.234 1822.8,944.794 
  1824.43,951.337 1826.06,957.86 1827.7,964.365 1829.33,970.85 1830.96,977.315 1832.59,983.758 1834.23,990.18 1835.86,996.58 1837.49,1002.96 1839.12,1009.31 
  1840.75,1015.64 1842.39,1021.94 1844.02,1028.22 1845.65,1034.47 1847.28,1040.7 1848.92,1046.9 1850.55,1053.07 1852.18,1059.21 1853.81,1065.32 1855.44,1071.4 
  1857.08,1077.45 1858.71,1083.47 1860.34,1089.46 1861.97,1095.42 1863.61,1101.34 1865.24,1107.24 1866.87,1113.09 1868.5,1118.91 1870.13,1124.7 1871.77,1130.45 
  1873.4,1136.17 1875.03,1141.84 1876.66,1147.48 1878.3,1153.09 1879.93,1158.65 1881.56,1164.17 1883.19,1169.66 1884.82,1175.1 1886.46,1180.51 1888.09,1185.87 
  1889.72,1191.19 1891.35,1196.47 1892.99,1201.7 1894.62,1206.89 1896.25,1212.04 1897.88,1217.14 1899.51,1222.2 1901.15,1227.21 1902.78,1232.18 1904.41,1237.1 
  1906.04,1241.97 1907.68,1246.8 1909.31,1251.57 1910.94,1256.3 1912.57,1260.98 1914.21,1265.61 1915.84,1270.19 1917.47,1274.72 1919.1,1279.2 1920.73,1283.63 
  1922.37,1288.01 1924,1292.33 1925.63,1296.6 1927.26,1300.82 1928.9,1304.99 1930.53,1309.1 1932.16,1313.15 1933.79,1317.16 1935.42,1321.1 1937.06,1325 
  1938.69,1328.83 1940.32,1332.61 1941.95,1336.34 1943.59,1340 1945.22,1343.61 1946.85,1347.16 1948.48,1350.66 1950.11,1354.09 1951.75,1357.47 1953.38,1360.79 
  1955.01,1364.05 1956.64,1367.24 1958.28,1370.38 1959.91,1373.46 1961.54,1376.48 1963.17,1379.43 1964.8,1382.33 1966.44,1385.16 1968.07,1387.93 1969.7,1390.64 
  1971.33,1393.29 1972.97,1395.88 1974.6,1398.4 1976.23,1400.86 1977.86,1403.25 1979.49,1405.58 1981.13,1407.85 1982.76,1410.05 1984.39,1412.19 1986.02,1414.27 
  1987.66,1416.28 1989.29,1418.22 1990.92,1420.1 1992.55,1421.92 1994.18,1423.67 1995.82,1425.35 1997.45,1426.97 1999.08,1428.52 2000.71,1430 2002.35,1431.42 
  2003.98,1432.77 2005.61,1434.06 2007.24,1435.28 2008.88,1436.43 2010.51,1437.52 2012.14,1438.54 2013.77,1439.49 2015.4,1440.37 2017.04,1441.19 2018.67,1441.94 
  2020.3,1442.62 2021.93,1443.23 2023.57,1443.78 2025.2,1444.26 2026.83,1444.67 2028.46,1445.01 2030.09,1445.29 2031.73,1445.49 2033.36,1445.63 2034.99,1445.71 
  2036.62,1445.71 2038.26,1445.65 2039.89,1445.51 2041.52,1445.31 2043.15,1445.05 2044.78,1444.71 2046.42,1444.31 2048.05,1443.84 2049.68,1443.3 2051.31,1442.69 
  2052.95,1442.02 2054.58,1441.28 2056.21,1440.47 2057.84,1439.59 2059.47,1438.65 2061.11,1437.64 2062.74,1436.56 2064.37,1435.42 2066,1434.2 2067.64,1432.93 
  2069.27,1431.58 2070.9,1430.17 2072.53,1428.69 2074.16,1427.15 2075.8,1425.54 2077.43,1423.86 2079.06,1422.12 2080.69,1420.31 2082.33,1418.44 2083.96,1416.5 
  2085.59,1414.5 2087.22,1412.43 2088.85,1410.3 2090.49,1408.11 2092.12,1405.85 2093.75,1403.52 2095.38,1401.13 2097.02,1398.68 2098.65,1396.17 2100.28,1393.59 
  2101.91,1390.95 2103.55,1388.25 2105.18,1385.48 2106.81,1382.66 2108.44,1379.77 2110.07,1376.82 2111.71,1373.81 2113.34,1370.74 2114.97,1367.61 2116.6,1364.42 
  2118.24,1361.16 2119.87,1357.85 2121.5,1354.48 2123.13,1351.06 2124.76,1347.57 2126.4,1344.02 2128.03,1340.42 2129.66,1336.76 2131.29,1333.04 2132.93,1329.27 
  2134.56,1325.44 2136.19,1321.55 2137.82,1317.61 2139.45,1313.62 2141.09,1309.57 2142.72,1305.46 2144.35,1301.3 2145.98,1297.09 2147.62,1292.82 2149.25,1288.5 
  2150.88,1284.13 2152.51,1279.71 2154.14,1275.24 2155.78,1270.71 2157.41,1266.14 2159.04,1261.52 2160.67,1256.84 2162.31,1252.12 2163.94,1247.35 2165.57,1242.53 
  2167.2,1237.66 2168.83,1232.75 2170.47,1227.78 2172.1,1222.78 2173.73,1217.73 2175.36,1212.63 2177,1207.49 2178.63,1202.3 2180.26,1197.07 2181.89,1191.8 
  2183.53,1186.48 2185.16,1181.12 2186.79,1175.73 2188.42,1170.29 2190.05,1164.81 2191.69,1159.29 2193.32,1153.73 2194.95,1148.13 2196.58,1142.49 2198.22,1136.82 
  2199.85,1131.11 2201.48,1125.36 2203.11,1119.58 2204.74,1113.76 2206.38,1107.91 2208.01,1102.02 2209.64,1096.1 2211.27,1090.15 2212.91,1084.16 2214.54,1078.15 
  2216.17,1072.1 2217.8,1066.02 2219.43,1059.91 2221.07,1053.77 2222.7,1047.61 2224.33,1041.41 2225.96,1035.19 2227.6,1028.94 2229.23,1022.66 2230.86,1016.36 
  2232.49,1010.04 2234.12,1003.69 2235.76,997.313 2237.39,990.917 2239.02,984.497 2240.65,978.056 2242.29,971.594 2243.92,965.111 2245.55,958.609 2247.18,952.087 
  2248.81,945.547 2250.45,938.989 2252.08,932.413 2253.71,925.821 2255.34,919.214 2256.98,912.591 2258.61,905.953 2260.24,899.301 2261.87,892.637 2263.5,885.959 
  2265.14,879.27 2266.77,872.57 2268.4,865.859 2270.03,859.138 2271.67,852.407 2273.3,845.669 2274.93,838.922 2276.56,832.168 2278.2,825.408 2279.83,818.642 
  2281.46,811.87 2283.09,805.094 2284.72,798.315 2286.36,791.532 2287.99,784.747 2289.62,777.959 2291.25,771.171 
  "/>
<polyline clip-path="url(#clip752)" style="stroke:#ff0000; stroke-width:12; stroke-opacity:1; fill:none" points="
  241.157,87.9763 242.789,88.0102 244.421,88.112 246.053,88.2817 247.686,88.5193 249.318,88.8247 250.95,89.1979 252.582,89.6388 254.214,90.1475 255.847,90.7238 
  257.479,91.3678 259.111,92.0793 260.743,92.8583 262.376,93.7047 264.008,94.6183 265.64,95.5993 267.272,96.6473 268.905,97.7623 270.537,98.9443 272.169,100.193 
  273.801,101.508 275.434,102.89 277.066,104.339 278.698,105.853 280.33,107.434 281.963,109.081 283.595,110.793 285.227,112.571 286.859,114.415 288.492,116.323 
  290.124,118.297 291.756,120.336 293.388,122.439 295.021,124.607 296.653,126.838 298.285,129.134 299.917,131.494 301.55,133.917 303.182,136.404 304.814,138.953 
  306.446,141.566 308.078,144.24 309.711,146.978 311.343,149.777 312.975,152.638 314.607,155.56 316.24,158.543 317.872,161.587 319.504,164.692 321.136,167.857 
  322.769,171.082 324.401,174.366 326.033,177.71 327.665,181.112 329.298,184.574 330.93,188.093 332.562,191.67 334.194,195.305 335.827,198.997 337.459,202.746 
  339.091,206.551 340.723,210.412 342.356,214.329 343.988,218.301 345.62,222.328 347.252,226.409 348.885,230.544 350.517,234.733 352.149,238.976 353.781,243.271 
  355.414,247.618 357.046,252.017 358.678,256.468 360.31,260.97 361.942,265.522 363.575,270.125 365.207,274.777 366.839,279.478 368.471,284.228 370.104,289.027 
  371.736,293.873 373.368,298.767 375,303.707 376.633,308.693 378.265,313.726 379.897,318.804 381.529,323.926 383.162,329.093 384.794,334.304 386.426,339.557 
  388.058,344.854 389.691,350.193 391.323,355.573 392.955,360.995 394.587,366.457 396.22,371.959 397.852,377.501 399.484,383.081 401.116,388.7 402.749,394.357 
  404.381,400.051 406.013,405.782 407.645,411.549 409.278,417.351 410.91,423.189 412.542,429.06 414.174,434.966 415.806,440.904 417.439,446.876 419.071,452.879 
  420.703,458.914 422.335,464.979 423.968,471.075 425.6,477.2 427.232,483.354 428.864,489.536 430.497,495.747 432.129,501.984 433.761,508.248 435.393,514.538 
  437.026,520.853 438.658,527.192 440.29,533.556 441.922,539.942 443.555,546.352 445.187,552.783 446.819,559.236 448.451,565.71 450.084,572.204 451.716,578.717 
  453.348,585.249 454.98,591.8 456.613,598.368 458.245,604.952 459.877,611.553 461.509,618.169 463.142,624.801 464.774,631.446 466.406,638.105 468.038,644.777 
  469.67,651.461 471.303,658.156 472.935,664.863 474.567,671.579 476.199,678.306 477.832,685.041 479.464,691.784 481.096,698.535 482.728,705.292 484.361,712.056 
  485.993,718.825 487.625,725.599 489.257,732.377 490.89,739.159 492.522,745.943 494.154,752.729 495.786,759.517 497.419,766.306 499.051,773.094 500.683,779.882 
  502.315,786.669 503.948,793.454 505.58,800.236 507.212,807.015 508.844,813.789 510.477,820.559 512.109,827.324 513.741,834.082 515.373,840.834 517.006,847.579 
  518.638,854.315 520.27,861.043 521.902,867.761 523.534,874.469 525.167,881.166 526.799,887.852 528.431,894.526 530.063,901.187 531.696,907.835 533.328,914.468 
  534.96,921.087 536.592,927.69 538.225,934.278 539.857,940.848 541.489,947.401 543.121,953.936 544.754,960.453 546.386,966.95 548.018,973.427 549.65,979.883 
  551.283,986.318 552.915,992.731 554.547,999.122 556.179,1005.49 557.812,1011.83 559.444,1018.15 561.076,1024.44 562.708,1030.71 564.341,1036.95 565.973,1043.17 
  567.605,1049.36 569.237,1055.51 570.87,1061.64 572.502,1067.75 574.134,1073.82 575.766,1079.85 577.398,1085.86 579.031,1091.84 580.663,1097.78 582.295,1103.69 
  583.927,1109.57 585.56,1115.41 587.192,1121.22 588.824,1126.99 590.456,1132.73 592.089,1138.43 593.721,1144.09 595.353,1149.72 596.985,1155.31 598.618,1160.85 
  600.25,1166.36 601.882,1171.83 603.514,1177.26 605.147,1182.65 606.779,1187.99 608.411,1193.29 610.043,1198.56 611.676,1203.77 613.308,1208.95 614.94,1214.08 
  616.572,1219.16 618.205,1224.2 619.837,1229.19 621.469,1234.14 623.101,1239.04 624.734,1243.9 626.366,1248.7 627.998,1253.46 629.63,1258.17 631.262,1262.83 
  632.895,1267.44 634.527,1272 636.159,1276.51 637.791,1280.97 639.424,1285.38 641.056,1289.73 642.688,1294.04 644.32,1298.29 645.953,1302.48 647.585,1306.63 
  649.217,1310.72 650.849,1314.75 652.482,1318.74 654.114,1322.66 655.746,1326.53 657.378,1330.34 659.011,1334.1 660.643,1337.8 662.275,1341.45 663.907,1345.03 
  665.54,1348.56 667.172,1352.03 668.804,1355.44 670.436,1358.8 672.069,1362.09 673.701,1365.33 675.333,1368.5 676.965,1371.62 678.598,1374.67 680.23,1377.66 
  681.862,1380.59 683.494,1383.46 685.126,1386.27 686.759,1389.02 688.391,1391.71 690.023,1394.33 691.655,1396.89 693.288,1399.38 694.92,1401.82 696.552,1404.19 
  698.184,1406.49 699.817,1408.74 701.449,1410.91 703.081,1413.03 704.713,1415.08 706.346,1417.06 707.978,1418.98 709.61,1420.83 711.242,1422.62 712.875,1424.34 
  714.507,1426 716.139,1427.59 717.771,1429.12 719.404,1430.58 721.036,1431.97 722.668,1433.29 724.3,1434.55 725.933,1435.75 727.565,1436.87 729.197,1437.93 
  730.829,1438.92 732.462,1439.85 734.094,1440.7 735.726,1441.49 737.358,1442.22 738.99,1442.87 740.623,1443.46 742.255,1443.98 743.887,1444.43 745.519,1444.81 
  747.152,1445.13 748.784,1445.38 750.416,1445.56 752.048,1445.67 753.681,1445.72 755.313,1445.69 756.945,1445.6 758.577,1445.44 760.21,1445.22 761.842,1444.92 
  763.474,1444.56 765.106,1444.13 766.739,1443.63 768.371,1443.07 770.003,1442.43 771.635,1441.73 773.268,1440.96 774.9,1440.13 776.532,1439.22 778.164,1438.25 
  779.797,1437.22 781.429,1436.11 783.061,1434.94 784.693,1433.7 786.326,1432.4 787.958,1431.03 789.59,1429.59 791.222,1428.09 792.854,1426.51 794.487,1424.88 
  796.119,1423.18 797.751,1421.41 799.383,1419.58 801.016,1417.68 802.648,1415.71 804.28,1413.69 805.912,1411.59 807.545,1409.44 809.177,1407.21 810.809,1404.93 
  812.441,1402.58 814.074,1400.17 815.706,1397.69 817.338,1395.15 818.97,1392.55 820.603,1389.88 822.235,1387.16 823.867,1384.37 825.499,1381.52 827.132,1378.6 
  828.764,1375.63 830.396,1372.59 832.028,1369.5 833.661,1366.34 835.293,1363.13 836.925,1359.85 838.557,1356.52 840.19,1353.13 841.822,1349.67 843.454,1346.16 
  845.086,1342.6 846.718,1338.97 848.351,1335.29 849.983,1331.55 851.615,1327.75 853.247,1323.9 854.88,1319.99 856.512,1316.03 858.144,1312.01 859.776,1307.94 
  861.409,1303.81 863.041,1299.63 864.673,1295.4 866.305,1291.11 867.938,1286.77 869.57,1282.38 871.202,1277.94 872.834,1273.44 874.467,1268.9 876.099,1264.3 
  877.731,1259.66 879.363,1254.97 880.996,1250.22 882.628,1245.43 884.26,1240.59 885.892,1235.71 887.525,1230.78 889.157,1225.8 890.789,1220.77 892.421,1215.7 
  894.054,1210.59 895.686,1205.43 897.318,1200.22 898.95,1194.98 900.582,1189.69 902.215,1184.35 903.847,1178.98 905.479,1173.56 907.111,1168.11 908.744,1162.61 
  910.376,1157.08 912.008,1151.5 913.64,1145.89 915.273,1140.24 916.905,1134.55 918.537,1128.83 920.169,1123.06 921.802,1117.27 923.434,1111.44 925.066,1105.57 
  926.698,1099.67 928.331,1093.74 929.963,1087.77 931.595,1081.77 933.227,1075.74 934.86,1069.68 936.492,1063.59 938.124,1057.47 939.756,1051.32 941.389,1045.14 
  943.021,1038.94 944.653,1032.7 946.285,1026.44 947.918,1020.16 949.55,1013.85 951.182,1007.51 952.814,1001.15 954.446,994.769 956.079,988.363 957.711,981.935 
  959.343,975.486 960.975,969.015 962.608,962.524 964.24,956.014 965.872,949.485 967.504,942.938 969.137,936.372 970.769,929.79 972.401,923.192 974.033,916.578 
  975.666,909.949 977.298,903.306 978.93,896.649 980.562,889.98 982.195,883.297 983.827,876.604 985.459,869.899 987.091,863.184 988.724,856.459 990.356,849.725 
  991.988,842.983 993.62,836.234 995.253,829.477 996.885,822.715 998.517,815.946 1000.15,809.173 1001.78,802.395 1003.41,795.614 1005.05,788.83 1006.68,782.044 
  1008.31,775.257 1009.94,768.468 1011.57,761.68 1013.21,754.891 1014.84,748.104 1016.47,741.319 1018.1,734.537 1019.74,727.758 1021.37,720.982 1023,714.211 
  1024.63,707.446 1026.27,700.686 1027.9,693.933 1029.53,687.188 1031.16,680.45 1032.79,673.721 1034.43,667.001 1036.06,660.291 1037.69,653.592 1039.32,646.905 
  1040.96,640.229 1042.59,633.566 1044.22,626.916 1045.85,620.28 1047.48,613.659 1049.12,607.053 1050.75,600.463 1052.38,593.89 1054.01,587.334 1055.65,580.796 
  1057.28,574.277 1058.91,567.777 1060.54,561.296 1062.17,554.837 1063.81,548.398 1065.44,541.982 1067.07,535.587 1068.7,529.216 1070.34,522.869 1071.97,516.546 
  1073.6,510.249 1075.23,503.976 1076.86,497.731 1078.5,491.512 1080.13,485.32 1081.76,479.157 1083.39,473.022 1085.03,466.917 1086.66,460.842 1088.29,454.798 
  1089.92,448.784 1091.55,442.803 1093.19,436.854 1094.82,430.938 1096.45,425.055 1098.08,419.207 1099.72,413.393 1101.35,407.615 1102.98,401.873 1104.61,396.167 
  1106.25,390.498 1107.88,384.867 1109.51,379.274 1111.14,373.72 1112.77,368.205 1114.41,362.73 1116.04,357.296 1117.67,351.902 1119.3,346.55 1120.94,341.24 
  1122.57,335.972 1124.2,330.748 1125.83,325.567 1127.46,320.43 1129.1,315.338 1130.73,310.291 1132.36,305.29 1133.99,300.335 1135.63,295.427 1137.26,290.565 
  1138.89,285.752 1140.52,280.986 1142.15,276.269 1143.79,271.601 1145.42,266.983 1147.05,262.414 1148.68,257.896 1150.32,253.429 1151.95,249.014 1153.58,244.65 
  1155.21,240.338 1156.84,236.079 1158.48,231.873 1160.11,227.72 1161.74,223.622 1163.37,219.577 1165.01,215.588 1166.64,211.653 1168.27,207.775 1169.9,203.952 
  1171.53,200.185 1173.17,196.475 1174.8,192.822 1176.43,189.226 1178.06,185.688 1179.7,182.209 1181.33,178.787 1182.96,175.425 1184.59,172.122 1186.22,168.878 
  1187.86,165.694 1189.49,162.57 1191.12,159.506 1192.75,156.503 1194.39,153.562 1196.02,150.681 1197.65,147.862 1199.28,145.106 1200.92,142.411 1202.55,139.779 
  1204.18,137.209 1205.81,134.702 1207.44,132.259 1209.08,129.879 1210.71,127.563 1212.34,125.31 1213.97,123.122 1215.61,120.999 1217.24,118.939 1218.87,116.945 
  1220.5,115.015 1222.13,113.151 1223.77,111.352 1225.4,109.619 1227.03,107.951 1228.66,106.35 1230.3,104.814 1231.93,103.345 1233.56,101.941 1235.19,100.605 
  1236.82,99.3348 1238.46,98.1316 1240.09,96.9952 1241.72,95.9258 1243.35,94.9235 1244.99,93.9884 1246.62,93.1206 1248.25,92.3201 1249.88,91.5871 1251.51,90.9216 
  1253.15,90.3237 1254.78,89.7935 1256.41,89.331 1258.04,88.9362 1259.68,88.6092 1261.31,88.3501 1262.94,88.1587 1264.57,88.0353 1266.2,87.9797 1267.84,87.992 
  1269.47,88.0722 1271.1,88.2203 1272.73,88.4363 1274.37,88.7201 1276,89.0716 1277.63,89.491 1279.26,89.9781 1280.89,90.5329 1282.53,91.1553 1284.16,91.8453 
  1285.79,92.6028 1287.42,93.4277 1289.06,94.32 1290.69,95.2795 1292.32,96.3062 1293.95,97.3999 1295.59,98.5606 1297.22,99.7881 1298.85,101.082 1300.48,102.443 
  1302.11,103.87 1303.75,105.364 1305.38,106.923 1307.01,108.549 1308.64,110.241 1310.28,111.998 1311.91,113.82 1313.54,115.708 1315.17,117.661 1316.8,119.679 
  1318.44,121.762 1320.07,123.909 1321.7,126.121 1323.33,128.396 1324.97,130.735 1326.6,133.138 1328.23,135.605 1329.86,138.134 1331.49,140.727 1333.13,143.382 
  1334.76,146.099 1336.39,148.878 1338.02,151.72 1339.66,154.622 1341.29,157.586 1342.92,160.611 1344.55,163.697 1346.18,166.842 1347.82,170.048 1349.45,173.314 
  1351.08,176.638 1352.71,180.022 1354.35,183.465 1355.98,186.966 1357.61,190.524 1359.24,194.141 1360.87,197.815 1362.51,201.545 1364.14,205.333 1365.77,209.176 
  1367.4,213.075 1369.04,217.029 1370.67,221.039 1372.3,225.103 1373.93,229.221 1375.57,233.393 1377.2,237.618 1378.83,241.897 1380.46,246.227 1382.09,250.61 
  1383.73,255.045 1385.36,259.53 1386.99,264.067 1388.62,268.653 1390.26,273.29 1391.89,277.975 1393.52,282.71 1395.15,287.493 1396.78,292.324 1398.42,297.203 
  1400.05,302.128 1401.68,307.1 1403.31,312.118 1404.95,317.181 1406.58,322.29 1408.21,327.442 1409.84,332.639 1411.47,337.879 1413.11,343.162 1414.74,348.488 
  1416.37,353.855 1418,359.263 1419.64,364.713 1421.27,370.202 1422.9,375.731 1424.53,381.3 1426.16,386.906 1427.8,392.551 1429.43,398.234 1431.06,403.953 
  1432.69,409.708 1434.33,415.499 1435.96,421.325 1437.59,427.186 1439.22,433.081 1440.85,439.009 1442.49,444.97 1444.12,450.963 1445.75,456.988 1447.38,463.044 
  1449.02,469.13 1450.65,475.246 1452.28,481.391 1453.91,487.564 1455.54,493.766 1457.18,499.994 1458.81,506.25 1460.44,512.531 1462.07,518.838 1463.71,525.17 
  1465.34,531.526 1466.97,537.906 1468.6,544.308 1470.24,550.732 1471.87,557.179 1473.5,563.646 1475.13,570.133 1476.76,576.641 1478.4,583.167 1480.03,589.711 
  1481.66,596.274 1483.29,602.853 1484.93,609.449 1486.56,616.06 1488.19,622.687 1489.82,629.328 1491.45,635.982 1493.09,642.65 1494.72,649.33 1496.35,656.022 
  1497.98,662.725 1499.62,669.439 1501.25,676.162 1502.88,682.894 1504.51,689.635 1506.14,696.384 1507.78,703.139 1509.41,709.901 1511.04,716.668 1512.67,723.441 
  1514.31,730.218 1515.94,736.998 1517.57,743.782 1519.2,750.568 1520.83,757.355 1522.47,764.143 1524.1,770.932 1525.73,777.72 1527.36,784.508 1529,791.293 
  1530.63,798.076 1532.26,804.856 1533.89,811.632 1535.52,818.403 1537.16,825.17 1538.79,831.93 1540.42,838.684 1542.05,845.431 1543.69,852.17 1545.32,858.901 
  1546.95,865.622 1548.58,872.333 1550.21,879.034 1551.85,885.724 1553.48,892.402 1555.11,899.067 1556.74,905.719 1558.38,912.357 1560.01,918.98 1561.64,925.589 
  1563.27,932.181 1564.91,938.757 1566.54,945.316 1568.17,951.857 1569.8,958.379 1571.43,964.882 1573.07,971.366 1574.7,977.829 1576.33,984.271 1577.96,990.691 
  1579.6,997.089 1581.23,1003.46 1582.86,1009.81 1584.49,1016.14 1586.12,1022.44 1587.76,1028.72 1589.39,1034.97 1591.02,1041.19 1592.65,1047.39 1594.29,1053.56 
  1595.92,1059.7 1597.55,1065.81 1599.18,1071.89 1600.81,1077.93 1602.45,1083.95 1604.08,1089.94 1605.71,1095.89 1607.34,1101.82 1608.98,1107.7 1610.61,1113.56 
  1612.24,1119.38 1613.87,1125.16 1615.5,1130.91 1617.14,1136.62 1618.77,1142.29 1620.4,1147.93 1622.03,1153.53 1623.67,1159.09 1625.3,1164.61 1626.93,1170.09 
  1628.56,1175.53 1630.19,1180.93 1631.83,1186.29 1633.46,1191.61 1635.09,1196.88 1636.72,1202.12 1638.36,1207.3 1639.99,1212.45 1641.62,1217.55 1643.25,1222.6 
  1644.89,1227.61 1646.52,1232.57 1648.15,1237.49 1649.78,1242.36 1651.41,1247.18 1653.05,1251.95 1654.68,1256.68 1656.31,1261.35 1657.94,1265.98 1659.58,1270.55 
  1661.21,1275.08 1662.84,1279.56 1664.47,1283.98 1666.1,1288.35 1667.74,1292.67 1669.37,1296.94 1671,1301.15 1672.63,1305.31 1674.27,1309.42 1675.9,1313.47 
  1677.53,1317.47 1679.16,1321.42 1680.79,1325.3 1682.43,1329.14 1684.06,1332.91 1685.69,1336.63 1687.32,1340.29 1688.96,1343.9 1690.59,1347.44 1692.22,1350.93 
  1693.85,1354.36 1695.48,1357.74 1697.12,1361.05 1698.75,1364.3 1700.38,1367.5 1702.01,1370.63 1703.65,1373.7 1705.28,1376.72 1706.91,1379.67 1708.54,1382.56 
  1710.17,1385.39 1711.81,1388.15 1713.44,1390.86 1715.07,1393.5 1716.7,1396.08 1718.34,1398.6 1719.97,1401.05 1721.6,1403.44 1723.23,1405.77 1724.86,1408.03 
  1726.5,1410.23 1728.13,1412.36 1729.76,1414.43 1731.39,1416.43 1733.03,1418.37 1734.66,1420.25 1736.29,1422.06 1737.92,1423.8 1739.56,1425.48 1741.19,1427.09 
  1742.82,1428.64 1744.45,1430.12 1746.08,1431.53 1747.72,1432.88 1749.35,1434.16 1750.98,1435.37 1752.61,1436.52 1754.25,1437.6 1755.88,1438.61 1757.51,1439.56 
  1759.14,1440.44 1760.77,1441.25 1762.41,1441.99 1764.04,1442.67 1765.67,1443.28 1767.3,1443.82 1768.94,1444.29 1770.57,1444.7 1772.2,1445.04 1773.83,1445.31 
  1775.46,1445.51 1777.1,1445.64 1778.73,1445.71 1780.36,1445.71 1781.99,1445.64 1783.63,1445.5 1785.26,1445.3 1786.89,1445.02 1788.52,1444.68 1790.15,1444.27 
  1791.79,1443.8 1793.42,1443.25 1795.05,1442.64 1796.68,1441.96 1798.32,1441.22 1799.95,1440.4 1801.58,1439.52 1803.21,1438.57 1804.84,1437.55 1806.48,1436.47 
  1808.11,1435.32 1809.74,1434.1 1811.37,1432.82 1813.01,1431.47 1814.64,1430.05 1816.27,1428.57 1817.9,1427.02 1819.53,1425.41 1821.17,1423.73 1822.8,1421.98 
  1824.43,1420.17 1826.06,1418.29 1827.7,1416.35 1829.33,1414.34 1830.96,1412.27 1832.59,1410.13 1834.23,1407.93 1835.86,1405.66 1837.49,1403.33 1839.12,1400.94 
  1840.75,1398.49 1842.39,1395.97 1844.02,1393.38 1845.65,1390.74 1847.28,1388.03 1848.92,1385.26 1850.55,1382.43 1852.18,1379.54 1853.81,1376.58 1855.44,1373.57 
  1857.08,1370.49 1858.71,1367.36 1860.34,1364.16 1861.97,1360.9 1863.61,1357.59 1865.24,1354.21 1866.87,1350.78 1868.5,1347.29 1870.13,1343.74 1871.77,1340.13 
  1873.4,1336.47 1875.03,1332.75 1876.66,1328.97 1878.3,1325.13 1879.93,1321.24 1881.56,1317.3 1883.19,1313.3 1884.82,1309.24 1886.46,1305.13 1888.09,1300.97 
  1889.72,1296.75 1891.35,1292.48 1892.99,1288.16 1894.62,1283.78 1896.25,1279.36 1897.88,1274.88 1899.51,1270.35 1901.15,1265.77 1902.78,1261.14 1904.41,1256.47 
  1906.04,1251.74 1907.68,1246.96 1909.31,1242.14 1910.94,1237.27 1912.57,1232.35 1914.21,1227.39 1915.84,1222.38 1917.47,1217.32 1919.1,1212.22 1920.73,1207.07 
  1922.37,1201.88 1924,1196.65 1925.63,1191.37 1927.26,1186.06 1928.9,1180.7 1930.53,1175.29 1932.16,1169.85 1933.79,1164.37 1935.42,1158.84 1937.06,1153.28 
  1938.69,1147.68 1940.32,1142.04 1941.95,1136.37 1943.59,1130.65 1945.22,1124.9 1946.85,1119.12 1948.48,1113.3 1950.11,1107.44 1951.75,1101.55 1953.38,1095.63 
  1955.01,1089.67 1956.64,1083.69 1958.28,1077.67 1959.91,1071.62 1961.54,1065.53 1963.17,1059.42 1964.8,1053.28 1966.44,1047.11 1968.07,1040.92 1969.7,1034.69 
  1971.33,1028.44 1972.97,1022.16 1974.6,1015.86 1976.23,1009.53 1977.86,1003.18 1979.49,996.805 1981.13,990.406 1982.76,983.985 1984.39,977.542 1986.02,971.078 
  1987.66,964.594 1989.29,958.09 1990.92,951.567 1992.55,945.025 1994.18,938.466 1995.82,931.889 1997.45,925.296 1999.08,918.687 2000.71,912.062 2002.35,905.424 
  2003.98,898.771 2005.61,892.105 2007.24,885.427 2008.88,878.737 2010.51,872.036 2012.14,865.324 2013.77,858.602 2015.4,851.871 2017.04,845.132 2018.67,838.385 
  2020.3,831.63 2021.93,824.869 2023.57,818.103 2025.2,811.331 2026.83,804.555 2028.46,797.775 2030.09,790.992 2031.73,784.206 2033.36,777.419 2034.99,770.631 
  2036.62,763.842 2038.26,757.054 2039.89,750.266 2041.52,743.48 2043.15,736.697 2044.78,729.917 2046.42,723.14 2048.05,716.368 2049.68,709.6 2051.31,702.839 
  2052.95,696.084 2054.58,689.336 2056.21,682.595 2057.84,675.863 2059.47,669.141 2061.11,662.428 2062.74,655.725 2064.37,649.034 2066,642.354 2067.64,635.687 
  2069.27,629.032 2070.9,622.392 2072.53,615.766 2074.16,609.155 2075.8,602.56 2077.43,595.982 2079.06,589.42 2080.69,582.877 2082.33,576.351 2083.96,569.845 
  2085.59,563.358 2087.22,556.892 2088.85,550.447 2090.49,544.023 2092.12,537.622 2093.75,531.243 2095.38,524.888 2097.02,518.558 2098.65,512.252 2100.28,505.972 
  2101.91,499.717 2103.55,493.49 2105.18,487.289 2106.81,481.117 2108.44,474.973 2110.07,468.859 2111.71,462.774 2113.34,456.72 2114.97,450.696 2116.6,444.705 
  2118.24,438.745 2119.87,432.819 2121.5,426.925 2123.13,421.066 2124.76,415.241 2126.4,409.452 2128.03,403.698 2129.66,397.98 2131.29,392.3 2132.93,386.657 
  2134.56,381.052 2136.19,375.485 2137.82,369.958 2139.45,364.47 2141.09,359.022 2142.72,353.616 2144.35,348.25 2145.98,342.927 2147.62,337.646 2149.25,332.407 
  2150.88,327.213 2152.51,322.062 2154.14,316.955 2155.78,311.894 2157.41,306.878 2159.04,301.908 2160.67,296.985 2162.31,292.109 2163.94,287.28 2165.57,282.499 
  2167.2,277.766 2168.83,273.083 2170.47,268.448 2172.1,263.864 2173.73,259.33 2175.36,254.847 2177,250.415 2178.63,246.034 2180.26,241.706 2181.89,237.43 
  2183.53,233.207 2185.16,229.037 2186.79,224.921 2188.42,220.86 2190.05,216.853 2191.69,212.901 2193.32,209.004 2194.95,205.163 2196.58,201.379 2198.22,197.65 
  2199.85,193.979 2201.48,190.365 2203.11,186.809 2204.74,183.311 2206.38,179.871 2208.01,176.49 2209.64,173.167 2211.27,169.904 2212.91,166.701 2214.54,163.558 
  2216.17,160.475 2217.8,157.453 2219.43,154.492 2221.07,151.592 2222.7,148.754 2224.33,145.977 2225.96,143.262 2227.6,140.61 2229.23,138.021 2230.86,135.494 
  2232.49,133.03 2234.12,130.63 2235.76,128.294 2237.39,126.021 2239.02,123.812 2240.65,121.668 2242.29,119.588 2243.92,117.573 2245.55,115.623 2247.18,113.738 
  2248.81,111.918 2250.45,110.164 2252.08,108.475 2253.71,106.853 2255.34,105.296 2256.98,103.805 2258.61,102.381 2260.24,101.023 2261.87,99.7321 2263.5,98.5076 
  2265.14,97.3499 2266.77,96.2592 2268.4,95.2355 2270.03,94.279 2271.67,93.3897 2273.3,92.5678 2274.93,91.8133 2276.56,91.1263 2278.2,90.5068 2279.83,89.9551 
  2281.46,89.471 2283.09,89.0546 2284.72,88.706 2286.36,88.4252 2287.99,88.2123 2289.62,88.0672 2291.25,87.9901 
  "/>
<path clip-path="url(#clip750)" d="
M1928.08 276.658 L2280.32 276.658 L2280.32 95.2176 L1928.08 95.2176  Z
  " fill="#ffffff" fill-rule="evenodd" fill-opacity="1"/>
<polyline clip-path="url(#clip750)" style="stroke:#000000; stroke-width:4; stroke-opacity:1; fill:none" points="
  1928.08,276.658 2280.32,276.658 2280.32,95.2176 1928.08,95.2176 1928.08,276.658 
  "/>
<polyline clip-path="url(#clip750)" style="stroke:#800080; stroke-width:4; stroke-opacity:1; fill:none" points="
  1952.22,155.698 2097.1,155.698 
  "/>
<path clip-path="url(#clip750)" d="M 0 0 M2139.67 147.816 L2139.67 151.843 Q2137.86 150.917 2135.92 150.455 Q2133.97 149.992 2131.89 149.992 Q2128.72 149.992 2127.12 150.964 Q2125.55 151.936 2125.55 153.88 Q2125.55 155.362 2126.68 156.218 Q2127.82 157.052 2131.24 157.816 L2132.7 158.14 Q2137.24 159.112 2139.13 160.894 Q2141.06 162.654 2141.06 165.825 Q2141.06 169.436 2138.19 171.542 Q2135.34 173.649 2130.34 173.649 Q2128.26 173.649 2125.99 173.232 Q2123.74 172.839 2121.24 172.028 L2121.24 167.63 Q2123.6 168.857 2125.89 169.482 Q2128.19 170.084 2130.43 170.084 Q2133.44 170.084 2135.06 169.066 Q2136.68 168.024 2136.68 166.149 Q2136.68 164.413 2135.5 163.487 Q2134.34 162.561 2130.39 161.704 L2128.9 161.357 Q2124.95 160.524 2123.19 158.811 Q2121.43 157.075 2121.43 154.066 Q2121.43 150.408 2124.02 148.418 Q2126.61 146.427 2131.38 146.427 Q2133.74 146.427 2135.82 146.774 Q2137.91 147.121 2139.67 147.816 Z" fill="#000000" fill-rule="evenodd" fill-opacity="1" /><path clip-path="url(#clip750)" d="M 0 0 M2145.52 147.052 L2149.78 147.052 L2149.78 172.978 L2145.52 172.978 L2145.52 147.052 M2145.52 136.959 L2149.78 136.959 L2149.78 142.353 L2145.52 142.353 L2145.52 136.959 Z" fill="#000000" fill-rule="evenodd" fill-opacity="1" /><path clip-path="url(#clip750)" d="M 0 0 M2175.8 157.329 L2175.8 172.978 L2171.54 172.978 L2171.54 157.468 Q2171.54 153.788 2170.11 151.959 Q2168.67 150.13 2165.8 150.13 Q2162.35 150.13 2160.36 152.33 Q2158.37 154.529 2158.37 158.325 L2158.37 172.978 L2154.09 172.978 L2154.09 147.052 L2158.37 147.052 L2158.37 151.08 Q2159.9 148.742 2161.96 147.584 Q2164.04 146.427 2166.75 146.427 Q2171.22 146.427 2173.51 149.205 Q2175.8 151.959 2175.8 157.329 Z" fill="#000000" fill-rule="evenodd" fill-opacity="1" /><path clip-path="url(#clip750)" d="M 0 0 M2212.75 156.542 L2198 156.542 Q2198.35 163.464 2199.94 166.404 Q2201.94 170.015 2205.38 170.015 Q2208.86 170.015 2210.78 166.38 Q2212.47 163.186 2212.75 156.542 M2212.68 152.607 Q2212.03 146.033 2210.78 143.718 Q2208.79 140.061 2205.38 140.061 Q2201.84 140.061 2199.97 143.672 Q2198.49 146.589 2198.05 152.607 L2212.68 152.607 M2205.38 136.589 Q2210.94 136.589 2214.11 141.496 Q2217.28 146.38 2217.28 155.038 Q2217.28 163.672 2214.11 168.579 Q2210.94 173.51 2205.38 173.51 Q2199.81 173.51 2196.66 168.579 Q2193.49 163.672 2193.49 155.038 Q2193.49 146.38 2196.66 141.496 Q2199.81 136.589 2205.38 136.589 Z" fill="#000000" fill-rule="evenodd" fill-opacity="1" /><polyline clip-path="url(#clip750)" style="stroke:#ff0000; stroke-width:4; stroke-opacity:1; fill:none" points="
  1952.22,216.178 2097.1,216.178 
  "/>
<path clip-path="url(#clip750)" d="M 0 0 M2141.75 208.527 L2141.75 212.509 Q2139.95 211.513 2138.12 211.027 Q2136.31 210.518 2134.46 210.518 Q2130.32 210.518 2128.02 213.157 Q2125.73 215.772 2125.73 220.518 Q2125.73 225.263 2128.02 227.902 Q2130.32 230.518 2134.46 230.518 Q2136.31 230.518 2138.12 230.032 Q2139.95 229.522 2141.75 228.527 L2141.75 232.462 Q2139.97 233.296 2138.05 233.712 Q2136.15 234.129 2134 234.129 Q2128.14 234.129 2124.69 230.448 Q2121.24 226.768 2121.24 220.518 Q2121.24 214.175 2124.71 210.541 Q2128.21 206.907 2134.27 206.907 Q2136.24 206.907 2138.12 207.323 Q2139.99 207.717 2141.75 208.527 Z" fill="#000000" fill-rule="evenodd" fill-opacity="1" /><path clip-path="url(#clip750)" d="M 0 0 M2156.26 210.518 Q2152.84 210.518 2150.85 213.203 Q2148.86 215.865 2148.86 220.518 Q2148.86 225.171 2150.82 227.856 Q2152.82 230.518 2156.26 230.518 Q2159.67 230.518 2161.66 227.833 Q2163.65 225.147 2163.65 220.518 Q2163.65 215.911 2161.66 213.226 Q2159.67 210.518 2156.26 210.518 M2156.26 206.907 Q2161.82 206.907 2164.99 210.518 Q2168.16 214.129 2168.16 220.518 Q2168.16 226.884 2164.99 230.518 Q2161.82 234.129 2156.26 234.129 Q2150.69 234.129 2147.51 230.518 Q2144.37 226.884 2144.37 220.518 Q2144.37 214.129 2147.51 210.518 Q2150.69 206.907 2156.26 206.907 Z" fill="#000000" fill-rule="evenodd" fill-opacity="1" /><path clip-path="url(#clip750)" d="M 0 0 M2189.16 208.296 L2189.16 212.323 Q2187.35 211.397 2185.41 210.935 Q2183.46 210.472 2181.38 210.472 Q2178.21 210.472 2176.61 211.444 Q2175.04 212.416 2175.04 214.36 Q2175.04 215.842 2176.17 216.698 Q2177.31 217.532 2180.73 218.296 L2182.19 218.62 Q2186.73 219.592 2188.63 221.374 Q2190.55 223.134 2190.55 226.305 Q2190.55 229.916 2187.68 232.022 Q2184.83 234.129 2179.83 234.129 Q2177.75 234.129 2175.48 233.712 Q2173.23 233.319 2170.73 232.508 L2170.73 228.11 Q2173.09 229.337 2175.38 229.962 Q2177.68 230.564 2179.92 230.564 Q2182.93 230.564 2184.55 229.546 Q2186.17 228.504 2186.17 226.629 Q2186.17 224.893 2184.99 223.967 Q2183.83 223.041 2179.88 222.184 L2178.39 221.837 Q2174.44 221.004 2172.68 219.291 Q2170.92 217.555 2170.92 214.546 Q2170.92 210.888 2173.51 208.898 Q2176.1 206.907 2180.87 206.907 Q2183.23 206.907 2185.32 207.254 Q2187.4 207.601 2189.16 208.296 Z" fill="#000000" fill-rule="evenodd" fill-opacity="1" /><path clip-path="url(#clip750)" d="M 0 0 M2227.49 217.022 L2212.75 217.022 Q2213.09 223.944 2214.69 226.884 Q2216.68 230.495 2220.13 230.495 Q2223.6 230.495 2225.52 226.86 Q2227.21 223.666 2227.49 217.022 M2227.42 213.087 Q2226.77 206.513 2225.52 204.198 Q2223.53 200.541 2220.13 200.541 Q2216.59 200.541 2214.71 204.152 Q2213.23 207.069 2212.79 213.087 L2227.42 213.087 M2220.13 197.069 Q2225.69 197.069 2228.86 201.976 Q2232.03 206.86 2232.03 215.518 Q2232.03 224.152 2228.86 229.059 Q2225.69 233.99 2220.13 233.99 Q2214.55 233.99 2211.4 229.059 Q2208.23 224.152 2208.23 215.518 Q2208.23 206.86 2211.4 201.976 Q2214.55 197.069 2220.13 197.069 Z" fill="#000000" fill-rule="evenodd" fill-opacity="1" /></svg>
