<?xml version="1.0" encoding="utf-8"?>
<svg xmlns="http://www.w3.org/2000/svg" xmlns:xlink="http://www.w3.org/1999/xlink" width="600" height="400" viewBox="0 0 2400 1600">
<defs>
  <clipPath id="clip890">
    <rect x="0" y="0" width="2400" height="1600"/>
  </clipPath>
</defs>
<path clip-path="url(#clip890)" d="
M0 1600 L2400 1600 L2400 0 L0 0  Z
  " fill="#ffffff" fill-rule="evenodd" fill-opacity="1"/>
<defs>
  <clipPath id="clip891">
    <rect x="480" y="0" width="1681" height="1600"/>
  </clipPath>
</defs>
<path clip-path="url(#clip890)" d="
M202.524 1486.45 L2352.76 1486.45 L2352.76 47.2441 L202.524 47.2441  Z
  " fill="#ffffff" fill-rule="evenodd" fill-opacity="1"/>
<defs>
  <clipPath id="clip892">
    <rect x="202" y="47" width="2151" height="1440"/>
  </clipPath>
</defs>
<polyline clip-path="url(#clip892)" style="stroke:#000000; stroke-width:2; stroke-opacity:0.1; fill:none" points="
  259.314,1486.45 259.314,47.2441 
  "/>
<polyline clip-path="url(#clip892)" style="stroke:#000000; stroke-width:2; stroke-opacity:0.1; fill:none" points="
  665.832,1486.45 665.832,47.2441 
  "/>
<polyline clip-path="url(#clip892)" style="stroke:#000000; stroke-width:2; stroke-opacity:0.1; fill:none" points="
  1072.35,1486.45 1072.35,47.2441 
  "/>
<polyline clip-path="url(#clip892)" style="stroke:#000000; stroke-width:2; stroke-opacity:0.1; fill:none" points="
  1478.87,1486.45 1478.87,47.2441 
  "/>
<polyline clip-path="url(#clip892)" style="stroke:#000000; stroke-width:2; stroke-opacity:0.1; fill:none" points="
  1885.38,1486.45 1885.38,47.2441 
  "/>
<polyline clip-path="url(#clip892)" style="stroke:#000000; stroke-width:2; stroke-opacity:0.1; fill:none" points="
  2291.9,1486.45 2291.9,47.2441 
  "/>
<polyline clip-path="url(#clip890)" style="stroke:#000000; stroke-width:4; stroke-opacity:1; fill:none" points="
  202.524,1486.45 2352.76,1486.45 
  "/>
<polyline clip-path="url(#clip890)" style="stroke:#000000; stroke-width:4; stroke-opacity:1; fill:none" points="
  259.314,1486.45 259.314,1469.18 
  "/>
<polyline clip-path="url(#clip890)" style="stroke:#000000; stroke-width:4; stroke-opacity:1; fill:none" points="
  665.832,1486.45 665.832,1469.18 
  "/>
<polyline clip-path="url(#clip890)" style="stroke:#000000; stroke-width:4; stroke-opacity:1; fill:none" points="
  1072.35,1486.45 1072.35,1469.18 
  "/>
<polyline clip-path="url(#clip890)" style="stroke:#000000; stroke-width:4; stroke-opacity:1; fill:none" points="
  1478.87,1486.45 1478.87,1469.18 
  "/>
<polyline clip-path="url(#clip890)" style="stroke:#000000; stroke-width:4; stroke-opacity:1; fill:none" points="
  1885.38,1486.45 1885.38,1469.18 
  "/>
<polyline clip-path="url(#clip890)" style="stroke:#000000; stroke-width:4; stroke-opacity:1; fill:none" points="
  2291.9,1486.45 2291.9,1469.18 
  "/>
<path clip-path="url(#clip890)" d="M 0 0 M259.314 1515.64 Q255.703 1515.64 253.875 1519.2 Q252.069 1522.75 252.069 1529.87 Q252.069 1536.98 253.875 1540.55 Q255.703 1544.09 259.314 1544.09 Q262.949 1544.09 264.754 1540.55 Q266.583 1536.98 266.583 1529.87 Q266.583 1522.75 264.754 1519.2 Q262.949 1515.64 259.314 1515.64 M259.314 1511.93 Q265.125 1511.93 268.18 1516.54 Q271.259 1521.12 271.259 1529.87 Q271.259 1538.6 268.18 1543.21 Q265.125 1547.79 259.314 1547.79 Q253.504 1547.79 250.426 1543.21 Q247.37 1538.6 247.37 1529.87 Q247.37 1521.12 250.426 1516.54 Q253.504 1511.93 259.314 1511.93 Z" fill="#000000" fill-rule="evenodd" fill-opacity="1" /><path clip-path="url(#clip890)" d="M 0 0 M629.2 1543.18 L636.839 1543.18 L636.839 1516.82 L628.529 1518.49 L628.529 1514.23 L636.792 1512.56 L641.468 1512.56 L641.468 1543.18 L649.107 1543.18 L649.107 1547.12 L629.2 1547.12 L629.2 1543.18 Z" fill="#000000" fill-rule="evenodd" fill-opacity="1" /><path clip-path="url(#clip890)" d="M 0 0 M664.176 1515.64 Q660.565 1515.64 658.737 1519.2 Q656.931 1522.75 656.931 1529.87 Q656.931 1536.98 658.737 1540.55 Q660.565 1544.09 664.176 1544.09 Q667.811 1544.09 669.616 1540.55 Q671.445 1536.98 671.445 1529.87 Q671.445 1522.75 669.616 1519.2 Q667.811 1515.64 664.176 1515.64 M664.176 1511.93 Q669.987 1511.93 673.042 1516.54 Q676.121 1521.12 676.121 1529.87 Q676.121 1538.6 673.042 1543.21 Q669.987 1547.79 664.176 1547.79 Q658.366 1547.79 655.288 1543.21 Q652.232 1538.6 652.232 1529.87 Q652.232 1521.12 655.288 1516.54 Q658.366 1511.93 664.176 1511.93 Z" fill="#000000" fill-rule="evenodd" fill-opacity="1" /><path clip-path="url(#clip890)" d="M 0 0 M691.19 1515.64 Q687.579 1515.64 685.75 1519.2 Q683.945 1522.75 683.945 1529.87 Q683.945 1536.98 685.75 1540.55 Q687.579 1544.09 691.19 1544.09 Q694.824 1544.09 696.63 1540.55 Q698.459 1536.98 698.459 1529.87 Q698.459 1522.75 696.63 1519.2 Q694.824 1515.64 691.19 1515.64 M691.19 1511.93 Q697 1511.93 700.056 1516.54 Q703.135 1521.12 703.135 1529.87 Q703.135 1538.6 700.056 1543.21 Q697 1547.79 691.19 1547.79 Q685.38 1547.79 682.301 1543.21 Q679.246 1538.6 679.246 1529.87 Q679.246 1521.12 682.301 1516.54 Q685.38 1511.93 691.19 1511.93 Z" fill="#000000" fill-rule="evenodd" fill-opacity="1" /><path clip-path="url(#clip890)" d="M 0 0 M1039.99 1543.18 L1056.31 1543.18 L1056.31 1547.12 L1034.36 1547.12 L1034.36 1543.18 Q1037.02 1540.43 1041.61 1535.8 Q1046.21 1531.15 1047.4 1529.81 Q1049.64 1527.28 1050.52 1525.55 Q1051.42 1523.79 1051.42 1522.1 Q1051.42 1519.34 1049.48 1517.61 Q1047.56 1515.87 1044.46 1515.87 Q1042.26 1515.87 1039.8 1516.63 Q1037.37 1517.4 1034.59 1518.95 L1034.59 1514.23 Q1037.42 1513.09 1039.87 1512.51 Q1042.33 1511.93 1044.36 1511.93 Q1049.73 1511.93 1052.93 1514.62 Q1056.12 1517.31 1056.12 1521.8 Q1056.12 1523.93 1055.31 1525.85 Q1054.52 1527.74 1052.42 1530.34 Q1051.84 1531.01 1048.74 1534.23 Q1045.64 1537.42 1039.99 1543.18 Z" fill="#000000" fill-rule="evenodd" fill-opacity="1" /><path clip-path="url(#clip890)" d="M 0 0 M1071.38 1515.64 Q1067.77 1515.64 1065.94 1519.2 Q1064.13 1522.75 1064.13 1529.87 Q1064.13 1536.98 1065.94 1540.55 Q1067.77 1544.09 1071.38 1544.09 Q1075.01 1544.09 1076.82 1540.55 Q1078.64 1536.98 1078.64 1529.87 Q1078.64 1522.75 1076.82 1519.2 Q1075.01 1515.64 1071.38 1515.64 M1071.38 1511.93 Q1077.19 1511.93 1080.24 1516.54 Q1083.32 1521.12 1083.32 1529.87 Q1083.32 1538.6 1080.24 1543.21 Q1077.19 1547.79 1071.38 1547.79 Q1065.57 1547.79 1062.49 1543.21 Q1059.43 1538.6 1059.43 1529.87 Q1059.43 1521.12 1062.49 1516.54 Q1065.57 1511.93 1071.38 1511.93 Z" fill="#000000" fill-rule="evenodd" fill-opacity="1" /><path clip-path="url(#clip890)" d="M 0 0 M1098.39 1515.64 Q1094.78 1515.64 1092.95 1519.2 Q1091.14 1522.75 1091.14 1529.87 Q1091.14 1536.98 1092.95 1540.55 Q1094.78 1544.09 1098.39 1544.09 Q1102.02 1544.09 1103.83 1540.55 Q1105.66 1536.98 1105.66 1529.87 Q1105.66 1522.75 1103.83 1519.2 Q1102.02 1515.64 1098.39 1515.64 M1098.39 1511.93 Q1104.2 1511.93 1107.26 1516.54 Q1110.33 1521.12 1110.33 1529.87 Q1110.33 1538.6 1107.26 1543.21 Q1104.2 1547.79 1098.39 1547.79 Q1092.58 1547.79 1089.5 1543.21 Q1086.45 1538.6 1086.45 1529.87 Q1086.45 1521.12 1089.5 1516.54 Q1092.58 1511.93 1098.39 1511.93 Z" fill="#000000" fill-rule="evenodd" fill-opacity="1" /><path clip-path="url(#clip890)" d="M 0 0 M1456.1 1528.49 Q1459.46 1529.2 1461.33 1531.47 Q1463.23 1533.74 1463.23 1537.07 Q1463.23 1542.19 1459.71 1544.99 Q1456.19 1547.79 1449.71 1547.79 Q1447.54 1547.79 1445.22 1547.35 Q1442.93 1546.93 1440.47 1546.08 L1440.47 1541.56 Q1442.42 1542.7 1444.73 1543.28 Q1447.05 1543.86 1449.57 1543.86 Q1453.97 1543.86 1456.26 1542.12 Q1458.58 1540.38 1458.58 1537.07 Q1458.58 1534.02 1456.42 1532.31 Q1454.29 1530.57 1450.47 1530.57 L1446.45 1530.57 L1446.45 1526.73 L1450.66 1526.73 Q1454.11 1526.73 1455.94 1525.36 Q1457.77 1523.97 1457.77 1521.38 Q1457.77 1518.72 1455.87 1517.31 Q1453.99 1515.87 1450.47 1515.87 Q1448.55 1515.87 1446.35 1516.29 Q1444.16 1516.7 1441.52 1517.58 L1441.52 1513.42 Q1444.18 1512.68 1446.49 1512.31 Q1448.83 1511.93 1450.89 1511.93 Q1456.22 1511.93 1459.32 1514.37 Q1462.42 1516.77 1462.42 1520.89 Q1462.42 1523.76 1460.78 1525.75 Q1459.13 1527.72 1456.1 1528.49 Z" fill="#000000" fill-rule="evenodd" fill-opacity="1" /><path clip-path="url(#clip890)" d="M 0 0 M1478.3 1515.64 Q1474.69 1515.64 1472.86 1519.2 Q1471.05 1522.75 1471.05 1529.87 Q1471.05 1536.98 1472.86 1540.55 Q1474.69 1544.09 1478.3 1544.09 Q1481.93 1544.09 1483.74 1540.55 Q1485.57 1536.98 1485.57 1529.87 Q1485.57 1522.75 1483.74 1519.2 Q1481.93 1515.64 1478.3 1515.64 M1478.3 1511.93 Q1484.11 1511.93 1487.16 1516.54 Q1490.24 1521.12 1490.24 1529.87 Q1490.24 1538.6 1487.16 1543.21 Q1484.11 1547.79 1478.3 1547.79 Q1472.49 1547.79 1469.41 1543.21 Q1466.35 1538.6 1466.35 1529.87 Q1466.35 1521.12 1469.41 1516.54 Q1472.49 1511.93 1478.3 1511.93 Z" fill="#000000" fill-rule="evenodd" fill-opacity="1" /><path clip-path="url(#clip890)" d="M 0 0 M1505.31 1515.64 Q1501.7 1515.64 1499.87 1519.2 Q1498.07 1522.75 1498.07 1529.87 Q1498.07 1536.98 1499.87 1540.55 Q1501.7 1544.09 1505.31 1544.09 Q1508.95 1544.09 1510.75 1540.55 Q1512.58 1536.98 1512.58 1529.87 Q1512.58 1522.75 1510.75 1519.2 Q1508.95 1515.64 1505.31 1515.64 M1505.31 1511.93 Q1511.12 1511.93 1514.18 1516.54 Q1517.26 1521.12 1517.26 1529.87 Q1517.26 1538.6 1514.18 1543.21 Q1511.12 1547.79 1505.31 1547.79 Q1499.5 1547.79 1496.42 1543.21 Q1493.37 1538.6 1493.37 1529.87 Q1493.37 1521.12 1496.42 1516.54 Q1499.5 1511.93 1505.31 1511.93 Z" fill="#000000" fill-rule="evenodd" fill-opacity="1" /><path clip-path="url(#clip890)" d="M 0 0 M1861.38 1516.63 L1849.57 1535.08 L1861.38 1535.08 L1861.38 1516.63 M1860.15 1512.56 L1866.03 1512.56 L1866.03 1535.08 L1870.96 1535.08 L1870.96 1538.97 L1866.03 1538.97 L1866.03 1547.12 L1861.38 1547.12 L1861.38 1538.97 L1845.78 1538.97 L1845.78 1534.46 L1860.15 1512.56 Z" fill="#000000" fill-rule="evenodd" fill-opacity="1" /><path clip-path="url(#clip890)" d="M 0 0 M1886.03 1515.64 Q1882.42 1515.64 1880.59 1519.2 Q1878.79 1522.75 1878.79 1529.87 Q1878.79 1536.98 1880.59 1540.55 Q1882.42 1544.09 1886.03 1544.09 Q1889.67 1544.09 1891.47 1540.55 Q1893.3 1536.98 1893.3 1529.87 Q1893.3 1522.75 1891.47 1519.2 Q1889.67 1515.64 1886.03 1515.64 M1886.03 1511.93 Q1891.84 1511.93 1894.9 1516.54 Q1897.98 1521.12 1897.98 1529.87 Q1897.98 1538.6 1894.9 1543.21 Q1891.84 1547.79 1886.03 1547.79 Q1880.22 1547.79 1877.14 1543.21 Q1874.09 1538.6 1874.09 1529.87 Q1874.09 1521.12 1877.14 1516.54 Q1880.22 1511.93 1886.03 1511.93 Z" fill="#000000" fill-rule="evenodd" fill-opacity="1" /><path clip-path="url(#clip890)" d="M 0 0 M1913.04 1515.64 Q1909.43 1515.64 1907.61 1519.2 Q1905.8 1522.75 1905.8 1529.87 Q1905.8 1536.98 1907.61 1540.55 Q1909.43 1544.09 1913.04 1544.09 Q1916.68 1544.09 1918.48 1540.55 Q1920.31 1536.98 1920.31 1529.87 Q1920.31 1522.75 1918.48 1519.2 Q1916.68 1515.64 1913.04 1515.64 M1913.04 1511.93 Q1918.86 1511.93 1921.91 1516.54 Q1924.99 1521.12 1924.99 1529.87 Q1924.99 1538.6 1921.91 1543.21 Q1918.86 1547.79 1913.04 1547.79 Q1907.23 1547.79 1904.16 1543.21 Q1901.1 1538.6 1901.1 1529.87 Q1901.1 1521.12 1904.16 1516.54 Q1907.23 1511.93 1913.04 1511.93 Z" fill="#000000" fill-rule="evenodd" fill-opacity="1" /><path clip-path="url(#clip890)" d="M 0 0 M2255.16 1512.56 L2273.52 1512.56 L2273.52 1516.5 L2259.45 1516.5 L2259.45 1524.97 Q2260.47 1524.62 2261.48 1524.46 Q2262.5 1524.27 2263.52 1524.27 Q2269.31 1524.27 2272.69 1527.44 Q2276.07 1530.62 2276.07 1536.03 Q2276.07 1541.61 2272.59 1544.71 Q2269.12 1547.79 2262.8 1547.79 Q2260.63 1547.79 2258.36 1547.42 Q2256.11 1547.05 2253.71 1546.31 L2253.71 1541.61 Q2255.79 1542.74 2258.01 1543.3 Q2260.23 1543.86 2262.71 1543.86 Q2266.72 1543.86 2269.05 1541.75 Q2271.39 1539.64 2271.39 1536.03 Q2271.39 1532.42 2269.05 1530.31 Q2266.72 1528.21 2262.71 1528.21 Q2260.84 1528.21 2258.96 1528.62 Q2257.11 1529.04 2255.16 1529.92 L2255.16 1512.56 Z" fill="#000000" fill-rule="evenodd" fill-opacity="1" /><path clip-path="url(#clip890)" d="M 0 0 M2291.14 1515.64 Q2287.53 1515.64 2285.7 1519.2 Q2283.89 1522.75 2283.89 1529.87 Q2283.89 1536.98 2285.7 1540.55 Q2287.53 1544.09 2291.14 1544.09 Q2294.77 1544.09 2296.58 1540.55 Q2298.4 1536.98 2298.4 1529.87 Q2298.4 1522.75 2296.58 1519.2 Q2294.77 1515.64 2291.14 1515.64 M2291.14 1511.93 Q2296.95 1511.93 2300 1516.54 Q2303.08 1521.12 2303.08 1529.87 Q2303.08 1538.6 2300 1543.21 Q2296.95 1547.79 2291.14 1547.79 Q2285.33 1547.79 2282.25 1543.21 Q2279.19 1538.6 2279.19 1529.87 Q2279.19 1521.12 2282.25 1516.54 Q2285.33 1511.93 2291.14 1511.93 Z" fill="#000000" fill-rule="evenodd" fill-opacity="1" /><path clip-path="url(#clip890)" d="M 0 0 M2318.15 1515.64 Q2314.54 1515.64 2312.71 1519.2 Q2310.9 1522.75 2310.9 1529.87 Q2310.9 1536.98 2312.71 1540.55 Q2314.54 1544.09 2318.15 1544.09 Q2321.78 1544.09 2323.59 1540.55 Q2325.42 1536.98 2325.42 1529.87 Q2325.42 1522.75 2323.59 1519.2 Q2321.78 1515.64 2318.15 1515.64 M2318.15 1511.93 Q2323.96 1511.93 2327.02 1516.54 Q2330.09 1521.12 2330.09 1529.87 Q2330.09 1538.6 2327.02 1543.21 Q2323.96 1547.79 2318.15 1547.79 Q2312.34 1547.79 2309.26 1543.21 Q2306.21 1538.6 2306.21 1529.87 Q2306.21 1521.12 2309.26 1516.54 Q2312.34 1511.93 2318.15 1511.93 Z" fill="#000000" fill-rule="evenodd" fill-opacity="1" /><polyline clip-path="url(#clip892)" style="stroke:#000000; stroke-width:2; stroke-opacity:0.1; fill:none" points="
  202.524,1445.72 2352.76,1445.72 
  "/>
<polyline clip-path="url(#clip892)" style="stroke:#000000; stroke-width:2; stroke-opacity:0.1; fill:none" points="
  202.524,1106.28 2352.76,1106.28 
  "/>
<polyline clip-path="url(#clip892)" style="stroke:#000000; stroke-width:2; stroke-opacity:0.1; fill:none" points="
  202.524,766.846 2352.76,766.846 
  "/>
<polyline clip-path="url(#clip892)" style="stroke:#000000; stroke-width:2; stroke-opacity:0.1; fill:none" points="
  202.524,427.411 2352.76,427.411 
  "/>
<polyline clip-path="url(#clip892)" style="stroke:#000000; stroke-width:2; stroke-opacity:0.1; fill:none" points="
  202.524,87.9763 2352.76,87.9763 
  "/>
<polyline clip-path="url(#clip890)" style="stroke:#000000; stroke-width:4; stroke-opacity:1; fill:none" points="
  202.524,1486.45 202.524,47.2441 
  "/>
<polyline clip-path="url(#clip890)" style="stroke:#000000; stroke-width:4; stroke-opacity:1; fill:none" points="
  202.524,1445.72 228.327,1445.72 
  "/>
<polyline clip-path="url(#clip890)" style="stroke:#000000; stroke-width:4; stroke-opacity:1; fill:none" points="
  202.524,1106.28 228.327,1106.28 
  "/>
<polyline clip-path="url(#clip890)" style="stroke:#000000; stroke-width:4; stroke-opacity:1; fill:none" points="
  202.524,766.846 228.327,766.846 
  "/>
<polyline clip-path="url(#clip890)" style="stroke:#000000; stroke-width:4; stroke-opacity:1; fill:none" points="
  202.524,427.411 228.327,427.411 
  "/>
<polyline clip-path="url(#clip890)" style="stroke:#000000; stroke-width:4; stroke-opacity:1; fill:none" points="
  202.524,87.9763 228.327,87.9763 
  "/>
<path clip-path="url(#clip890)" d="M 0 0 M67.543 1432.51 L55.7375 1450.96 L67.543 1450.96 L67.543 1432.51 M66.3161 1428.44 L72.1957 1428.44 L72.1957 1450.96 L77.1262 1450.96 L77.1262 1454.85 L72.1957 1454.85 L72.1957 1463 L67.543 1463 L67.543 1454.85 L51.9412 1454.85 L51.9412 1450.33 L66.3161 1428.44 Z" fill="#000000" fill-rule="evenodd" fill-opacity="1" /><path clip-path="url(#clip890)" d="M 0 0 M86.2234 1459.06 L102.543 1459.06 L102.543 1463 L80.5984 1463 L80.5984 1459.06 Q83.2605 1456.31 87.8438 1451.68 Q92.4502 1447.02 93.6308 1445.68 Q95.8761 1443.16 96.7558 1441.42 Q97.6585 1439.66 97.6585 1437.97 Q97.6585 1435.22 95.7141 1433.48 Q93.7928 1431.75 90.691 1431.75 Q88.4919 1431.75 86.0382 1432.51 Q83.6077 1433.27 80.8299 1434.82 L80.8299 1430.1 Q83.654 1428.97 86.1077 1428.39 Q88.5614 1427.81 90.5984 1427.81 Q95.9687 1427.81 99.1632 1430.5 Q102.358 1433.18 102.358 1437.67 Q102.358 1439.8 101.547 1441.72 Q100.76 1443.62 98.6539 1446.21 Q98.0752 1446.88 94.9734 1450.1 Q91.8715 1453.3 86.2234 1459.06 Z" fill="#000000" fill-rule="evenodd" fill-opacity="1" /><path clip-path="url(#clip890)" d="M 0 0 M107.612 1457.12 L112.496 1457.12 L112.496 1463 L107.612 1463 L107.612 1457.12 Z" fill="#000000" fill-rule="evenodd" fill-opacity="1" /><path clip-path="url(#clip890)" d="M 0 0 M127.566 1431.51 Q123.955 1431.51 122.126 1435.08 Q120.32 1438.62 120.32 1445.75 Q120.32 1452.86 122.126 1456.42 Q123.955 1459.96 127.566 1459.96 Q131.2 1459.96 133.006 1456.42 Q134.834 1452.86 134.834 1445.75 Q134.834 1438.62 133.006 1435.08 Q131.2 1431.51 127.566 1431.51 M127.566 1427.81 Q133.376 1427.81 136.431 1432.42 Q139.51 1437 139.51 1445.75 Q139.51 1454.48 136.431 1459.08 Q133.376 1463.67 127.566 1463.67 Q121.756 1463.67 118.677 1459.08 Q115.621 1454.48 115.621 1445.75 Q115.621 1437 118.677 1432.42 Q121.756 1427.81 127.566 1427.81 Z" fill="#000000" fill-rule="evenodd" fill-opacity="1" /><path clip-path="url(#clip890)" d="M 0 0 M154.58 1431.51 Q150.968 1431.51 149.14 1435.08 Q147.334 1438.62 147.334 1445.75 Q147.334 1452.86 149.14 1456.42 Q150.968 1459.96 154.58 1459.96 Q158.214 1459.96 160.019 1456.42 Q161.848 1452.86 161.848 1445.75 Q161.848 1438.62 160.019 1435.08 Q158.214 1431.51 154.58 1431.51 M154.58 1427.81 Q160.39 1427.81 163.445 1432.42 Q166.524 1437 166.524 1445.75 Q166.524 1454.48 163.445 1459.08 Q160.39 1463.67 154.58 1463.67 Q148.769 1463.67 145.691 1459.08 Q142.635 1454.48 142.635 1445.75 Q142.635 1437 145.691 1432.42 Q148.769 1427.81 154.58 1427.81 Z" fill="#000000" fill-rule="evenodd" fill-opacity="1" /><path clip-path="url(#clip890)" d="M 0 0 M70.1355 1093.07 L58.33 1111.52 L70.1355 1111.52 L70.1355 1093.07 M68.9087 1089 L74.7883 1089 L74.7883 1111.52 L79.7188 1111.52 L79.7188 1115.41 L74.7883 1115.41 L74.7883 1123.56 L70.1355 1123.56 L70.1355 1115.41 L54.5338 1115.41 L54.5338 1110.9 L68.9087 1089 Z" fill="#000000" fill-rule="evenodd" fill-opacity="1" /><path clip-path="url(#clip890)" d="M 0 0 M88.816 1119.63 L105.135 1119.63 L105.135 1123.56 L83.191 1123.56 L83.191 1119.63 Q85.8531 1116.87 90.4364 1112.24 Q95.0428 1107.59 96.2234 1106.25 Q98.4687 1103.72 99.3483 1101.99 Q100.251 1100.23 100.251 1098.54 Q100.251 1095.78 98.3067 1094.05 Q96.3854 1092.31 93.2836 1092.31 Q91.0845 1092.31 88.6308 1093.07 Q86.2003 1093.84 83.4225 1095.39 L83.4225 1090.67 Q86.2466 1089.53 88.7003 1088.95 Q91.1539 1088.38 93.191 1088.38 Q98.5613 1088.38 101.756 1091.06 Q104.95 1093.75 104.95 1098.24 Q104.95 1100.37 104.14 1102.29 Q103.353 1104.19 101.246 1106.78 Q100.668 1107.45 97.566 1110.67 Q94.4641 1113.86 88.816 1119.63 Z" fill="#000000" fill-rule="evenodd" fill-opacity="1" /><path clip-path="url(#clip890)" d="M 0 0 M110.205 1117.68 L115.089 1117.68 L115.089 1123.56 L110.205 1123.56 L110.205 1117.68 Z" fill="#000000" fill-rule="evenodd" fill-opacity="1" /><path clip-path="url(#clip890)" d="M 0 0 M124.186 1119.63 L140.506 1119.63 L140.506 1123.56 L118.561 1123.56 L118.561 1119.63 Q121.223 1116.87 125.807 1112.24 Q130.413 1107.59 131.594 1106.25 Q133.839 1103.72 134.719 1101.99 Q135.621 1100.23 135.621 1098.54 Q135.621 1095.78 133.677 1094.05 Q131.756 1092.31 128.654 1092.31 Q126.455 1092.31 124.001 1093.07 Q121.57 1093.84 118.793 1095.39 L118.793 1090.67 Q121.617 1089.53 124.07 1088.95 Q126.524 1088.38 128.561 1088.38 Q133.931 1088.38 137.126 1091.06 Q140.32 1093.75 140.32 1098.24 Q140.32 1100.37 139.51 1102.29 Q138.723 1104.19 136.617 1106.78 Q136.038 1107.45 132.936 1110.67 Q129.834 1113.86 124.186 1119.63 Z" fill="#000000" fill-rule="evenodd" fill-opacity="1" /><path clip-path="url(#clip890)" d="M 0 0 M145.621 1089 L163.978 1089 L163.978 1092.94 L149.904 1092.94 L149.904 1101.41 Q150.922 1101.06 151.941 1100.9 Q152.959 1100.71 153.978 1100.71 Q159.765 1100.71 163.144 1103.89 Q166.524 1107.06 166.524 1112.47 Q166.524 1118.05 163.052 1121.15 Q159.58 1124.23 153.26 1124.23 Q151.084 1124.23 148.816 1123.86 Q146.57 1123.49 144.163 1122.75 L144.163 1118.05 Q146.246 1119.19 148.468 1119.74 Q150.691 1120.3 153.168 1120.3 Q157.172 1120.3 159.51 1118.19 Q161.848 1116.08 161.848 1112.47 Q161.848 1108.86 159.51 1106.76 Q157.172 1104.65 153.168 1104.65 Q151.293 1104.65 149.418 1105.07 Q147.566 1105.48 145.621 1106.36 L145.621 1089 Z" fill="#000000" fill-rule="evenodd" fill-opacity="1" /><path clip-path="url(#clip890)" d="M 0 0 M68.5383 753.64 L56.7328 772.089 L68.5383 772.089 L68.5383 753.64 M67.3115 749.566 L73.1911 749.566 L73.1911 772.089 L78.1216 772.089 L78.1216 775.978 L73.1911 775.978 L73.1911 784.126 L68.5383 784.126 L68.5383 775.978 L52.9366 775.978 L52.9366 771.464 L67.3115 749.566 Z" fill="#000000" fill-rule="evenodd" fill-opacity="1" /><path clip-path="url(#clip890)" d="M 0 0 M87.2188 780.191 L103.538 780.191 L103.538 784.126 L81.5938 784.126 L81.5938 780.191 Q84.2558 777.436 88.8391 772.807 Q93.4456 768.154 94.6262 766.811 Q96.8715 764.288 97.7511 762.552 Q98.6539 760.793 98.6539 759.103 Q98.6539 756.348 96.7095 754.612 Q94.7882 752.876 91.6864 752.876 Q89.4873 752.876 87.0336 753.64 Q84.6031 754.404 81.8253 755.955 L81.8253 751.233 Q84.6494 750.098 87.103 749.52 Q89.5567 748.941 91.5938 748.941 Q96.9641 748.941 100.159 751.626 Q103.353 754.311 103.353 758.802 Q103.353 760.932 102.543 762.853 Q101.756 764.751 99.6493 767.344 Q99.0706 768.015 95.9687 771.233 Q92.8669 774.427 87.2188 780.191 Z" fill="#000000" fill-rule="evenodd" fill-opacity="1" /><path clip-path="url(#clip890)" d="M 0 0 M108.608 778.246 L113.492 778.246 L113.492 784.126 L108.608 784.126 L108.608 778.246 Z" fill="#000000" fill-rule="evenodd" fill-opacity="1" /><path clip-path="url(#clip890)" d="M 0 0 M118.608 749.566 L136.964 749.566 L136.964 753.501 L122.89 753.501 L122.89 761.973 Q123.908 761.626 124.927 761.464 Q125.945 761.279 126.964 761.279 Q132.751 761.279 136.131 764.45 Q139.51 767.621 139.51 773.038 Q139.51 778.617 136.038 781.719 Q132.566 784.797 126.246 784.797 Q124.07 784.797 121.802 784.427 Q119.557 784.057 117.149 783.316 L117.149 778.617 Q119.233 779.751 121.455 780.307 Q123.677 780.862 126.154 780.862 Q130.158 780.862 132.496 778.756 Q134.834 776.649 134.834 773.038 Q134.834 769.427 132.496 767.321 Q130.158 765.214 126.154 765.214 Q124.279 765.214 122.404 765.631 Q120.552 766.047 118.608 766.927 L118.608 749.566 Z" fill="#000000" fill-rule="evenodd" fill-opacity="1" /><path clip-path="url(#clip890)" d="M 0 0 M154.58 752.645 Q150.968 752.645 149.14 756.209 Q147.334 759.751 147.334 766.881 Q147.334 773.987 149.14 777.552 Q150.968 781.094 154.58 781.094 Q158.214 781.094 160.019 777.552 Q161.848 773.987 161.848 766.881 Q161.848 759.751 160.019 756.209 Q158.214 752.645 154.58 752.645 M154.58 748.941 Q160.39 748.941 163.445 753.547 Q166.524 758.131 166.524 766.881 Q166.524 775.608 163.445 780.214 Q160.39 784.797 154.58 784.797 Q148.769 784.797 145.691 780.214 Q142.635 775.608 142.635 766.881 Q142.635 758.131 145.691 753.547 Q148.769 748.941 154.58 748.941 Z" fill="#000000" fill-rule="evenodd" fill-opacity="1" /><path clip-path="url(#clip890)" d="M 0 0 M69.4411 414.205 L57.6356 432.654 L69.4411 432.654 L69.4411 414.205 M68.2143 410.131 L74.0939 410.131 L74.0939 432.654 L79.0244 432.654 L79.0244 436.543 L74.0939 436.543 L74.0939 444.691 L69.4411 444.691 L69.4411 436.543 L53.8393 436.543 L53.8393 432.029 L68.2143 410.131 Z" fill="#000000" fill-rule="evenodd" fill-opacity="1" /><path clip-path="url(#clip890)" d="M 0 0 M88.1216 440.756 L104.441 440.756 L104.441 444.691 L82.4966 444.691 L82.4966 440.756 Q85.1586 438.001 89.7419 433.372 Q94.3484 428.719 95.5289 427.376 Q97.7743 424.853 98.6539 423.117 Q99.5567 421.358 99.5567 419.668 Q99.5567 416.914 97.6122 415.177 Q95.691 413.441 92.5891 413.441 Q90.3901 413.441 87.9364 414.205 Q85.5058 414.969 82.7281 416.52 L82.7281 411.798 Q85.5521 410.664 88.0058 410.085 Q90.4595 409.506 92.4965 409.506 Q97.8669 409.506 101.061 412.191 Q104.256 414.876 104.256 419.367 Q104.256 421.497 103.446 423.418 Q102.659 425.316 100.552 427.909 Q99.9733 428.58 96.8715 431.798 Q93.7697 434.992 88.1216 440.756 Z" fill="#000000" fill-rule="evenodd" fill-opacity="1" /><path clip-path="url(#clip890)" d="M 0 0 M109.51 438.812 L114.395 438.812 L114.395 444.691 L109.51 444.691 L109.51 438.812 Z" fill="#000000" fill-rule="evenodd" fill-opacity="1" /><path clip-path="url(#clip890)" d="M 0 0 M118.283 410.131 L140.506 410.131 L140.506 412.122 L127.959 444.691 L123.075 444.691 L134.881 414.066 L118.283 414.066 L118.283 410.131 Z" fill="#000000" fill-rule="evenodd" fill-opacity="1" /><path clip-path="url(#clip890)" d="M 0 0 M145.621 410.131 L163.978 410.131 L163.978 414.066 L149.904 414.066 L149.904 422.538 Q150.922 422.191 151.941 422.029 Q152.959 421.844 153.978 421.844 Q159.765 421.844 163.144 425.015 Q166.524 428.187 166.524 433.603 Q166.524 439.182 163.052 442.284 Q159.58 445.362 153.26 445.362 Q151.084 445.362 148.816 444.992 Q146.57 444.622 144.163 443.881 L144.163 439.182 Q146.246 440.316 148.468 440.872 Q150.691 441.427 153.168 441.427 Q157.172 441.427 159.51 439.321 Q161.848 437.214 161.848 433.603 Q161.848 429.992 159.51 427.886 Q157.172 425.779 153.168 425.779 Q151.293 425.779 149.418 426.196 Q147.566 426.613 145.621 427.492 L145.621 410.131 Z" fill="#000000" fill-rule="evenodd" fill-opacity="1" /><path clip-path="url(#clip890)" d="M 0 0 M66.5939 74.7703 L54.7884 93.2193 L66.5939 93.2193 L66.5939 74.7703 M65.367 70.6963 L71.2466 70.6963 L71.2466 93.2193 L76.1772 93.2193 L76.1772 97.1082 L71.2466 97.1082 L71.2466 105.256 L66.5939 105.256 L66.5939 97.1082 L50.9921 97.1082 L50.9921 92.5943 L65.367 70.6963 Z" fill="#000000" fill-rule="evenodd" fill-opacity="1" /><path clip-path="url(#clip890)" d="M 0 0 M95.4132 86.6221 Q98.7696 87.3397 100.645 89.6082 Q102.543 91.8767 102.543 95.21 Q102.543 100.326 99.0243 103.127 Q95.5058 105.928 89.0243 105.928 Q86.8484 105.928 84.5336 105.488 Q82.242 105.071 79.7883 104.215 L79.7883 99.7008 Q81.7327 100.835 84.0475 101.414 Q86.3623 101.992 88.8854 101.992 Q93.2836 101.992 95.5752 100.256 Q97.89 98.5202 97.89 95.21 Q97.89 92.1545 95.7373 90.4415 Q93.6076 88.7054 89.7882 88.7054 L85.7605 88.7054 L85.7605 84.8629 L89.9734 84.8629 Q93.4225 84.8629 95.2511 83.4971 Q97.0798 82.1083 97.0798 79.5157 Q97.0798 76.8537 95.1817 75.4416 Q93.3067 74.0064 89.7882 74.0064 Q87.8669 74.0064 85.6679 74.4231 Q83.4688 74.8398 80.8299 75.7194 L80.8299 71.5528 Q83.492 70.812 85.8068 70.4416 Q88.1447 70.0713 90.2049 70.0713 Q95.5289 70.0713 98.6308 72.5018 Q101.733 74.9092 101.733 79.0296 Q101.733 81.8999 100.089 83.8907 Q98.4456 85.8582 95.4132 86.6221 Z" fill="#000000" fill-rule="evenodd" fill-opacity="1" /><path clip-path="url(#clip890)" d="M 0 0 M107.612 99.3767 L112.496 99.3767 L112.496 105.256 L107.612 105.256 L107.612 99.3767 Z" fill="#000000" fill-rule="evenodd" fill-opacity="1" /><path clip-path="url(#clip890)" d="M 0 0 M127.566 73.775 Q123.955 73.775 122.126 77.3398 Q120.32 80.8814 120.32 88.011 Q120.32 95.1174 122.126 98.6822 Q123.955 102.224 127.566 102.224 Q131.2 102.224 133.006 98.6822 Q134.834 95.1174 134.834 88.011 Q134.834 80.8814 133.006 77.3398 Q131.2 73.775 127.566 73.775 M127.566 70.0713 Q133.376 70.0713 136.431 74.6777 Q139.51 79.261 139.51 88.011 Q139.51 96.7378 136.431 101.344 Q133.376 105.928 127.566 105.928 Q121.756 105.928 118.677 101.344 Q115.621 96.7378 115.621 88.011 Q115.621 79.261 118.677 74.6777 Q121.756 70.0713 127.566 70.0713 Z" fill="#000000" fill-rule="evenodd" fill-opacity="1" /><path clip-path="url(#clip890)" d="M 0 0 M154.58 73.775 Q150.968 73.775 149.14 77.3398 Q147.334 80.8814 147.334 88.011 Q147.334 95.1174 149.14 98.6822 Q150.968 102.224 154.58 102.224 Q158.214 102.224 160.019 98.6822 Q161.848 95.1174 161.848 88.011 Q161.848 80.8814 160.019 77.3398 Q158.214 73.775 154.58 73.775 M154.58 70.0713 Q160.39 70.0713 163.445 74.6777 Q166.524 79.261 166.524 88.011 Q166.524 96.7378 163.445 101.344 Q160.39 105.928 154.58 105.928 Q148.769 105.928 145.691 101.344 Q142.635 96.7378 142.635 88.011 Q142.635 79.261 145.691 74.6777 Q148.769 70.0713 154.58 70.0713 Z" fill="#000000" fill-rule="evenodd" fill-opacity="1" /><polyline clip-path="url(#clip892)" style="stroke:#009af9; stroke-width:4; stroke-opacity:1; fill:none" points="
  263.38,1445.72 267.445,1445.72 271.51,1445.72 275.575,1445.72 279.64,1445.72 283.705,1445.72 287.771,1445.72 291.836,1445.72 295.901,1445.72 299.966,1445.72 
  304.031,1445.72 308.096,1445.72 312.162,1445.72 316.227,1445.72 320.292,1445.72 324.357,1445.72 328.422,1445.72 332.487,1445.72 336.553,1445.72 340.618,1445.72 
  344.683,1445.72 348.748,1445.72 352.813,1445.72 356.878,1445.72 360.944,1445.72 365.009,1445.72 369.074,1445.72 373.139,1445.72 377.204,1445.72 381.27,1445.72 
  385.335,1445.72 389.4,1445.72 393.465,1445.72 397.53,1445.72 401.595,1445.72 405.661,1445.72 409.726,1445.72 413.791,1445.72 417.856,1445.72 421.921,1445.72 
  425.986,1445.72 430.052,1445.72 434.117,1445.72 438.182,1445.72 442.247,1445.72 446.312,1445.72 450.377,1445.72 454.443,1445.72 458.508,1445.72 462.573,1445.72 
  466.638,1445.72 470.703,1445.72 474.768,1445.72 478.834,1445.72 482.899,1445.72 486.964,1445.72 491.029,1445.72 495.094,1445.72 499.16,1445.72 503.225,1445.72 
  507.29,1445.72 511.355,1445.72 515.42,1445.72 519.485,1445.72 523.551,1445.72 527.616,1445.72 531.681,1445.72 535.746,1445.72 539.811,1445.72 543.876,1445.72 
  547.942,1445.72 552.007,1445.72 556.072,1445.72 560.137,1445.72 564.202,1445.72 568.267,1445.72 572.333,1445.72 576.398,1445.72 580.463,1445.72 584.528,1445.72 
  588.593,1445.72 592.658,1445.72 596.724,1445.72 600.789,1445.72 604.854,1445.72 608.919,1445.72 612.984,1445.72 617.049,1445.72 621.115,1445.72 625.18,1445.72 
  629.245,1445.72 633.31,1445.72 637.375,1445.72 641.441,1445.72 645.506,1445.72 649.571,1445.72 653.636,1445.72 657.701,1445.72 661.766,1445.72 665.832,1445.72 
  669.897,1445.72 673.962,1445.72 678.027,1445.72 682.092,1445.72 686.157,1445.72 690.223,1445.72 694.288,1445.72 698.353,1445.72 702.418,1445.72 706.483,1445.72 
  710.548,1445.72 714.614,1445.72 718.679,1445.72 722.744,1445.72 726.809,1445.72 730.874,1445.72 734.939,1445.72 739.005,1445.72 743.07,1445.72 747.135,1445.72 
  751.2,1445.72 755.265,1445.72 759.331,1445.72 763.396,1445.72 767.461,1445.72 771.526,1445.72 775.591,1445.72 779.656,1445.72 783.722,1445.72 787.787,1445.72 
  791.852,1445.72 795.917,1445.72 799.982,1445.72 804.047,1445.72 808.113,1445.72 812.178,1445.72 816.243,1445.72 820.308,1445.72 824.373,1445.72 828.438,1445.72 
  832.504,1445.72 836.569,1445.72 840.634,1445.72 844.699,1445.72 848.764,1445.72 852.829,1445.72 856.895,1445.72 860.96,1445.72 865.025,1445.72 869.09,1445.72 
  873.155,1445.72 877.22,1445.72 881.286,1445.72 885.351,1445.72 889.416,1445.72 893.481,1445.72 897.546,1445.72 901.612,1445.72 905.677,1445.72 909.742,1445.72 
  913.807,1445.72 917.872,1445.72 921.937,1445.72 926.003,1445.72 930.068,1445.72 934.133,1445.72 938.198,1445.72 942.263,1445.72 946.328,1445.72 950.394,1445.72 
  954.459,1445.72 958.524,1445.72 962.589,1445.72 966.654,1445.72 970.719,1445.72 974.785,1445.72 978.85,1445.72 982.915,1445.72 986.98,1445.72 991.045,1445.72 
  995.11,1445.72 999.176,1445.72 1003.24,1445.72 1007.31,1445.72 1011.37,1445.72 1015.44,1445.72 1019.5,1445.72 1023.57,1445.72 1027.63,1445.72 1031.7,1445.72 
  1035.76,1445.72 1039.83,1445.72 1043.89,1445.72 1047.96,1445.72 1052.02,1445.72 1056.09,1445.72 1060.15,1445.72 1064.22,1445.72 1068.28,1445.72 1072.35,1445.72 
  1076.41,1445.72 1080.48,1445.72 1084.54,1445.72 1088.61,1445.72 1092.67,1445.72 1096.74,1445.72 1100.8,1445.72 1104.87,1445.72 1108.94,1445.72 1113,1445.72 
  1117.07,1445.72 1121.13,1445.72 1125.2,1445.72 1129.26,1445.72 1133.33,1445.72 1137.39,1445.72 1141.46,1445.72 1145.52,1445.72 1149.59,1445.72 1153.65,1445.72 
  1157.72,1445.72 1161.78,1445.72 1165.85,1445.72 1169.91,1445.72 1173.98,1445.72 1178.04,1445.72 1182.11,1445.72 1186.17,1445.72 1190.24,1445.72 1194.3,1445.72 
  1198.37,1445.72 1202.43,1445.72 1206.5,1445.72 1210.56,1445.72 1214.63,1445.72 1218.69,1445.72 1222.76,1445.72 1226.83,1445.72 1230.89,1445.72 1234.96,1445.72 
  1239.02,1445.72 1243.09,1445.72 1247.15,1445.72 1251.22,1445.72 1255.28,1445.72 1259.35,1445.72 1263.41,1445.72 1267.48,1445.72 1271.54,1445.72 1275.61,1445.72 
  1279.67,1445.72 1283.74,1445.72 1287.8,1445.72 1291.87,1445.72 1295.93,1445.72 1300,1445.72 1304.06,1445.72 1308.13,1445.72 1312.19,1445.72 1316.26,1445.72 
  1320.32,1445.72 1324.39,1445.72 1328.45,1445.72 1332.52,1445.72 1336.58,1445.72 1340.65,1445.72 1344.72,1445.72 1348.78,1445.72 1352.85,1445.72 1356.91,1445.72 
  1360.98,1445.72 1365.04,1445.72 1369.11,1445.72 1373.17,1445.72 1377.24,1445.72 1381.3,1445.72 1385.37,1445.72 1389.43,1445.72 1393.5,1445.72 1397.56,1445.72 
  1401.63,1445.72 1405.69,1445.72 1409.76,1445.72 1413.82,1445.72 1417.89,1445.72 1421.95,1445.72 1426.02,1445.72 1430.08,1445.72 1434.15,1445.72 1438.21,1445.72 
  1442.28,1445.72 1446.34,1445.72 1450.41,1445.72 1454.47,1445.72 1458.54,1445.72 1462.61,1445.72 1466.67,1445.72 1470.74,1445.72 1474.8,1445.72 1478.87,1445.72 
  1482.93,1445.72 1487,1445.72 1491.06,1445.72 1495.13,1445.72 1499.19,1445.72 1503.26,1445.72 1507.32,1445.72 1511.39,1445.72 1515.45,1445.72 1519.52,1445.72 
  1523.58,1445.72 1527.65,1445.72 1531.71,1445.72 1535.78,1445.72 1539.84,1445.72 1543.91,1445.72 1547.97,1445.72 1552.04,1445.72 1556.1,1445.72 1560.17,1445.72 
  1564.23,1445.72 1568.3,1445.72 1572.36,1445.72 1576.43,1445.72 1580.5,1445.72 1584.56,1445.72 1588.63,1445.72 1592.69,1445.72 1596.76,1445.72 1600.82,1445.72 
  1604.89,1445.72 1608.95,1445.72 1613.02,1445.72 1617.08,1445.72 1621.15,1445.72 1625.21,1445.72 1629.28,1445.72 1633.34,1445.72 1637.41,1445.72 1641.47,1445.72 
  1645.54,1445.72 1649.6,1445.72 1653.67,1445.72 1657.73,1445.72 1661.8,1445.72 1665.86,1445.72 1669.93,1445.72 1673.99,1445.72 1678.06,1445.72 1682.12,1445.72 
  1686.19,1445.72 1690.25,1445.72 1694.32,1445.72 1698.39,1445.72 1702.45,1445.72 1706.52,1445.72 1710.58,1445.72 1714.65,1445.72 1718.71,1445.72 1722.78,1445.72 
  1726.84,1445.72 1730.91,1445.72 1734.97,1445.72 1739.04,1445.72 1743.1,1445.72 1747.17,1445.72 1751.23,1445.72 1755.3,1445.72 1759.36,1445.72 1763.43,1445.72 
  1767.49,1445.72 1771.56,1445.72 1775.62,1445.72 1779.69,1445.72 1783.75,1445.72 1787.82,1445.72 1791.88,1445.72 1795.95,1445.72 1800.01,1445.72 1804.08,1445.72 
  1808.14,1445.72 1812.21,1445.72 1816.28,1445.72 1820.34,1445.72 1824.41,1445.72 1828.47,1445.72 1832.54,1445.72 1836.6,1445.72 1840.67,1445.72 1844.73,1445.72 
  1848.8,1445.72 1852.86,1445.72 1856.93,1445.72 1860.99,1445.72 1865.06,1445.72 1869.12,1445.72 1873.19,1445.72 1877.25,1445.72 1881.32,1445.72 1885.38,1445.72 
  1889.45,1445.72 1893.51,1445.72 1897.58,1445.72 1901.64,1445.72 1905.71,1445.72 1909.77,1445.72 1913.84,1445.72 1917.9,1445.72 1921.97,1445.72 1926.03,1445.72 
  1930.1,1445.72 1934.17,1445.72 1938.23,1445.72 1942.3,1445.72 1946.36,1445.72 1950.43,1445.72 1954.49,1445.72 1958.56,1445.72 1962.62,1445.72 1966.69,1445.72 
  1970.75,1445.72 1974.82,1445.72 1978.88,1445.72 1982.95,1445.72 1987.01,1445.72 1991.08,1445.72 1995.14,1445.72 1999.21,1445.72 2003.27,1445.72 2007.34,1445.72 
  2011.4,1445.72 2015.47,1445.72 2019.53,1445.72 2023.6,1445.72 2027.66,1445.72 2031.73,1445.72 2035.79,1445.72 2039.86,1445.72 2043.92,1445.72 2047.99,1445.72 
  2052.06,1445.72 2056.12,1445.72 2060.19,1445.72 2064.25,1445.72 2068.32,1445.72 2072.38,1445.72 2076.45,1445.72 2080.51,1445.72 2084.58,1445.72 2088.64,1445.72 
  2092.71,1445.72 2096.77,1445.72 2100.84,1445.72 2104.9,1445.72 2108.97,1445.72 2113.03,1445.72 2117.1,1445.72 2121.16,1445.72 2125.23,1445.72 2129.29,1445.72 
  2133.36,1445.72 2137.42,1445.72 2141.49,1445.72 2145.55,1445.72 2149.62,1445.72 2153.68,1445.72 2157.75,1445.72 2161.81,1445.72 2165.88,1445.72 2169.95,1445.72 
  2174.01,1445.72 2178.08,1445.72 2182.14,1445.72 2186.21,1445.72 2190.27,1445.72 2194.34,1445.72 2198.4,1445.72 2202.47,1445.72 2206.53,1445.72 2210.6,1445.72 
  2214.66,1445.72 2218.73,1445.72 2222.79,1445.72 2226.86,1445.72 2230.92,1445.72 2234.99,1445.72 2239.05,1445.72 2243.12,1445.72 2247.18,1445.72 2251.25,1445.72 
  2255.31,1445.72 2259.38,1445.72 2263.44,1445.72 2267.51,1445.72 2271.57,1445.72 2275.64,1445.72 2279.7,1445.72 2283.77,1445.72 2287.84,1445.72 2291.9,1445.72 
  
  "/>
<path clip-path="url(#clip890)" d="
M1681.98 216.178 L2281.08 216.178 L2281.08 95.2176 L1681.98 95.2176  Z
  " fill="#ffffff" fill-rule="evenodd" fill-opacity="1"/>
<polyline clip-path="url(#clip890)" style="stroke:#000000; stroke-width:4; stroke-opacity:1; fill:none" points="
  1681.98,216.178 2281.08,216.178 2281.08,95.2176 1681.98,95.2176 1681.98,216.178 
  "/>
<polyline clip-path="url(#clip890)" style="stroke:#009af9; stroke-width:4; stroke-opacity:1; fill:none" points="
  1705.88,155.698 1849.22,155.698 
  "/>
<path clip-path="url(#clip890)" d="M 0 0 M1894.83 157.329 L1894.83 172.978 L1890.57 172.978 L1890.57 157.468 Q1890.57 153.788 1889.13 151.959 Q1887.7 150.13 1884.83 150.13 Q1881.38 150.13 1879.39 152.33 Q1877.4 154.529 1877.4 158.325 L1877.4 172.978 L1873.12 172.978 L1873.12 147.052 L1877.4 147.052 L1877.4 151.08 Q1878.93 148.742 1880.99 147.584 Q1883.07 146.427 1885.78 146.427 Q1890.24 146.427 1892.54 149.205 Q1894.83 151.959 1894.83 157.329 Z" fill="#000000" fill-rule="evenodd" fill-opacity="1" /><path clip-path="url(#clip890)" d="M 0 0 M1898.86 162.746 L1898.86 147.052 L1903.12 147.052 L1903.12 162.584 Q1903.12 166.265 1904.55 168.116 Q1905.99 169.945 1908.86 169.945 Q1912.3 169.945 1914.3 167.746 Q1916.31 165.547 1916.31 161.751 L1916.31 147.052 L1920.57 147.052 L1920.57 172.978 L1916.31 172.978 L1916.31 168.996 Q1914.76 171.357 1912.7 172.515 Q1910.66 173.649 1907.95 173.649 Q1903.49 173.649 1901.17 170.871 Q1898.86 168.093 1898.86 162.746 M1909.57 146.427 L1909.57 146.427 Z" fill="#000000" fill-rule="evenodd" fill-opacity="1" /><path clip-path="url(#clip890)" d="M 0 0 M1945.22 152.029 Q1946.82 149.158 1949.04 147.793 Q1951.26 146.427 1954.27 146.427 Q1958.32 146.427 1960.52 149.274 Q1962.72 152.098 1962.72 157.329 L1962.72 172.978 L1958.44 172.978 L1958.44 157.468 Q1958.44 153.742 1957.12 151.936 Q1955.8 150.13 1953.09 150.13 Q1949.78 150.13 1947.86 152.33 Q1945.94 154.529 1945.94 158.325 L1945.94 172.978 L1941.66 172.978 L1941.66 157.468 Q1941.66 153.718 1940.34 151.936 Q1939.02 150.13 1936.26 150.13 Q1933 150.13 1931.08 152.353 Q1929.16 154.552 1929.16 158.325 L1929.16 172.978 L1924.87 172.978 L1924.87 147.052 L1929.16 147.052 L1929.16 151.08 Q1930.62 148.695 1932.65 147.561 Q1934.69 146.427 1937.49 146.427 Q1940.31 146.427 1942.28 147.862 Q1944.27 149.297 1945.22 152.029 Z" fill="#000000" fill-rule="evenodd" fill-opacity="1" /><path clip-path="url(#clip890)" d="M 0 0 M1985.8 160.038 Q1985.8 155.339 1983.86 152.677 Q1981.93 149.992 1978.55 149.992 Q1975.17 149.992 1973.23 152.677 Q1971.31 155.339 1971.31 160.038 Q1971.31 164.737 1973.23 167.422 Q1975.17 170.084 1978.55 170.084 Q1981.93 170.084 1983.86 167.422 Q1985.8 164.737 1985.8 160.038 M1971.31 150.987 Q1972.65 148.672 1974.69 147.561 Q1976.75 146.427 1979.6 146.427 Q1984.32 146.427 1987.26 150.177 Q1990.22 153.927 1990.22 160.038 Q1990.22 166.149 1987.26 169.899 Q1984.32 173.649 1979.6 173.649 Q1976.75 173.649 1974.69 172.538 Q1972.65 171.403 1971.31 169.089 L1971.31 172.978 L1967.03 172.978 L1967.03 136.959 L1971.31 136.959 L1971.31 150.987 Z" fill="#000000" fill-rule="evenodd" fill-opacity="1" /><path clip-path="url(#clip890)" d="M 0 0 M2016.86 158.95 L2016.86 161.033 L1997.28 161.033 Q1997.56 165.431 1999.92 167.746 Q2002.3 170.038 2006.54 170.038 Q2008.99 170.038 2011.29 169.436 Q2013.6 168.834 2015.87 167.63 L2015.87 171.658 Q2013.58 172.63 2011.17 173.14 Q2008.76 173.649 2006.29 173.649 Q2000.08 173.649 1996.45 170.038 Q1992.84 166.427 1992.84 160.269 Q1992.84 153.904 1996.26 150.177 Q1999.71 146.427 2005.55 146.427 Q2010.78 146.427 2013.81 149.806 Q2016.86 153.163 2016.86 158.95 M2012.61 157.7 Q2012.56 154.205 2010.64 152.121 Q2008.74 150.038 2005.59 150.038 Q2002.03 150.038 1999.87 152.052 Q1997.74 154.066 1997.42 157.723 L2012.61 157.7 Z" fill="#000000" fill-rule="evenodd" fill-opacity="1" /><path clip-path="url(#clip890)" d="M 0 0 M2036.36 151.033 Q2035.64 150.617 2034.78 150.431 Q2033.95 150.223 2032.93 150.223 Q2029.32 150.223 2027.37 152.584 Q2025.45 154.922 2025.45 159.32 L2025.45 172.978 L2021.17 172.978 L2021.17 147.052 L2025.45 147.052 L2025.45 151.08 Q2026.8 148.718 2028.95 147.584 Q2031.1 146.427 2034.18 146.427 Q2034.62 146.427 2035.15 146.496 Q2035.68 146.543 2036.33 146.658 L2036.36 151.033 Z" fill="#000000" fill-rule="evenodd" fill-opacity="1" /><path clip-path="url(#clip890)" d="M 0 0 M2060.11 139.691 L2060.11 147.052 L2068.88 147.052 L2068.88 150.362 L2060.11 150.362 L2060.11 164.436 Q2060.11 167.607 2060.96 168.51 Q2061.84 169.413 2064.5 169.413 L2068.88 169.413 L2068.88 172.978 L2064.5 172.978 Q2059.57 172.978 2057.7 171.149 Q2055.82 169.297 2055.82 164.436 L2055.82 150.362 L2052.7 150.362 L2052.7 147.052 L2055.82 147.052 L2055.82 139.691 L2060.11 139.691 Z" fill="#000000" fill-rule="evenodd" fill-opacity="1" /><path clip-path="url(#clip890)" d="M 0 0 M2083.39 150.038 Q2079.97 150.038 2077.98 152.723 Q2075.98 155.385 2075.98 160.038 Q2075.98 164.691 2077.95 167.376 Q2079.94 170.038 2083.39 170.038 Q2086.79 170.038 2088.79 167.353 Q2090.78 164.667 2090.78 160.038 Q2090.78 155.431 2088.79 152.746 Q2086.79 150.038 2083.39 150.038 M2083.39 146.427 Q2088.95 146.427 2092.12 150.038 Q2095.29 153.649 2095.29 160.038 Q2095.29 166.404 2092.12 170.038 Q2088.95 173.649 2083.39 173.649 Q2077.81 173.649 2074.64 170.038 Q2071.49 166.404 2071.49 160.038 Q2071.49 153.649 2074.64 150.038 Q2077.81 146.427 2083.39 146.427 Z" fill="#000000" fill-rule="evenodd" fill-opacity="1" /><path clip-path="url(#clip890)" d="M 0 0 M2131.89 159.714 Q2131.89 155.084 2129.97 152.538 Q2128.07 149.992 2124.62 149.992 Q2121.19 149.992 2119.27 152.538 Q2117.37 155.084 2117.37 159.714 Q2117.37 164.32 2119.27 166.866 Q2121.19 169.413 2124.62 169.413 Q2128.07 169.413 2129.97 166.866 Q2131.89 164.32 2131.89 159.714 M2136.15 169.76 Q2136.15 176.38 2133.21 179.598 Q2130.27 182.839 2124.2 182.839 Q2121.96 182.839 2119.97 182.491 Q2117.98 182.167 2116.1 181.473 L2116.1 177.329 Q2117.98 178.348 2119.8 178.834 Q2121.63 179.32 2123.53 179.32 Q2127.72 179.32 2129.8 177.121 Q2131.89 174.945 2131.89 170.524 L2131.89 168.417 Q2130.57 170.709 2128.51 171.843 Q2126.45 172.978 2123.58 172.978 Q2118.81 172.978 2115.89 169.343 Q2112.98 165.709 2112.98 159.714 Q2112.98 153.695 2115.89 150.061 Q2118.81 146.427 2123.58 146.427 Q2126.45 146.427 2128.51 147.561 Q2130.57 148.695 2131.89 150.987 L2131.89 147.052 L2136.15 147.052 L2136.15 169.76 Z" fill="#000000" fill-rule="evenodd" fill-opacity="1" /><path clip-path="url(#clip890)" d="M 0 0 M2140.17 162.746 L2140.17 147.052 L2144.43 147.052 L2144.43 162.584 Q2144.43 166.265 2145.87 168.116 Q2147.3 169.945 2150.17 169.945 Q2153.62 169.945 2155.61 167.746 Q2157.63 165.547 2157.63 161.751 L2157.63 147.052 L2161.89 147.052 L2161.89 172.978 L2157.63 172.978 L2157.63 168.996 Q2156.08 171.357 2154.02 172.515 Q2151.98 173.649 2149.27 173.649 Q2144.8 173.649 2142.49 170.871 Q2140.17 168.093 2140.17 162.746 M2150.89 146.427 L2150.89 146.427 Z" fill="#000000" fill-rule="evenodd" fill-opacity="1" /><path clip-path="url(#clip890)" d="M 0 0 M2188.53 158.95 L2188.53 161.033 L2168.95 161.033 Q2169.22 165.431 2171.59 167.746 Q2173.97 170.038 2178.21 170.038 Q2180.66 170.038 2182.95 169.436 Q2185.27 168.834 2187.53 167.63 L2187.53 171.658 Q2185.24 172.63 2182.84 173.14 Q2180.43 173.649 2177.95 173.649 Q2171.75 173.649 2168.11 170.038 Q2164.5 166.427 2164.5 160.269 Q2164.5 153.904 2167.93 150.177 Q2171.38 146.427 2177.21 146.427 Q2182.44 146.427 2185.47 149.806 Q2188.53 153.163 2188.53 158.95 M2184.27 157.7 Q2184.22 154.205 2182.3 152.121 Q2180.41 150.038 2177.26 150.038 Q2173.69 150.038 2171.54 152.052 Q2169.41 154.066 2169.09 157.723 L2184.27 157.7 Z" fill="#000000" fill-rule="evenodd" fill-opacity="1" /><path clip-path="url(#clip890)" d="M 0 0 M2209.53 147.816 L2209.53 151.843 Q2207.72 150.917 2205.78 150.455 Q2203.83 149.992 2201.75 149.992 Q2198.58 149.992 2196.98 150.964 Q2195.41 151.936 2195.41 153.88 Q2195.41 155.362 2196.54 156.218 Q2197.67 157.052 2201.1 157.816 L2202.56 158.14 Q2207.1 159.112 2208.99 160.894 Q2210.91 162.654 2210.91 165.825 Q2210.91 169.436 2208.04 171.542 Q2205.2 173.649 2200.2 173.649 Q2198.11 173.649 2195.85 173.232 Q2193.6 172.839 2191.1 172.028 L2191.1 167.63 Q2193.46 168.857 2195.75 169.482 Q2198.04 170.084 2200.29 170.084 Q2203.3 170.084 2204.92 169.066 Q2206.54 168.024 2206.54 166.149 Q2206.54 164.413 2205.36 163.487 Q2204.2 162.561 2200.24 161.704 L2198.76 161.357 Q2194.8 160.524 2193.04 158.811 Q2191.28 157.075 2191.28 154.066 Q2191.28 150.408 2193.88 148.418 Q2196.47 146.427 2201.24 146.427 Q2203.6 146.427 2205.68 146.774 Q2207.77 147.121 2209.53 147.816 Z" fill="#000000" fill-rule="evenodd" fill-opacity="1" /><path clip-path="url(#clip890)" d="M 0 0 M2231.91 147.816 L2231.91 151.843 Q2230.1 150.917 2228.16 150.455 Q2226.22 149.992 2224.13 149.992 Q2220.96 149.992 2219.36 150.964 Q2217.79 151.936 2217.79 153.88 Q2217.79 155.362 2218.92 156.218 Q2220.06 157.052 2223.48 157.816 L2224.94 158.14 Q2229.48 159.112 2231.38 160.894 Q2233.3 162.654 2233.3 165.825 Q2233.3 169.436 2230.43 171.542 Q2227.58 173.649 2222.58 173.649 Q2220.5 173.649 2218.23 173.232 Q2215.98 172.839 2213.48 172.028 L2213.48 167.63 Q2215.84 168.857 2218.14 169.482 Q2220.43 170.084 2222.67 170.084 Q2225.68 170.084 2227.3 169.066 Q2228.92 168.024 2228.92 166.149 Q2228.92 164.413 2227.74 163.487 Q2226.59 162.561 2222.63 161.704 L2221.15 161.357 Q2217.19 160.524 2215.43 158.811 Q2213.67 157.075 2213.67 154.066 Q2213.67 150.408 2216.26 148.418 Q2218.85 146.427 2223.62 146.427 Q2225.98 146.427 2228.07 146.774 Q2230.15 147.121 2231.91 147.816 Z" fill="#000000" fill-rule="evenodd" fill-opacity="1" /></svg>
