<?xml version="1.0" encoding="utf-8"?>
<svg xmlns="http://www.w3.org/2000/svg" xmlns:xlink="http://www.w3.org/1999/xlink" width="600" height="400" viewBox="0 0 2400 1600">
<defs>
  <clipPath id="clip290">
    <rect x="0" y="0" width="2400" height="1600"/>
  </clipPath>
</defs>
<path clip-path="url(#clip290)" d="
M0 1600 L2400 1600 L2400 0 L0 0  Z
  " fill="#ffffff" fill-rule="evenodd" fill-opacity="1"/>
<defs>
  <clipPath id="clip291">
    <rect x="480" y="0" width="1681" height="1600"/>
  </clipPath>
</defs>
<path clip-path="url(#clip290)" d="
M255.602 1486.45 L2352.76 1486.45 L2352.76 47.2441 L255.602 47.2441  Z
  " fill="#ffffff" fill-rule="evenodd" fill-opacity="1"/>
<defs>
  <clipPath id="clip292">
    <rect x="255" y="47" width="2098" height="1440"/>
  </clipPath>
</defs>
<polyline clip-path="url(#clip292)" style="stroke:#000000; stroke-width:2; stroke-opacity:0.1; fill:none" points="
  517.747,1486.45 517.747,47.2441 
  "/>
<polyline clip-path="url(#clip292)" style="stroke:#000000; stroke-width:2; stroke-opacity:0.1; fill:none" points="
  1042.03,1486.45 1042.03,47.2441 
  "/>
<polyline clip-path="url(#clip292)" style="stroke:#000000; stroke-width:2; stroke-opacity:0.1; fill:none" points="
  1566.32,1486.45 1566.32,47.2441 
  "/>
<polyline clip-path="url(#clip292)" style="stroke:#000000; stroke-width:2; stroke-opacity:0.1; fill:none" points="
  2090.61,1486.45 2090.61,47.2441 
  "/>
<polyline clip-path="url(#clip290)" style="stroke:#000000; stroke-width:4; stroke-opacity:1; fill:none" points="
  255.602,1486.45 2352.76,1486.45 
  "/>
<polyline clip-path="url(#clip290)" style="stroke:#000000; stroke-width:4; stroke-opacity:1; fill:none" points="
  517.747,1486.45 517.747,1469.18 
  "/>
<polyline clip-path="url(#clip290)" style="stroke:#000000; stroke-width:4; stroke-opacity:1; fill:none" points="
  1042.03,1486.45 1042.03,1469.18 
  "/>
<polyline clip-path="url(#clip290)" style="stroke:#000000; stroke-width:4; stroke-opacity:1; fill:none" points="
  1566.32,1486.45 1566.32,1469.18 
  "/>
<polyline clip-path="url(#clip290)" style="stroke:#000000; stroke-width:4; stroke-opacity:1; fill:none" points="
  2090.61,1486.45 2090.61,1469.18 
  "/>
<path clip-path="url(#clip290)" d="M 0 0 M494.541 1546.4 L494.541 1542.14 Q496.3 1542.98 498.105 1543.42 Q499.911 1543.86 501.647 1543.86 Q506.277 1543.86 508.707 1540.75 Q511.161 1537.63 511.508 1531.29 Q510.166 1533.28 508.105 1534.34 Q506.045 1535.41 503.545 1535.41 Q498.36 1535.41 495.328 1532.28 Q492.318 1529.13 492.318 1523.69 Q492.318 1518.37 495.467 1515.15 Q498.615 1511.93 503.846 1511.93 Q509.841 1511.93 512.99 1516.54 Q516.161 1521.12 516.161 1529.87 Q516.161 1538.05 512.272 1542.93 Q508.406 1547.79 501.855 1547.79 Q500.096 1547.79 498.291 1547.44 Q496.485 1547.1 494.541 1546.4 M503.846 1531.75 Q506.994 1531.75 508.823 1529.6 Q510.675 1527.44 510.675 1523.69 Q510.675 1519.97 508.823 1517.81 Q506.994 1515.64 503.846 1515.64 Q500.698 1515.64 498.846 1517.81 Q497.017 1519.97 497.017 1523.69 Q497.017 1527.44 498.846 1529.6 Q500.698 1531.75 503.846 1531.75 Z" fill="#000000" fill-rule="evenodd" fill-opacity="1" /><path clip-path="url(#clip290)" d="M 0 0 M531.23 1515.64 Q527.619 1515.64 525.79 1519.2 Q523.985 1522.75 523.985 1529.87 Q523.985 1536.98 525.79 1540.55 Q527.619 1544.09 531.23 1544.09 Q534.864 1544.09 536.67 1540.55 Q538.499 1536.98 538.499 1529.87 Q538.499 1522.75 536.67 1519.2 Q534.864 1515.64 531.23 1515.64 M531.23 1511.93 Q537.04 1511.93 540.096 1516.54 Q543.175 1521.12 543.175 1529.87 Q543.175 1538.6 540.096 1543.21 Q537.04 1547.79 531.23 1547.79 Q525.42 1547.79 522.341 1543.21 Q519.286 1538.6 519.286 1529.87 Q519.286 1521.12 522.341 1516.54 Q525.42 1511.93 531.23 1511.93 Z" fill="#000000" fill-rule="evenodd" fill-opacity="1" /><path clip-path="url(#clip290)" d="M 0 0 M1005.4 1543.18 L1013.04 1543.18 L1013.04 1516.82 L1004.73 1518.49 L1004.73 1514.23 L1013 1512.56 L1017.67 1512.56 L1017.67 1543.18 L1025.31 1543.18 L1025.31 1547.12 L1005.4 1547.12 L1005.4 1543.18 Z" fill="#000000" fill-rule="evenodd" fill-opacity="1" /><path clip-path="url(#clip290)" d="M 0 0 M1040.38 1515.64 Q1036.77 1515.64 1034.94 1519.2 Q1033.13 1522.75 1033.13 1529.87 Q1033.13 1536.98 1034.94 1540.55 Q1036.77 1544.09 1040.38 1544.09 Q1044.01 1544.09 1045.82 1540.55 Q1047.65 1536.98 1047.65 1529.87 Q1047.65 1522.75 1045.82 1519.2 Q1044.01 1515.64 1040.38 1515.64 M1040.38 1511.93 Q1046.19 1511.93 1049.25 1516.54 Q1052.32 1521.12 1052.32 1529.87 Q1052.32 1538.6 1049.25 1543.21 Q1046.19 1547.79 1040.38 1547.79 Q1034.57 1547.79 1031.49 1543.21 Q1028.44 1538.6 1028.44 1529.87 Q1028.44 1521.12 1031.49 1516.54 Q1034.57 1511.93 1040.38 1511.93 Z" fill="#000000" fill-rule="evenodd" fill-opacity="1" /><path clip-path="url(#clip290)" d="M 0 0 M1067.39 1515.64 Q1063.78 1515.64 1061.95 1519.2 Q1060.15 1522.75 1060.15 1529.87 Q1060.15 1536.98 1061.95 1540.55 Q1063.78 1544.09 1067.39 1544.09 Q1071.03 1544.09 1072.83 1540.55 Q1074.66 1536.98 1074.66 1529.87 Q1074.66 1522.75 1072.83 1519.2 Q1071.03 1515.64 1067.39 1515.64 M1067.39 1511.93 Q1073.2 1511.93 1076.26 1516.54 Q1079.34 1521.12 1079.34 1529.87 Q1079.34 1538.6 1076.26 1543.21 Q1073.2 1547.79 1067.39 1547.79 Q1061.58 1547.79 1058.5 1543.21 Q1055.45 1538.6 1055.45 1529.87 Q1055.45 1521.12 1058.5 1516.54 Q1061.58 1511.93 1067.39 1511.93 Z" fill="#000000" fill-rule="evenodd" fill-opacity="1" /><path clip-path="url(#clip290)" d="M 0 0 M1530.3 1543.18 L1537.94 1543.18 L1537.94 1516.82 L1529.63 1518.49 L1529.63 1514.23 L1537.9 1512.56 L1542.57 1512.56 L1542.57 1543.18 L1550.21 1543.18 L1550.21 1547.12 L1530.3 1547.12 L1530.3 1543.18 Z" fill="#000000" fill-rule="evenodd" fill-opacity="1" /><path clip-path="url(#clip290)" d="M 0 0 M1556.09 1543.18 L1563.73 1543.18 L1563.73 1516.82 L1555.42 1518.49 L1555.42 1514.23 L1563.68 1512.56 L1568.36 1512.56 L1568.36 1543.18 L1576 1543.18 L1576 1547.12 L1556.09 1547.12 L1556.09 1543.18 Z" fill="#000000" fill-rule="evenodd" fill-opacity="1" /><path clip-path="url(#clip290)" d="M 0 0 M1591.07 1515.64 Q1587.46 1515.64 1585.63 1519.2 Q1583.82 1522.75 1583.82 1529.87 Q1583.82 1536.98 1585.63 1540.55 Q1587.46 1544.09 1591.07 1544.09 Q1594.7 1544.09 1596.51 1540.55 Q1598.34 1536.98 1598.34 1529.87 Q1598.34 1522.75 1596.51 1519.2 Q1594.7 1515.64 1591.07 1515.64 M1591.07 1511.93 Q1596.88 1511.93 1599.93 1516.54 Q1603.01 1521.12 1603.01 1529.87 Q1603.01 1538.6 1599.93 1543.21 Q1596.88 1547.79 1591.07 1547.79 Q1585.26 1547.79 1582.18 1543.21 Q1579.12 1538.6 1579.12 1529.87 Q1579.12 1521.12 1582.18 1516.54 Q1585.26 1511.93 1591.07 1511.93 Z" fill="#000000" fill-rule="evenodd" fill-opacity="1" /><path clip-path="url(#clip290)" d="M 0 0 M2054.78 1543.18 L2062.42 1543.18 L2062.42 1516.82 L2054.11 1518.49 L2054.11 1514.23 L2062.37 1512.56 L2067.05 1512.56 L2067.05 1543.18 L2074.69 1543.18 L2074.69 1547.12 L2054.78 1547.12 L2054.78 1543.18 Z" fill="#000000" fill-rule="evenodd" fill-opacity="1" /><path clip-path="url(#clip290)" d="M 0 0 M2083.78 1543.18 L2100.1 1543.18 L2100.1 1547.12 L2078.16 1547.12 L2078.16 1543.18 Q2080.82 1540.43 2085.4 1535.8 Q2090.01 1531.15 2091.19 1529.81 Q2093.44 1527.28 2094.32 1525.55 Q2095.22 1523.79 2095.22 1522.1 Q2095.22 1519.34 2093.27 1517.61 Q2091.35 1515.87 2088.25 1515.87 Q2086.05 1515.87 2083.6 1516.63 Q2081.17 1517.4 2078.39 1518.95 L2078.39 1514.23 Q2081.21 1513.09 2083.67 1512.51 Q2086.12 1511.93 2088.16 1511.93 Q2093.53 1511.93 2096.72 1514.62 Q2099.92 1517.31 2099.92 1521.8 Q2099.92 1523.93 2099.11 1525.85 Q2098.32 1527.74 2096.21 1530.34 Q2095.63 1531.01 2092.53 1534.23 Q2089.43 1537.42 2083.78 1543.18 Z" fill="#000000" fill-rule="evenodd" fill-opacity="1" /><path clip-path="url(#clip290)" d="M 0 0 M2115.17 1515.64 Q2111.56 1515.64 2109.73 1519.2 Q2107.93 1522.75 2107.93 1529.87 Q2107.93 1536.98 2109.73 1540.55 Q2111.56 1544.09 2115.17 1544.09 Q2118.81 1544.09 2120.61 1540.55 Q2122.44 1536.98 2122.44 1529.87 Q2122.44 1522.75 2120.61 1519.2 Q2118.81 1515.64 2115.17 1515.64 M2115.17 1511.93 Q2120.98 1511.93 2124.04 1516.54 Q2127.12 1521.12 2127.12 1529.87 Q2127.12 1538.6 2124.04 1543.21 Q2120.98 1547.79 2115.17 1547.79 Q2109.36 1547.79 2106.28 1543.21 Q2103.23 1538.6 2103.23 1529.87 Q2103.23 1521.12 2106.28 1516.54 Q2109.36 1511.93 2115.17 1511.93 Z" fill="#000000" fill-rule="evenodd" fill-opacity="1" /><polyline clip-path="url(#clip292)" style="stroke:#000000; stroke-width:2; stroke-opacity:0.1; fill:none" points="
  255.602,1361.81 2352.76,1361.81 
  "/>
<polyline clip-path="url(#clip292)" style="stroke:#000000; stroke-width:2; stroke-opacity:0.1; fill:none" points="
  255.602,1107.32 2352.76,1107.32 
  "/>
<polyline clip-path="url(#clip292)" style="stroke:#000000; stroke-width:2; stroke-opacity:0.1; fill:none" points="
  255.602,852.817 2352.76,852.817 
  "/>
<polyline clip-path="url(#clip292)" style="stroke:#000000; stroke-width:2; stroke-opacity:0.1; fill:none" points="
  255.602,598.319 2352.76,598.319 
  "/>
<polyline clip-path="url(#clip292)" style="stroke:#000000; stroke-width:2; stroke-opacity:0.1; fill:none" points="
  255.602,343.82 2352.76,343.82 
  "/>
<polyline clip-path="url(#clip292)" style="stroke:#000000; stroke-width:2; stroke-opacity:0.1; fill:none" points="
  255.602,89.3218 2352.76,89.3218 
  "/>
<polyline clip-path="url(#clip290)" style="stroke:#000000; stroke-width:4; stroke-opacity:1; fill:none" points="
  255.602,1486.45 255.602,47.2441 
  "/>
<polyline clip-path="url(#clip290)" style="stroke:#000000; stroke-width:4; stroke-opacity:1; fill:none" points="
  255.602,1361.81 280.768,1361.81 
  "/>
<polyline clip-path="url(#clip290)" style="stroke:#000000; stroke-width:4; stroke-opacity:1; fill:none" points="
  255.602,1107.32 280.768,1107.32 
  "/>
<polyline clip-path="url(#clip290)" style="stroke:#000000; stroke-width:4; stroke-opacity:1; fill:none" points="
  255.602,852.817 280.768,852.817 
  "/>
<polyline clip-path="url(#clip290)" style="stroke:#000000; stroke-width:4; stroke-opacity:1; fill:none" points="
  255.602,598.319 280.768,598.319 
  "/>
<polyline clip-path="url(#clip290)" style="stroke:#000000; stroke-width:4; stroke-opacity:1; fill:none" points="
  255.602,343.82 280.768,343.82 
  "/>
<polyline clip-path="url(#clip290)" style="stroke:#000000; stroke-width:4; stroke-opacity:1; fill:none" points="
  255.602,89.3218 280.768,89.3218 
  "/>
<path clip-path="url(#clip290)" d="M 0 0 M67.6819 1348.61 L55.8764 1367.06 L67.6819 1367.06 L67.6819 1348.61 M66.455 1344.53 L72.3346 1344.53 L72.3346 1367.06 L77.2651 1367.06 L77.2651 1370.95 L72.3346 1370.95 L72.3346 1379.09 L67.6819 1379.09 L67.6819 1370.95 L52.0801 1370.95 L52.0801 1366.43 L66.455 1344.53 Z" fill="#000000" fill-rule="evenodd" fill-opacity="1" /><path clip-path="url(#clip290)" d="M 0 0 M83.1447 1375.16 L90.7836 1375.16 L90.7836 1348.79 L82.4734 1350.46 L82.4734 1346.2 L90.7373 1344.53 L95.4132 1344.53 L95.4132 1375.16 L103.052 1375.16 L103.052 1379.09 L83.1447 1379.09 L83.1447 1375.16 Z" fill="#000000" fill-rule="evenodd" fill-opacity="1" /><path clip-path="url(#clip290)" d="M 0 0 M108.121 1373.21 L113.006 1373.21 L113.006 1379.09 L108.121 1379.09 L108.121 1373.21 Z" fill="#000000" fill-rule="evenodd" fill-opacity="1" /><path clip-path="url(#clip290)" d="M 0 0 M118.214 1378.38 L118.214 1374.12 Q119.973 1374.95 121.779 1375.39 Q123.584 1375.83 125.32 1375.83 Q129.95 1375.83 132.381 1372.73 Q134.834 1369.6 135.181 1363.26 Q133.839 1365.25 131.779 1366.32 Q129.719 1367.38 127.219 1367.38 Q122.033 1367.38 119.001 1364.26 Q115.992 1361.11 115.992 1355.67 Q115.992 1350.34 119.14 1347.13 Q122.288 1343.91 127.519 1343.91 Q133.515 1343.91 136.663 1348.52 Q139.834 1353.1 139.834 1361.85 Q139.834 1370.02 135.945 1374.9 Q132.08 1379.76 125.529 1379.76 Q123.77 1379.76 121.964 1379.42 Q120.158 1379.07 118.214 1378.38 M127.519 1363.72 Q130.668 1363.72 132.496 1361.57 Q134.348 1359.42 134.348 1355.67 Q134.348 1351.94 132.496 1349.79 Q130.668 1347.61 127.519 1347.61 Q124.371 1347.61 122.52 1349.79 Q120.691 1351.94 120.691 1355.67 Q120.691 1359.42 122.52 1361.57 Q124.371 1363.72 127.519 1363.72 Z" fill="#000000" fill-rule="evenodd" fill-opacity="1" /><path clip-path="url(#clip290)" d="M 0 0 M145.043 1378.38 L145.043 1374.12 Q146.802 1374.95 148.607 1375.39 Q150.413 1375.83 152.149 1375.83 Q156.779 1375.83 159.209 1372.73 Q161.663 1369.6 162.01 1363.26 Q160.667 1365.25 158.607 1366.32 Q156.547 1367.38 154.047 1367.38 Q148.862 1367.38 145.83 1364.26 Q142.82 1361.11 142.82 1355.67 Q142.82 1350.34 145.968 1347.13 Q149.117 1343.91 154.348 1343.91 Q160.343 1343.91 163.492 1348.52 Q166.663 1353.1 166.663 1361.85 Q166.663 1370.02 162.774 1374.9 Q158.908 1379.76 152.357 1379.76 Q150.598 1379.76 148.793 1379.42 Q146.987 1379.07 145.043 1378.38 M154.348 1363.72 Q157.496 1363.72 159.325 1361.57 Q161.177 1359.42 161.177 1355.67 Q161.177 1351.94 159.325 1349.79 Q157.496 1347.61 154.348 1347.61 Q151.2 1347.61 149.348 1349.79 Q147.519 1351.94 147.519 1355.67 Q147.519 1359.42 149.348 1361.57 Q151.2 1363.72 154.348 1363.72 Z" fill="#000000" fill-rule="evenodd" fill-opacity="1" /><path clip-path="url(#clip290)" d="M 0 0 M181.732 1362.68 Q178.399 1362.68 176.478 1364.46 Q174.579 1366.25 174.579 1369.37 Q174.579 1372.5 176.478 1374.28 Q178.399 1376.06 181.732 1376.06 Q185.065 1376.06 186.987 1374.28 Q188.908 1372.47 188.908 1369.37 Q188.908 1366.25 186.987 1364.46 Q185.089 1362.68 181.732 1362.68 M177.056 1360.69 Q174.047 1359.95 172.357 1357.89 Q170.691 1355.83 170.691 1352.87 Q170.691 1348.72 173.63 1346.32 Q176.593 1343.91 181.732 1343.91 Q186.894 1343.91 189.834 1346.32 Q192.774 1348.72 192.774 1352.87 Q192.774 1355.83 191.084 1357.89 Q189.417 1359.95 186.431 1360.69 Q189.811 1361.48 191.686 1363.77 Q193.584 1366.06 193.584 1369.37 Q193.584 1374.39 190.505 1377.08 Q187.45 1379.76 181.732 1379.76 Q176.015 1379.76 172.936 1377.08 Q169.88 1374.39 169.88 1369.37 Q169.88 1366.06 171.779 1363.77 Q173.677 1361.48 177.056 1360.69 M175.343 1353.31 Q175.343 1355.99 177.01 1357.5 Q178.7 1359 181.732 1359 Q184.741 1359 186.431 1357.5 Q188.144 1355.99 188.144 1353.31 Q188.144 1350.62 186.431 1349.12 Q184.741 1347.61 181.732 1347.61 Q178.7 1347.61 177.01 1349.12 Q175.343 1350.62 175.343 1353.31 Z" fill="#000000" fill-rule="evenodd" fill-opacity="1" /><path clip-path="url(#clip290)" d="M 0 0 M198.7 1344.53 L217.056 1344.53 L217.056 1348.47 L202.982 1348.47 L202.982 1356.94 Q204.001 1356.59 205.019 1356.43 Q206.038 1356.25 207.056 1356.25 Q212.843 1356.25 216.223 1359.42 Q219.602 1362.59 219.602 1368.01 Q219.602 1373.58 216.13 1376.69 Q212.658 1379.76 206.339 1379.76 Q204.163 1379.76 201.894 1379.39 Q199.649 1379.02 197.241 1378.28 L197.241 1373.58 Q199.325 1374.72 201.547 1375.27 Q203.769 1375.83 206.246 1375.83 Q210.251 1375.83 212.588 1373.72 Q214.926 1371.62 214.926 1368.01 Q214.926 1364.39 212.588 1362.29 Q210.251 1360.18 206.246 1360.18 Q204.371 1360.18 202.496 1360.6 Q200.644 1361.02 198.7 1361.89 L198.7 1344.53 Z" fill="#000000" fill-rule="evenodd" fill-opacity="1" /><path clip-path="url(#clip290)" d="M 0 0 M66.7791 1094.11 L54.9736 1112.56 L66.7791 1112.56 L66.7791 1094.11 M65.5522 1090.04 L71.4318 1090.04 L71.4318 1112.56 L76.3624 1112.56 L76.3624 1116.45 L71.4318 1116.45 L71.4318 1124.6 L66.7791 1124.6 L66.7791 1116.45 L51.1773 1116.45 L51.1773 1111.93 L65.5522 1090.04 Z" fill="#000000" fill-rule="evenodd" fill-opacity="1" /><path clip-path="url(#clip290)" d="M 0 0 M82.242 1120.66 L89.8808 1120.66 L89.8808 1094.29 L81.5707 1095.96 L81.5707 1091.7 L89.8345 1090.04 L94.5104 1090.04 L94.5104 1120.66 L102.149 1120.66 L102.149 1124.6 L82.242 1124.6 L82.242 1120.66 Z" fill="#000000" fill-rule="evenodd" fill-opacity="1" /><path clip-path="url(#clip290)" d="M 0 0 M107.219 1118.72 L112.103 1118.72 L112.103 1124.6 L107.219 1124.6 L107.219 1118.72 Z" fill="#000000" fill-rule="evenodd" fill-opacity="1" /><path clip-path="url(#clip290)" d="M 0 0 M117.311 1123.88 L117.311 1119.62 Q119.07 1120.45 120.876 1120.89 Q122.682 1121.33 124.418 1121.33 Q129.047 1121.33 131.478 1118.23 Q133.931 1115.1 134.279 1108.76 Q132.936 1110.75 130.876 1111.82 Q128.816 1112.88 126.316 1112.88 Q121.131 1112.88 118.098 1109.76 Q115.089 1106.61 115.089 1101.17 Q115.089 1095.85 118.237 1092.63 Q121.385 1089.41 126.617 1089.41 Q132.612 1089.41 135.76 1094.02 Q138.931 1098.6 138.931 1107.35 Q138.931 1115.52 135.043 1120.41 Q131.177 1125.27 124.626 1125.27 Q122.867 1125.27 121.061 1124.92 Q119.256 1124.57 117.311 1123.88 M126.617 1109.23 Q129.765 1109.23 131.594 1107.07 Q133.445 1104.92 133.445 1101.17 Q133.445 1097.44 131.594 1095.29 Q129.765 1093.11 126.617 1093.11 Q123.469 1093.11 121.617 1095.29 Q119.788 1097.44 119.788 1101.17 Q119.788 1104.92 121.617 1107.07 Q123.469 1109.23 126.617 1109.23 Z" fill="#000000" fill-rule="evenodd" fill-opacity="1" /><path clip-path="url(#clip290)" d="M 0 0 M144.14 1123.88 L144.14 1119.62 Q145.899 1120.45 147.705 1120.89 Q149.51 1121.33 151.246 1121.33 Q155.876 1121.33 158.306 1118.23 Q160.76 1115.1 161.107 1108.76 Q159.765 1110.75 157.705 1111.82 Q155.644 1112.88 153.144 1112.88 Q147.959 1112.88 144.927 1109.76 Q141.918 1106.61 141.918 1101.17 Q141.918 1095.85 145.066 1092.63 Q148.214 1089.41 153.445 1089.41 Q159.441 1089.41 162.589 1094.02 Q165.76 1098.6 165.76 1107.35 Q165.76 1115.52 161.871 1120.41 Q158.005 1125.27 151.455 1125.27 Q149.695 1125.27 147.89 1124.92 Q146.084 1124.57 144.14 1123.88 M153.445 1109.23 Q156.593 1109.23 158.422 1107.07 Q160.274 1104.92 160.274 1101.17 Q160.274 1097.44 158.422 1095.29 Q156.593 1093.11 153.445 1093.11 Q150.297 1093.11 148.445 1095.29 Q146.617 1097.44 146.617 1101.17 Q146.617 1104.92 148.445 1107.07 Q150.297 1109.23 153.445 1109.23 Z" fill="#000000" fill-rule="evenodd" fill-opacity="1" /><path clip-path="url(#clip290)" d="M 0 0 M170.968 1123.88 L170.968 1119.62 Q172.728 1120.45 174.533 1120.89 Q176.339 1121.33 178.075 1121.33 Q182.704 1121.33 185.135 1118.23 Q187.589 1115.1 187.936 1108.76 Q186.593 1110.75 184.533 1111.82 Q182.473 1112.88 179.973 1112.88 Q174.788 1112.88 171.755 1109.76 Q168.746 1106.61 168.746 1101.17 Q168.746 1095.85 171.894 1092.63 Q175.042 1089.41 180.274 1089.41 Q186.269 1089.41 189.417 1094.02 Q192.589 1098.6 192.589 1107.35 Q192.589 1115.52 188.7 1120.41 Q184.834 1125.27 178.283 1125.27 Q176.524 1125.27 174.718 1124.92 Q172.913 1124.57 170.968 1123.88 M180.274 1109.23 Q183.422 1109.23 185.251 1107.07 Q187.103 1104.92 187.103 1101.17 Q187.103 1097.44 185.251 1095.29 Q183.422 1093.11 180.274 1093.11 Q177.126 1093.11 175.274 1095.29 Q173.445 1097.44 173.445 1101.17 Q173.445 1104.92 175.274 1107.07 Q177.126 1109.23 180.274 1109.23 Z" fill="#000000" fill-rule="evenodd" fill-opacity="1" /><path clip-path="url(#clip290)" d="M 0 0 M207.658 1093.11 Q204.047 1093.11 202.218 1096.68 Q200.413 1100.22 200.413 1107.35 Q200.413 1114.46 202.218 1118.02 Q204.047 1121.56 207.658 1121.56 Q211.292 1121.56 213.098 1118.02 Q214.926 1114.46 214.926 1107.35 Q214.926 1100.22 213.098 1096.68 Q211.292 1093.11 207.658 1093.11 M207.658 1089.41 Q213.468 1089.41 216.524 1094.02 Q219.602 1098.6 219.602 1107.35 Q219.602 1116.08 216.524 1120.68 Q213.468 1125.27 207.658 1125.27 Q201.848 1125.27 198.769 1120.68 Q195.714 1116.08 195.714 1107.35 Q195.714 1098.6 198.769 1094.02 Q201.848 1089.41 207.658 1089.41 Z" fill="#000000" fill-rule="evenodd" fill-opacity="1" /><path clip-path="url(#clip290)" d="M 0 0 M67.7744 839.611 L55.969 858.06 L67.7744 858.06 L67.7744 839.611 M66.5476 835.537 L72.4272 835.537 L72.4272 858.06 L77.3577 858.06 L77.3577 861.949 L72.4272 861.949 L72.4272 870.097 L67.7744 870.097 L67.7744 861.949 L52.1727 861.949 L52.1727 857.435 L66.5476 835.537 Z" fill="#000000" fill-rule="evenodd" fill-opacity="1" /><path clip-path="url(#clip290)" d="M 0 0 M83.2373 866.162 L90.8762 866.162 L90.8762 839.796 L82.566 841.463 L82.566 837.204 L90.8299 835.537 L95.5058 835.537 L95.5058 866.162 L103.145 866.162 L103.145 870.097 L83.2373 870.097 L83.2373 866.162 Z" fill="#000000" fill-rule="evenodd" fill-opacity="1" /><path clip-path="url(#clip290)" d="M 0 0 M108.214 864.217 L113.098 864.217 L113.098 870.097 L108.214 870.097 L108.214 864.217 Z" fill="#000000" fill-rule="evenodd" fill-opacity="1" /><path clip-path="url(#clip290)" d="M 0 0 M118.307 869.379 L118.307 865.12 Q120.066 865.953 121.871 866.393 Q123.677 866.833 125.413 866.833 Q130.043 866.833 132.473 863.731 Q134.927 860.606 135.274 854.264 Q133.931 856.254 131.871 857.319 Q129.811 858.384 127.311 858.384 Q122.126 858.384 119.094 855.259 Q116.084 852.111 116.084 846.671 Q116.084 841.347 119.233 838.13 Q122.381 834.912 127.612 834.912 Q133.607 834.912 136.756 839.518 Q139.927 844.102 139.927 852.852 Q139.927 861.023 136.038 865.907 Q132.172 870.768 125.621 870.768 Q123.862 870.768 122.057 870.421 Q120.251 870.074 118.307 869.379 M127.612 854.727 Q130.76 854.727 132.589 852.574 Q134.441 850.421 134.441 846.671 Q134.441 842.944 132.589 840.792 Q130.76 838.616 127.612 838.616 Q124.464 838.616 122.612 840.792 Q120.783 842.944 120.783 846.671 Q120.783 850.421 122.612 852.574 Q124.464 854.727 127.612 854.727 Z" fill="#000000" fill-rule="evenodd" fill-opacity="1" /><path clip-path="url(#clip290)" d="M 0 0 M145.135 869.379 L145.135 865.12 Q146.894 865.953 148.7 866.393 Q150.505 866.833 152.242 866.833 Q156.871 866.833 159.302 863.731 Q161.755 860.606 162.103 854.264 Q160.76 856.254 158.7 857.319 Q156.64 858.384 154.14 858.384 Q148.955 858.384 145.922 855.259 Q142.913 852.111 142.913 846.671 Q142.913 841.347 146.061 838.13 Q149.209 834.912 154.441 834.912 Q160.436 834.912 163.584 839.518 Q166.755 844.102 166.755 852.852 Q166.755 861.023 162.867 865.907 Q159.001 870.768 152.45 870.768 Q150.691 870.768 148.885 870.421 Q147.08 870.074 145.135 869.379 M154.441 854.727 Q157.589 854.727 159.417 852.574 Q161.269 850.421 161.269 846.671 Q161.269 842.944 159.417 840.792 Q157.589 838.616 154.441 838.616 Q151.293 838.616 149.441 840.792 Q147.612 842.944 147.612 846.671 Q147.612 850.421 149.441 852.574 Q151.293 854.727 154.441 854.727 Z" fill="#000000" fill-rule="evenodd" fill-opacity="1" /><path clip-path="url(#clip290)" d="M 0 0 M171.964 869.379 L171.964 865.12 Q173.723 865.953 175.528 866.393 Q177.334 866.833 179.07 866.833 Q183.7 866.833 186.13 863.731 Q188.584 860.606 188.931 854.264 Q187.589 856.254 185.528 857.319 Q183.468 858.384 180.968 858.384 Q175.783 858.384 172.751 855.259 Q169.741 852.111 169.741 846.671 Q169.741 841.347 172.89 838.13 Q176.038 834.912 181.269 834.912 Q187.265 834.912 190.413 839.518 Q193.584 844.102 193.584 852.852 Q193.584 861.023 189.695 865.907 Q185.829 870.768 179.278 870.768 Q177.519 870.768 175.714 870.421 Q173.908 870.074 171.964 869.379 M181.269 854.727 Q184.417 854.727 186.246 852.574 Q188.098 850.421 188.098 846.671 Q188.098 842.944 186.246 840.792 Q184.417 838.616 181.269 838.616 Q178.121 838.616 176.269 840.792 Q174.441 842.944 174.441 846.671 Q174.441 850.421 176.269 852.574 Q178.121 854.727 181.269 854.727 Z" fill="#000000" fill-rule="evenodd" fill-opacity="1" /><path clip-path="url(#clip290)" d="M 0 0 M198.7 835.537 L217.056 835.537 L217.056 839.472 L202.982 839.472 L202.982 847.944 Q204.001 847.597 205.019 847.435 Q206.038 847.25 207.056 847.25 Q212.843 847.25 216.223 850.421 Q219.602 853.592 219.602 859.009 Q219.602 864.588 216.13 867.69 Q212.658 870.768 206.339 870.768 Q204.163 870.768 201.894 870.398 Q199.649 870.027 197.241 869.287 L197.241 864.588 Q199.325 865.722 201.547 866.278 Q203.769 866.833 206.246 866.833 Q210.251 866.833 212.588 864.727 Q214.926 862.62 214.926 859.009 Q214.926 855.398 212.588 853.291 Q210.251 851.185 206.246 851.185 Q204.371 851.185 202.496 851.602 Q200.644 852.018 198.7 852.898 L198.7 835.537 Z" fill="#000000" fill-rule="evenodd" fill-opacity="1" /><path clip-path="url(#clip290)" d="M 0 0 M66.5939 585.113 L54.7884 603.562 L66.5939 603.562 L66.5939 585.113 M65.367 581.039 L71.2466 581.039 L71.2466 603.562 L76.1772 603.562 L76.1772 607.45 L71.2466 607.45 L71.2466 615.599 L66.5939 615.599 L66.5939 607.45 L50.9921 607.45 L50.9921 602.937 L65.367 581.039 Z" fill="#000000" fill-rule="evenodd" fill-opacity="1" /><path clip-path="url(#clip290)" d="M 0 0 M85.2743 611.663 L101.594 611.663 L101.594 615.599 L79.6494 615.599 L79.6494 611.663 Q82.3114 608.909 86.8947 604.279 Q91.5012 599.626 92.6817 598.284 Q94.9271 595.761 95.8067 594.025 Q96.7095 592.265 96.7095 590.576 Q96.7095 587.821 94.765 586.085 Q92.8438 584.349 89.7419 584.349 Q87.5429 584.349 85.0892 585.113 Q82.6586 585.876 79.8809 587.427 L79.8809 582.705 Q82.7049 581.571 85.1586 580.992 Q87.6123 580.414 89.6493 580.414 Q95.0197 580.414 98.2141 583.099 Q101.409 585.784 101.409 590.275 Q101.409 592.404 100.598 594.326 Q99.8113 596.224 97.7048 598.816 Q97.1261 599.488 94.0243 602.705 Q90.9225 605.9 85.2743 611.663 Z" fill="#000000" fill-rule="evenodd" fill-opacity="1" /><path clip-path="url(#clip290)" d="M 0 0 M106.663 609.719 L111.547 609.719 L111.547 615.599 L106.663 615.599 L106.663 609.719 Z" fill="#000000" fill-rule="evenodd" fill-opacity="1" /><path clip-path="url(#clip290)" d="M 0 0 M126.617 584.117 Q123.006 584.117 121.177 587.682 Q119.371 591.224 119.371 598.353 Q119.371 605.46 121.177 609.025 Q123.006 612.566 126.617 612.566 Q130.251 612.566 132.057 609.025 Q133.885 605.46 133.885 598.353 Q133.885 591.224 132.057 587.682 Q130.251 584.117 126.617 584.117 M126.617 580.414 Q132.427 580.414 135.482 585.02 Q138.561 589.603 138.561 598.353 Q138.561 607.08 135.482 611.687 Q132.427 616.27 126.617 616.27 Q120.807 616.27 117.728 611.687 Q114.672 607.08 114.672 598.353 Q114.672 589.603 117.728 585.02 Q120.807 580.414 126.617 580.414 Z" fill="#000000" fill-rule="evenodd" fill-opacity="1" /><path clip-path="url(#clip290)" d="M 0 0 M153.63 584.117 Q150.019 584.117 148.191 587.682 Q146.385 591.224 146.385 598.353 Q146.385 605.46 148.191 609.025 Q150.019 612.566 153.63 612.566 Q157.265 612.566 159.07 609.025 Q160.899 605.46 160.899 598.353 Q160.899 591.224 159.07 587.682 Q157.265 584.117 153.63 584.117 M153.63 580.414 Q159.441 580.414 162.496 585.02 Q165.575 589.603 165.575 598.353 Q165.575 607.08 162.496 611.687 Q159.441 616.27 153.63 616.27 Q147.82 616.27 144.742 611.687 Q141.686 607.08 141.686 598.353 Q141.686 589.603 144.742 585.02 Q147.82 580.414 153.63 580.414 Z" fill="#000000" fill-rule="evenodd" fill-opacity="1" /><path clip-path="url(#clip290)" d="M 0 0 M180.644 584.117 Q177.033 584.117 175.204 587.682 Q173.399 591.224 173.399 598.353 Q173.399 605.46 175.204 609.025 Q177.033 612.566 180.644 612.566 Q184.278 612.566 186.084 609.025 Q187.913 605.46 187.913 598.353 Q187.913 591.224 186.084 587.682 Q184.278 584.117 180.644 584.117 M180.644 580.414 Q186.454 580.414 189.51 585.02 Q192.589 589.603 192.589 598.353 Q192.589 607.08 189.51 611.687 Q186.454 616.27 180.644 616.27 Q174.834 616.27 171.755 611.687 Q168.7 607.08 168.7 598.353 Q168.7 589.603 171.755 585.02 Q174.834 580.414 180.644 580.414 Z" fill="#000000" fill-rule="evenodd" fill-opacity="1" /><path clip-path="url(#clip290)" d="M 0 0 M207.658 584.117 Q204.047 584.117 202.218 587.682 Q200.413 591.224 200.413 598.353 Q200.413 605.46 202.218 609.025 Q204.047 612.566 207.658 612.566 Q211.292 612.566 213.098 609.025 Q214.926 605.46 214.926 598.353 Q214.926 591.224 213.098 587.682 Q211.292 584.117 207.658 584.117 M207.658 580.414 Q213.468 580.414 216.524 585.02 Q219.602 589.603 219.602 598.353 Q219.602 607.08 216.524 611.687 Q213.468 616.27 207.658 616.27 Q201.848 616.27 198.769 611.687 Q195.714 607.08 195.714 598.353 Q195.714 589.603 198.769 585.02 Q201.848 580.414 207.658 580.414 Z" fill="#000000" fill-rule="evenodd" fill-opacity="1" /><path clip-path="url(#clip290)" d="M 0 0 M67.5893 330.614 L55.7838 349.063 L67.5893 349.063 L67.5893 330.614 M66.3624 326.54 L72.242 326.54 L72.242 349.063 L77.1725 349.063 L77.1725 352.952 L72.242 352.952 L72.242 361.1 L67.5893 361.1 L67.5893 352.952 L51.9875 352.952 L51.9875 348.438 L66.3624 326.54 Z" fill="#000000" fill-rule="evenodd" fill-opacity="1" /><path clip-path="url(#clip290)" d="M 0 0 M86.2697 357.165 L102.589 357.165 L102.589 361.1 L80.6447 361.1 L80.6447 357.165 Q83.3068 354.41 87.8901 349.781 Q92.4965 345.128 93.6771 343.785 Q95.9224 341.262 96.8021 339.526 Q97.7048 337.767 97.7048 336.077 Q97.7048 333.323 95.7604 331.586 Q93.8391 329.85 90.7373 329.85 Q88.5382 329.85 86.0845 330.614 Q83.654 331.378 80.8762 332.929 L80.8762 328.207 Q83.7003 327.073 86.154 326.494 Q88.6077 325.915 90.6447 325.915 Q96.015 325.915 99.2095 328.6 Q102.404 331.286 102.404 335.776 Q102.404 337.906 101.594 339.827 Q100.807 341.725 98.7002 344.318 Q98.1215 344.989 95.0197 348.207 Q91.9178 351.401 86.2697 357.165 Z" fill="#000000" fill-rule="evenodd" fill-opacity="1" /><path clip-path="url(#clip290)" d="M 0 0 M107.658 355.221 L112.543 355.221 L112.543 361.1 L107.658 361.1 L107.658 355.221 Z" fill="#000000" fill-rule="evenodd" fill-opacity="1" /><path clip-path="url(#clip290)" d="M 0 0 M127.612 329.619 Q124.001 329.619 122.172 333.184 Q120.367 336.725 120.367 343.855 Q120.367 350.961 122.172 354.526 Q124.001 358.068 127.612 358.068 Q131.246 358.068 133.052 354.526 Q134.881 350.961 134.881 343.855 Q134.881 336.725 133.052 333.184 Q131.246 329.619 127.612 329.619 M127.612 325.915 Q133.422 325.915 136.478 330.522 Q139.556 335.105 139.556 343.855 Q139.556 352.582 136.478 357.188 Q133.422 361.771 127.612 361.771 Q121.802 361.771 118.723 357.188 Q115.668 352.582 115.668 343.855 Q115.668 335.105 118.723 330.522 Q121.802 325.915 127.612 325.915 Z" fill="#000000" fill-rule="evenodd" fill-opacity="1" /><path clip-path="url(#clip290)" d="M 0 0 M154.626 329.619 Q151.015 329.619 149.186 333.184 Q147.38 336.725 147.38 343.855 Q147.38 350.961 149.186 354.526 Q151.015 358.068 154.626 358.068 Q158.26 358.068 160.066 354.526 Q161.894 350.961 161.894 343.855 Q161.894 336.725 160.066 333.184 Q158.26 329.619 154.626 329.619 M154.626 325.915 Q160.436 325.915 163.492 330.522 Q166.57 335.105 166.57 343.855 Q166.57 352.582 163.492 357.188 Q160.436 361.771 154.626 361.771 Q148.816 361.771 145.737 357.188 Q142.681 352.582 142.681 343.855 Q142.681 335.105 145.737 330.522 Q148.816 325.915 154.626 325.915 Z" fill="#000000" fill-rule="evenodd" fill-opacity="1" /><path clip-path="url(#clip290)" d="M 0 0 M181.64 329.619 Q178.028 329.619 176.2 333.184 Q174.394 336.725 174.394 343.855 Q174.394 350.961 176.2 354.526 Q178.028 358.068 181.64 358.068 Q185.274 358.068 187.079 354.526 Q188.908 350.961 188.908 343.855 Q188.908 336.725 187.079 333.184 Q185.274 329.619 181.64 329.619 M181.64 325.915 Q187.45 325.915 190.505 330.522 Q193.584 335.105 193.584 343.855 Q193.584 352.582 190.505 357.188 Q187.45 361.771 181.64 361.771 Q175.829 361.771 172.751 357.188 Q169.695 352.582 169.695 343.855 Q169.695 335.105 172.751 330.522 Q175.829 325.915 181.64 325.915 Z" fill="#000000" fill-rule="evenodd" fill-opacity="1" /><path clip-path="url(#clip290)" d="M 0 0 M198.7 326.54 L217.056 326.54 L217.056 330.475 L202.982 330.475 L202.982 338.948 Q204.001 338.6 205.019 338.438 Q206.038 338.253 207.056 338.253 Q212.843 338.253 216.223 341.424 Q219.602 344.596 219.602 350.012 Q219.602 355.591 216.13 358.693 Q212.658 361.771 206.339 361.771 Q204.163 361.771 201.894 361.401 Q199.649 361.031 197.241 360.29 L197.241 355.591 Q199.325 356.725 201.547 357.281 Q203.769 357.836 206.246 357.836 Q210.251 357.836 212.588 355.73 Q214.926 353.623 214.926 350.012 Q214.926 346.401 212.588 344.295 Q210.251 342.188 206.246 342.188 Q204.371 342.188 202.496 342.605 Q200.644 343.022 198.7 343.901 L198.7 326.54 Z" fill="#000000" fill-rule="evenodd" fill-opacity="1" /><path clip-path="url(#clip290)" d="M 0 0 M67.8207 76.1158 L56.0152 94.5648 L67.8207 94.5648 L67.8207 76.1158 M66.5939 72.0418 L72.4735 72.0418 L72.4735 94.5648 L77.404 94.5648 L77.404 98.4537 L72.4735 98.4537 L72.4735 106.602 L67.8207 106.602 L67.8207 98.4537 L52.219 98.4537 L52.219 93.9398 L66.5939 72.0418 Z" fill="#000000" fill-rule="evenodd" fill-opacity="1" /><path clip-path="url(#clip290)" d="M 0 0 M86.5012 102.667 L102.821 102.667 L102.821 106.602 L80.8762 106.602 L80.8762 102.667 Q83.5382 99.912 88.1216 95.2824 Q92.728 90.6297 93.9086 89.2871 Q96.1539 86.7639 97.0335 85.0278 Q97.9363 83.2686 97.9363 81.5788 Q97.9363 78.8242 95.9919 77.0881 Q94.0706 75.352 90.9688 75.352 Q88.7697 75.352 86.316 76.1158 Q83.8855 76.8797 81.1077 78.4306 L81.1077 73.7084 Q83.9318 72.5742 86.3855 71.9955 Q88.8391 71.4168 90.8762 71.4168 Q96.2465 71.4168 99.4409 74.102 Q102.635 76.7871 102.635 81.2779 Q102.635 83.4075 101.825 85.3288 Q101.038 87.2269 98.9317 89.8195 Q98.353 90.4908 95.2511 93.7083 Q92.1493 96.9028 86.5012 102.667 Z" fill="#000000" fill-rule="evenodd" fill-opacity="1" /><path clip-path="url(#clip290)" d="M 0 0 M107.89 100.722 L112.774 100.722 L112.774 106.602 L107.89 106.602 L107.89 100.722 Z" fill="#000000" fill-rule="evenodd" fill-opacity="1" /><path clip-path="url(#clip290)" d="M 0 0 M127.844 75.1205 Q124.232 75.1205 122.404 78.6853 Q120.598 82.2269 120.598 89.3565 Q120.598 96.463 122.404 100.028 Q124.232 103.569 127.844 103.569 Q131.478 103.569 133.283 100.028 Q135.112 96.463 135.112 89.3565 Q135.112 82.2269 133.283 78.6853 Q131.478 75.1205 127.844 75.1205 M127.844 71.4168 Q133.654 71.4168 136.709 76.0232 Q139.788 80.6066 139.788 89.3565 Q139.788 98.0833 136.709 102.69 Q133.654 107.273 127.844 107.273 Q122.033 107.273 118.955 102.69 Q115.899 98.0833 115.899 89.3565 Q115.899 80.6066 118.955 76.0232 Q122.033 71.4168 127.844 71.4168 Z" fill="#000000" fill-rule="evenodd" fill-opacity="1" /><path clip-path="url(#clip290)" d="M 0 0 M154.857 75.1205 Q151.246 75.1205 149.418 78.6853 Q147.612 82.2269 147.612 89.3565 Q147.612 96.463 149.418 100.028 Q151.246 103.569 154.857 103.569 Q158.492 103.569 160.297 100.028 Q162.126 96.463 162.126 89.3565 Q162.126 82.2269 160.297 78.6853 Q158.492 75.1205 154.857 75.1205 M154.857 71.4168 Q160.667 71.4168 163.723 76.0232 Q166.802 80.6066 166.802 89.3565 Q166.802 98.0833 163.723 102.69 Q160.667 107.273 154.857 107.273 Q149.047 107.273 145.968 102.69 Q142.913 98.0833 142.913 89.3565 Q142.913 80.6066 145.968 76.0232 Q149.047 71.4168 154.857 71.4168 Z" fill="#000000" fill-rule="evenodd" fill-opacity="1" /><path clip-path="url(#clip290)" d="M 0 0 M172.681 102.667 L180.32 102.667 L180.32 76.301 L172.01 77.9677 L172.01 73.7084 L180.274 72.0418 L184.95 72.0418 L184.95 102.667 L192.589 102.667 L192.589 106.602 L172.681 106.602 L172.681 102.667 Z" fill="#000000" fill-rule="evenodd" fill-opacity="1" /><path clip-path="url(#clip290)" d="M 0 0 M207.658 75.1205 Q204.047 75.1205 202.218 78.6853 Q200.413 82.2269 200.413 89.3565 Q200.413 96.463 202.218 100.028 Q204.047 103.569 207.658 103.569 Q211.292 103.569 213.098 100.028 Q214.926 96.463 214.926 89.3565 Q214.926 82.2269 213.098 78.6853 Q211.292 75.1205 207.658 75.1205 M207.658 71.4168 Q213.468 71.4168 216.524 76.0232 Q219.602 80.6066 219.602 89.3565 Q219.602 98.0833 216.524 102.69 Q213.468 107.273 207.658 107.273 Q201.848 107.273 198.769 102.69 Q195.714 98.0833 195.714 89.3565 Q195.714 80.6066 198.769 76.0232 Q201.848 71.4168 207.658 71.4168 Z" fill="#000000" fill-rule="evenodd" fill-opacity="1" /><polyline clip-path="url(#clip292)" style="stroke:#009af9; stroke-width:4; stroke-opacity:1; fill:none" points="
  -4148.42,598.319 -4095.99,598.319 -4043.56,598.319 -3991.13,598.319 -3938.7,598.319 -3886.28,598.319 -3833.85,598.319 -3781.42,598.319 -3728.99,598.319 -3676.56,598.319 
  -3624.13,598.319 -3571.7,598.319 -3519.27,598.319 -3466.85,598.319 -3414.42,598.319 -3361.99,598.319 -3309.56,598.319 -3257.13,598.319 -3204.7,598.319 -3152.27,598.319 
  -3099.84,598.319 -3047.41,598.319 -2994.99,598.319 -2942.56,598.319 -2890.13,598.319 -2837.7,598.319 -2785.27,598.319 -2732.84,598.319 -2680.41,598.319 -2627.98,598.319 
  -2575.55,598.319 -2523.13,598.319 -2470.7,598.319 -2418.27,598.319 -2365.84,598.319 -2313.41,598.319 -2260.98,598.319 -2208.55,598.319 -2156.12,598.319 -2103.7,598.319 
  -2051.27,598.319 -1998.84,598.319 -1946.41,598.319 -1893.98,598.319 -1841.55,598.319 -1789.12,598.319 -1736.69,598.319 -1684.26,598.319 -1631.84,598.319 -1579.41,598.319 
  -1526.98,598.319 -1474.55,598.319 -1422.12,598.319 -1369.69,598.319 -1317.26,598.319 -1264.83,598.319 -1212.41,598.319 -1159.98,598.319 -1107.55,598.319 -1055.12,598.319 
  -1002.69,598.319 -950.261,598.319 -897.832,598.319 -845.403,598.319 -792.974,598.319 -740.546,598.319 -688.117,598.319 -635.688,598.319 -583.259,598.319 -530.83,598.319 
  -478.401,598.319 -425.973,598.319 -373.544,598.319 -321.115,598.319 -268.686,598.319 -216.257,598.319 -163.828,598.319 -111.4,598.319 -58.9707,598.319 -6.54186,598.319 
  45.887,598.319 98.3158,598.319 150.745,598.319 203.173,598.319 255.602,598.319 308.031,598.319 360.46,598.319 412.889,598.319 465.318,598.319 517.747,598.319 
  570.175,598.319 622.604,598.319 675.033,598.319 727.462,598.319 779.891,598.319 832.32,598.319 884.748,598.319 937.177,598.319 989.606,598.319 1042.03,598.319 
  1094.46,598.319 1146.89,598.319 1199.32,598.319 1251.75,598.319 1304.18,598.319 1356.61,598.319 1409.04,598.319 1461.47,598.319 1513.89,598.319 1566.32,598.319 
  1618.75,598.319 1671.18,598.319 1723.61,598.319 1776.04,598.319 1828.47,598.319 1880.9,598.319 1933.33,598.319 1985.75,598.319 2038.18,598.319 2090.61,598.319 
  2143.04,598.319 2195.47,598.319 2247.9,598.319 2300.33,598.319 2352.76,598.319 2405.18,598.319 2457.61,598.319 2510.04,598.319 2562.47,598.319 2614.9,598.319 
  2667.33,598.319 2719.76,598.319 2772.19,598.319 2824.62,598.319 2877.04,598.319 2929.47,598.319 2981.9,598.319 3034.33,598.319 3086.76,598.319 3139.19,598.319 
  3191.62,598.319 3244.05,598.319 3296.48,598.319 3348.9,598.319 3401.33,598.319 3453.76,598.319 3506.19,598.319 3558.62,598.319 3611.05,598.319 3663.48,598.319 
  3715.91,598.319 3768.33,598.319 3820.76,598.319 3873.19,598.319 3925.62,598.319 3978.05,598.319 4030.48,598.319 4082.91,598.319 4135.34,598.319 4187.77,598.319 
  4240.19,598.319 4292.62,598.319 4345.05,598.319 4397.48,598.319 4449.91,598.319 4502.34,598.319 4554.77,598.319 4607.2,598.319 4659.62,598.319 4712.05,598.319 
  4764.48,598.319 4816.91,598.319 4869.34,598.319 4921.77,598.319 4974.2,598.319 5026.63,598.319 5079.06,598.319 5131.48,598.319 5183.91,598.319 5236.34,598.319 
  5288.77,598.319 5341.2,598.319 5393.63,598.319 5446.06,598.319 5498.49,598.319 5550.92,598.319 5603.34,598.319 5655.77,598.319 5708.2,598.319 5760.63,598.319 
  5813.06,598.319 5865.49,598.319 5917.92,598.319 5970.35,598.319 6022.77,598.319 6075.2,598.319 6127.63,598.319 6180.06,598.319 6232.49,598.319 6284.92,598.319 
  6337.35,598.319 6389.78,598.319 6442.21,598.319 6494.63,598.319 6547.06,598.319 6599.49,598.319 6651.92,598.319 6704.35,598.319 6756.78,598.319 6809.21,598.319 
  6861.64,598.319 6914.06,598.319 6966.49,598.319 7018.92,598.319 7071.35,598.319 7123.78,598.319 7176.21,598.319 7228.64,598.319 7281.07,598.319 7333.5,598.319 
  7385.92,598.319 7438.35,598.319 7490.78,598.319 7543.21,598.319 7595.64,598.319 7648.07,598.319 7700.5,598.319 7752.93,598.319 7805.36,598.319 7857.78,598.319 
  7910.21,598.319 7962.64,598.319 8015.07,598.319 8067.5,598.319 8119.93,598.319 8172.36,598.319 8224.79,598.319 8277.21,598.319 8329.64,598.319 8382.07,598.319 
  8434.5,598.319 8486.93,598.319 8539.36,598.319 8591.79,598.319 8644.22,598.319 8696.65,598.319 8749.07,598.319 8801.5,598.319 8853.93,598.319 8906.36,598.319 
  8958.79,598.319 9011.22,598.319 9063.65,598.319 9116.08,598.319 9168.51,598.319 9220.93,598.319 9273.36,598.319 9325.79,598.319 9378.22,598.319 9430.65,598.319 
  9483.08,598.319 9535.51,598.319 9587.94,598.319 9640.36,598.319 9692.79,598.319 9745.22,598.319 9797.65,598.319 9850.08,598.319 9902.51,598.319 9954.94,598.319 
  10007.4,598.319 10059.8,598.319 10112.2,598.319 10164.7,598.319 10217.1,598.319 10269.5,598.319 10321.9,598.319 10374.4,598.319 10426.8,598.319 10479.2,598.319 
  10531.7,598.319 10584.1,598.319 10636.5,598.319 10688.9,598.319 10741.4,598.319 10793.8,598.319 10846.2,598.319 10898.7,598.319 10951.1,598.319 11003.5,598.319 
  11055.9,598.319 11108.4,598.319 11160.8,598.319 11213.2,598.319 11265.7,598.319 11318.1,598.319 11370.5,598.319 11422.9,598.319 11475.4,598.319 11527.8,598.319 
  11580.2,598.319 11632.7,598.319 11685.1,598.319 11737.5,598.319 11789.9,598.319 11842.4,598.319 11894.8,598.319 11947.2,598.319 11999.7,598.319 12052.1,598.319 
  12104.5,598.319 12156.9,598.319 12209.4,598.319 12261.8,598.319 12314.2,598.319 12366.7,598.319 12419.1,598.319 12471.5,598.319 12524,598.319 12576.4,598.319 
  12628.8,598.319 12681.2,598.319 12733.7,598.319 12786.1,598.319 12838.5,598.319 12891,598.319 12943.4,598.319 12995.8,598.319 13048.2,598.319 13100.7,598.319 
  13153.1,598.319 13205.5,598.319 13258,598.319 13310.4,598.319 13362.8,598.319 13415.2,598.319 13467.7,598.319 13520.1,598.319 13572.5,598.319 13625,598.319 
  13677.4,598.319 13729.8,598.319 13782.2,598.319 13834.7,598.319 13887.1,598.319 13939.5,598.319 13992,598.319 14044.4,598.319 14096.8,598.319 14149.2,598.319 
  14201.7,598.319 14254.1,598.319 14306.5,598.319 14359,598.319 14411.4,598.319 14463.8,598.319 14516.2,598.319 14568.7,598.319 14621.1,598.319 14673.5,598.319 
  14726,598.319 14778.4,598.319 14830.8,598.319 14883.2,598.319 14935.7,598.319 14988.1,598.319 15040.5,598.319 15093,598.319 15145.4,598.319 15197.8,598.319 
  15250.3,598.319 15302.7,598.319 15355.1,598.319 15407.5,598.319 15460,598.319 15512.4,598.319 15564.8,598.319 15617.3,598.319 15669.7,598.319 15722.1,598.319 
  15774.5,598.319 15827,598.319 15879.4,598.319 15931.8,598.319 15984.3,598.319 16036.7,598.319 16089.1,598.319 16141.5,598.319 16194,598.319 16246.4,598.319 
  16298.8,598.319 16351.3,598.319 16403.7,598.319 16456.1,598.319 16508.5,598.319 16561,598.319 16613.4,598.319 16665.8,598.319 16718.3,598.319 16770.7,598.319 
  16823.1,598.319 16875.5,598.319 16928,598.319 16980.4,598.319 17032.8,598.319 17085.3,598.319 17137.7,598.319 17190.1,598.319 17242.5,598.319 17295,598.319 
  17347.4,598.319 17399.8,598.319 17452.3,598.319 17504.7,598.319 17557.1,598.319 17609.5,598.319 17662,598.319 17714.4,598.319 17766.8,598.319 17819.3,598.319 
  17871.7,598.319 17924.1,598.319 17976.6,598.319 18029,598.319 18081.4,598.319 18133.8,598.319 18186.3,598.319 18238.7,598.319 18291.1,598.319 18343.6,598.319 
  18396,598.319 18448.4,598.319 18500.8,598.319 18553.3,598.319 18605.7,598.319 18658.1,598.319 18710.6,598.319 18763,598.319 18815.4,598.319 18867.8,598.319 
  18920.3,598.319 18972.7,598.319 19025.1,598.319 19077.6,598.319 19130,598.319 19182.4,598.319 19234.8,598.319 19287.3,598.319 19339.7,598.319 19392.1,598.319 
  19444.6,598.319 19497,598.319 19549.4,598.319 19601.8,598.319 19654.3,598.319 19706.7,598.319 19759.1,598.319 19811.6,598.319 19864,598.319 19916.4,598.319 
  19968.8,598.319 20021.3,598.319 20073.7,598.319 20126.1,598.319 20178.6,598.319 20231,598.319 20283.4,598.319 20335.8,598.319 20388.3,598.319 20440.7,598.319 
  20493.1,598.319 20545.6,598.319 20598,598.319 20650.4,598.319 20702.8,598.319 20755.3,598.319 20807.7,598.319 20860.1,598.319 20912.6,598.319 20965,598.319 
  21017.4,598.319 21069.9,598.319 21122.3,598.319 21174.7,598.319 21227.1,598.319 21279.6,598.319 21332,598.319 21384.4,598.319 21436.9,598.319 21489.3,598.319 
  21541.7,598.319 21594.1,598.319 21646.6,598.319 21699,598.319 21751.4,598.319 21803.9,598.319 21856.3,598.319 21908.7,598.319 21961.1,598.319 22013.6,598.319 
  
  "/>
<circle clip-path="url(#clip292)" cx="517.747" cy="636.963" r="14" fill="#e26f46" fill-rule="evenodd" fill-opacity="1" stroke="#000000" stroke-opacity="1" stroke-width="3.2"/>
<circle clip-path="url(#clip292)" cx="517.747" cy="554.419" r="14" fill="#e26f46" fill-rule="evenodd" fill-opacity="1" stroke="#000000" stroke-opacity="1" stroke-width="3.2"/>
<circle clip-path="url(#clip292)" cx="517.747" cy="643.43" r="14" fill="#e26f46" fill-rule="evenodd" fill-opacity="1" stroke="#000000" stroke-opacity="1" stroke-width="3.2"/>
<circle clip-path="url(#clip292)" cx="517.747" cy="704.894" r="14" fill="#e26f46" fill-rule="evenodd" fill-opacity="1" stroke="#000000" stroke-opacity="1" stroke-width="3.2"/>
<circle clip-path="url(#clip292)" cx="517.747" cy="479.705" r="14" fill="#e26f46" fill-rule="evenodd" fill-opacity="1" stroke="#000000" stroke-opacity="1" stroke-width="3.2"/>
<circle clip-path="url(#clip292)" cx="517.747" cy="298.721" r="14" fill="#e26f46" fill-rule="evenodd" fill-opacity="1" stroke="#000000" stroke-opacity="1" stroke-width="3.2"/>
<circle clip-path="url(#clip292)" cx="517.747" cy="279.033" r="14" fill="#e26f46" fill-rule="evenodd" fill-opacity="1" stroke="#000000" stroke-opacity="1" stroke-width="3.2"/>
<circle clip-path="url(#clip292)" cx="517.747" cy="973.068" r="14" fill="#e26f46" fill-rule="evenodd" fill-opacity="1" stroke="#000000" stroke-opacity="1" stroke-width="3.2"/>
<circle clip-path="url(#clip292)" cx="517.747" cy="175.178" r="14" fill="#e26f46" fill-rule="evenodd" fill-opacity="1" stroke="#000000" stroke-opacity="1" stroke-width="3.2"/>
<circle clip-path="url(#clip292)" cx="517.747" cy="138.512" r="14" fill="#e26f46" fill-rule="evenodd" fill-opacity="1" stroke="#000000" stroke-opacity="1" stroke-width="3.2"/>
<circle clip-path="url(#clip292)" cx="779.891" cy="596.868" r="14" fill="#3da44d" fill-rule="evenodd" fill-opacity="1" stroke="#000000" stroke-opacity="1" stroke-width="3.2"/>
<circle clip-path="url(#clip292)" cx="779.891" cy="530.536" r="14" fill="#3da44d" fill-rule="evenodd" fill-opacity="1" stroke="#000000" stroke-opacity="1" stroke-width="3.2"/>
<circle clip-path="url(#clip292)" cx="779.891" cy="500.516" r="14" fill="#3da44d" fill-rule="evenodd" fill-opacity="1" stroke="#000000" stroke-opacity="1" stroke-width="3.2"/>
<circle clip-path="url(#clip292)" cx="779.891" cy="861.91" r="14" fill="#3da44d" fill-rule="evenodd" fill-opacity="1" stroke="#000000" stroke-opacity="1" stroke-width="3.2"/>
<circle clip-path="url(#clip292)" cx="779.891" cy="329.372" r="14" fill="#3da44d" fill-rule="evenodd" fill-opacity="1" stroke="#000000" stroke-opacity="1" stroke-width="3.2"/>
<circle clip-path="url(#clip292)" cx="779.891" cy="326.515" r="14" fill="#3da44d" fill-rule="evenodd" fill-opacity="1" stroke="#000000" stroke-opacity="1" stroke-width="3.2"/>
<circle clip-path="url(#clip292)" cx="779.891" cy="1033.42" r="14" fill="#3da44d" fill-rule="evenodd" fill-opacity="1" stroke="#000000" stroke-opacity="1" stroke-width="3.2"/>
<circle clip-path="url(#clip292)" cx="779.891" cy="145.118" r="14" fill="#3da44d" fill-rule="evenodd" fill-opacity="1" stroke="#000000" stroke-opacity="1" stroke-width="3.2"/>
<circle clip-path="url(#clip292)" cx="779.891" cy="1053.55" r="14" fill="#3da44d" fill-rule="evenodd" fill-opacity="1" stroke="#000000" stroke-opacity="1" stroke-width="3.2"/>
<circle clip-path="url(#clip292)" cx="779.891" cy="1103" r="14" fill="#3da44d" fill-rule="evenodd" fill-opacity="1" stroke="#000000" stroke-opacity="1" stroke-width="3.2"/>
<circle clip-path="url(#clip292)" cx="1042.03" cy="535.314" r="14" fill="#c271d2" fill-rule="evenodd" fill-opacity="1" stroke="#000000" stroke-opacity="1" stroke-width="3.2"/>
<circle clip-path="url(#clip292)" cx="1042.03" cy="478.323" r="14" fill="#c271d2" fill-rule="evenodd" fill-opacity="1" stroke="#000000" stroke-opacity="1" stroke-width="3.2"/>
<circle clip-path="url(#clip292)" cx="1042.03" cy="441.935" r="14" fill="#c271d2" fill-rule="evenodd" fill-opacity="1" stroke="#000000" stroke-opacity="1" stroke-width="3.2"/>
<circle clip-path="url(#clip292)" cx="1042.03" cy="800.517" r="14" fill="#c271d2" fill-rule="evenodd" fill-opacity="1" stroke="#000000" stroke-opacity="1" stroke-width="3.2"/>
<circle clip-path="url(#clip292)" cx="1042.03" cy="818.333" r="14" fill="#c271d2" fill-rule="evenodd" fill-opacity="1" stroke="#000000" stroke-opacity="1" stroke-width="3.2"/>
<circle clip-path="url(#clip292)" cx="1042.03" cy="895.861" r="14" fill="#c271d2" fill-rule="evenodd" fill-opacity="1" stroke="#000000" stroke-opacity="1" stroke-width="3.2"/>
<circle clip-path="url(#clip292)" cx="1042.03" cy="206.985" r="14" fill="#c271d2" fill-rule="evenodd" fill-opacity="1" stroke="#000000" stroke-opacity="1" stroke-width="3.2"/>
<circle clip-path="url(#clip292)" cx="1042.03" cy="87.9763" r="14" fill="#c271d2" fill-rule="evenodd" fill-opacity="1" stroke="#000000" stroke-opacity="1" stroke-width="3.2"/>
<circle clip-path="url(#clip292)" cx="1042.03" cy="1420.27" r="14" fill="#c271d2" fill-rule="evenodd" fill-opacity="1" stroke="#000000" stroke-opacity="1" stroke-width="3.2"/>
<circle clip-path="url(#clip292)" cx="1042.03" cy="1445.72" r="14" fill="#c271d2" fill-rule="evenodd" fill-opacity="1" stroke="#000000" stroke-opacity="1" stroke-width="3.2"/>
<circle clip-path="url(#clip292)" cx="1304.18" cy="595.514" r="14" fill="#ac8d18" fill-rule="evenodd" fill-opacity="1" stroke="#000000" stroke-opacity="1" stroke-width="3.2"/>
<circle clip-path="url(#clip292)" cx="1304.18" cy="660.446" r="14" fill="#ac8d18" fill-rule="evenodd" fill-opacity="1" stroke="#000000" stroke-opacity="1" stroke-width="3.2"/>
<circle clip-path="url(#clip292)" cx="1304.18" cy="526.962" r="14" fill="#ac8d18" fill-rule="evenodd" fill-opacity="1" stroke="#000000" stroke-opacity="1" stroke-width="3.2"/>
<circle clip-path="url(#clip292)" cx="1304.18" cy="764.2" r="14" fill="#ac8d18" fill-rule="evenodd" fill-opacity="1" stroke="#000000" stroke-opacity="1" stroke-width="3.2"/>
<circle clip-path="url(#clip292)" cx="1304.18" cy="820.715" r="14" fill="#ac8d18" fill-rule="evenodd" fill-opacity="1" stroke="#000000" stroke-opacity="1" stroke-width="3.2"/>
<circle clip-path="url(#clip292)" cx="1304.18" cy="892.357" r="14" fill="#ac8d18" fill-rule="evenodd" fill-opacity="1" stroke="#000000" stroke-opacity="1" stroke-width="3.2"/>
<circle clip-path="url(#clip292)" cx="1304.18" cy="238.102" r="14" fill="#ac8d18" fill-rule="evenodd" fill-opacity="1" stroke="#000000" stroke-opacity="1" stroke-width="3.2"/>
<circle clip-path="url(#clip292)" cx="1304.18" cy="235.582" r="14" fill="#ac8d18" fill-rule="evenodd" fill-opacity="1" stroke="#000000" stroke-opacity="1" stroke-width="3.2"/>
<circle clip-path="url(#clip292)" cx="1304.18" cy="181.893" r="14" fill="#ac8d18" fill-rule="evenodd" fill-opacity="1" stroke="#000000" stroke-opacity="1" stroke-width="3.2"/>
<circle clip-path="url(#clip292)" cx="1304.18" cy="1066.34" r="14" fill="#ac8d18" fill-rule="evenodd" fill-opacity="1" stroke="#000000" stroke-opacity="1" stroke-width="3.2"/>
<circle clip-path="url(#clip292)" cx="1566.32" cy="587.744" r="14" fill="#00a9ad" fill-rule="evenodd" fill-opacity="1" stroke="#000000" stroke-opacity="1" stroke-width="3.2"/>
<circle clip-path="url(#clip292)" cx="1566.32" cy="609.336" r="14" fill="#00a9ad" fill-rule="evenodd" fill-opacity="1" stroke="#000000" stroke-opacity="1" stroke-width="3.2"/>
<circle clip-path="url(#clip292)" cx="1566.32" cy="629.105" r="14" fill="#00a9ad" fill-rule="evenodd" fill-opacity="1" stroke="#000000" stroke-opacity="1" stroke-width="3.2"/>
<circle clip-path="url(#clip292)" cx="1566.32" cy="704.182" r="14" fill="#00a9ad" fill-rule="evenodd" fill-opacity="1" stroke="#000000" stroke-opacity="1" stroke-width="3.2"/>
<circle clip-path="url(#clip292)" cx="1566.32" cy="802.737" r="14" fill="#00a9ad" fill-rule="evenodd" fill-opacity="1" stroke="#000000" stroke-opacity="1" stroke-width="3.2"/>
<circle clip-path="url(#clip292)" cx="1566.32" cy="366.459" r="14" fill="#00a9ad" fill-rule="evenodd" fill-opacity="1" stroke="#000000" stroke-opacity="1" stroke-width="3.2"/>
<circle clip-path="url(#clip292)" cx="1566.32" cy="942.922" r="14" fill="#00a9ad" fill-rule="evenodd" fill-opacity="1" stroke="#000000" stroke-opacity="1" stroke-width="3.2"/>
<circle clip-path="url(#clip292)" cx="1566.32" cy="1026.92" r="14" fill="#00a9ad" fill-rule="evenodd" fill-opacity="1" stroke="#000000" stroke-opacity="1" stroke-width="3.2"/>
<circle clip-path="url(#clip292)" cx="1566.32" cy="1045.53" r="14" fill="#00a9ad" fill-rule="evenodd" fill-opacity="1" stroke="#000000" stroke-opacity="1" stroke-width="3.2"/>
<circle clip-path="url(#clip292)" cx="1566.32" cy="1133.48" r="14" fill="#00a9ad" fill-rule="evenodd" fill-opacity="1" stroke="#000000" stroke-opacity="1" stroke-width="3.2"/>
<path clip-path="url(#clip290)" d="
M1689.65 518.578 L2282.85 518.578 L2282.85 95.2176 L1689.65 95.2176  Z
  " fill="#ffffff" fill-rule="evenodd" fill-opacity="1"/>
<polyline clip-path="url(#clip290)" style="stroke:#000000; stroke-width:4; stroke-opacity:1; fill:none" points="
  1689.65,518.578 2282.85,518.578 2282.85,95.2176 1689.65,95.2176 1689.65,518.578 
  "/>
<polyline clip-path="url(#clip290)" style="stroke:#009af9; stroke-width:4; stroke-opacity:1; fill:none" points="
  1712.95,155.698 1852.76,155.698 
  "/>
<path clip-path="url(#clip290)" d="M 0 0 M1897.78 157.329 L1897.78 172.978 L1893.52 172.978 L1893.52 157.468 Q1893.52 153.788 1892.08 151.959 Q1890.65 150.13 1887.78 150.13 Q1884.33 150.13 1882.34 152.33 Q1880.35 154.529 1880.35 158.325 L1880.35 172.978 L1876.06 172.978 L1876.06 147.052 L1880.35 147.052 L1880.35 151.08 Q1881.87 148.742 1883.93 147.584 Q1886.02 146.427 1888.73 146.427 Q1893.19 146.427 1895.49 149.205 Q1897.78 151.959 1897.78 157.329 Z" fill="#000000" fill-rule="evenodd" fill-opacity="1" /><path clip-path="url(#clip290)" d="M 0 0 M1901.8 162.746 L1901.8 147.052 L1906.06 147.052 L1906.06 162.584 Q1906.06 166.265 1907.5 168.116 Q1908.93 169.945 1911.8 169.945 Q1915.25 169.945 1917.24 167.746 Q1919.26 165.547 1919.26 161.751 L1919.26 147.052 L1923.52 147.052 L1923.52 172.978 L1919.26 172.978 L1919.26 168.996 Q1917.71 171.357 1915.65 172.515 Q1913.61 173.649 1910.9 173.649 Q1906.43 173.649 1904.12 170.871 Q1901.8 168.093 1901.8 162.746 M1912.52 146.427 L1912.52 146.427 Z" fill="#000000" fill-rule="evenodd" fill-opacity="1" /><path clip-path="url(#clip290)" d="M 0 0 M1948.17 152.029 Q1949.77 149.158 1951.99 147.793 Q1954.21 146.427 1957.22 146.427 Q1961.27 146.427 1963.47 149.274 Q1965.67 152.098 1965.67 157.329 L1965.67 172.978 L1961.39 172.978 L1961.39 157.468 Q1961.39 153.742 1960.07 151.936 Q1958.75 150.13 1956.04 150.13 Q1952.73 150.13 1950.81 152.33 Q1948.89 154.529 1948.89 158.325 L1948.89 172.978 L1944.61 172.978 L1944.61 157.468 Q1944.61 153.718 1943.29 151.936 Q1941.97 150.13 1939.21 150.13 Q1935.95 150.13 1934.03 152.353 Q1932.11 154.552 1932.11 158.325 L1932.11 172.978 L1927.82 172.978 L1927.82 147.052 L1932.11 147.052 L1932.11 151.08 Q1933.56 148.695 1935.6 147.561 Q1937.64 146.427 1940.44 146.427 Q1943.26 146.427 1945.23 147.862 Q1947.22 149.297 1948.17 152.029 Z" fill="#000000" fill-rule="evenodd" fill-opacity="1" /><path clip-path="url(#clip290)" d="M 0 0 M1988.75 160.038 Q1988.75 155.339 1986.8 152.677 Q1984.88 149.992 1981.5 149.992 Q1978.12 149.992 1976.18 152.677 Q1974.26 155.339 1974.26 160.038 Q1974.26 164.737 1976.18 167.422 Q1978.12 170.084 1981.5 170.084 Q1984.88 170.084 1986.8 167.422 Q1988.75 164.737 1988.75 160.038 M1974.26 150.987 Q1975.6 148.672 1977.64 147.561 Q1979.7 146.427 1982.55 146.427 Q1987.27 146.427 1990.21 150.177 Q1993.17 153.927 1993.17 160.038 Q1993.17 166.149 1990.21 169.899 Q1987.27 173.649 1982.55 173.649 Q1979.7 173.649 1977.64 172.538 Q1975.6 171.403 1974.26 169.089 L1974.26 172.978 L1969.98 172.978 L1969.98 136.959 L1974.26 136.959 L1974.26 150.987 Z" fill="#000000" fill-rule="evenodd" fill-opacity="1" /><path clip-path="url(#clip290)" d="M 0 0 M2019.81 158.95 L2019.81 161.033 L2000.23 161.033 Q2000.51 165.431 2002.87 167.746 Q2005.25 170.038 2009.49 170.038 Q2011.94 170.038 2014.23 169.436 Q2016.55 168.834 2018.82 167.63 L2018.82 171.658 Q2016.53 172.63 2014.12 173.14 Q2011.71 173.649 2009.23 173.649 Q2003.03 173.649 1999.4 170.038 Q1995.79 166.427 1995.79 160.269 Q1995.79 153.904 1999.21 150.177 Q2002.66 146.427 2008.49 146.427 Q2013.73 146.427 2016.76 149.806 Q2019.81 153.163 2019.81 158.95 M2015.55 157.7 Q2015.51 154.205 2013.59 152.121 Q2011.69 150.038 2008.54 150.038 Q2004.98 150.038 2002.82 152.052 Q2000.69 154.066 2000.37 157.723 L2015.55 157.7 Z" fill="#000000" fill-rule="evenodd" fill-opacity="1" /><path clip-path="url(#clip290)" d="M 0 0 M2039.3 151.033 Q2038.59 150.617 2037.73 150.431 Q2036.9 150.223 2035.88 150.223 Q2032.27 150.223 2030.32 152.584 Q2028.4 154.922 2028.4 159.32 L2028.4 172.978 L2024.12 172.978 L2024.12 147.052 L2028.4 147.052 L2028.4 151.08 Q2029.74 148.718 2031.9 147.584 Q2034.05 146.427 2037.13 146.427 Q2037.57 146.427 2038.1 146.496 Q2038.63 146.543 2039.28 146.658 L2039.3 151.033 Z" fill="#000000" fill-rule="evenodd" fill-opacity="1" /><path clip-path="url(#clip290)" d="M 0 0 M2063.05 139.691 L2063.05 147.052 L2071.83 147.052 L2071.83 150.362 L2063.05 150.362 L2063.05 164.436 Q2063.05 167.607 2063.91 168.51 Q2064.79 169.413 2067.45 169.413 L2071.83 169.413 L2071.83 172.978 L2067.45 172.978 Q2062.52 172.978 2060.65 171.149 Q2058.77 169.297 2058.77 164.436 L2058.77 150.362 L2055.65 150.362 L2055.65 147.052 L2058.77 147.052 L2058.77 139.691 L2063.05 139.691 Z" fill="#000000" fill-rule="evenodd" fill-opacity="1" /><path clip-path="url(#clip290)" d="M 0 0 M2086.34 150.038 Q2082.91 150.038 2080.92 152.723 Q2078.93 155.385 2078.93 160.038 Q2078.93 164.691 2080.9 167.376 Q2082.89 170.038 2086.34 170.038 Q2089.74 170.038 2091.73 167.353 Q2093.72 164.667 2093.72 160.038 Q2093.72 155.431 2091.73 152.746 Q2089.74 150.038 2086.34 150.038 M2086.34 146.427 Q2091.9 146.427 2095.07 150.038 Q2098.24 153.649 2098.24 160.038 Q2098.24 166.404 2095.07 170.038 Q2091.9 173.649 2086.34 173.649 Q2080.76 173.649 2077.59 170.038 Q2074.44 166.404 2074.44 160.038 Q2074.44 153.649 2077.59 150.038 Q2080.76 146.427 2086.34 146.427 Z" fill="#000000" fill-rule="evenodd" fill-opacity="1" /><path clip-path="url(#clip290)" d="M 0 0 M2134.84 159.714 Q2134.84 155.084 2132.91 152.538 Q2131.02 149.992 2127.57 149.992 Q2124.14 149.992 2122.22 152.538 Q2120.32 155.084 2120.32 159.714 Q2120.32 164.32 2122.22 166.866 Q2124.14 169.413 2127.57 169.413 Q2131.02 169.413 2132.91 166.866 Q2134.84 164.32 2134.84 159.714 M2139.1 169.76 Q2139.1 176.38 2136.16 179.598 Q2133.22 182.839 2127.15 182.839 Q2124.91 182.839 2122.91 182.491 Q2120.92 182.167 2119.05 181.473 L2119.05 177.329 Q2120.92 178.348 2122.75 178.834 Q2124.58 179.32 2126.48 179.32 Q2130.67 179.32 2132.75 177.121 Q2134.84 174.945 2134.84 170.524 L2134.84 168.417 Q2133.52 170.709 2131.46 171.843 Q2129.4 172.978 2126.53 172.978 Q2121.76 172.978 2118.84 169.343 Q2115.92 165.709 2115.92 159.714 Q2115.92 153.695 2118.84 150.061 Q2121.76 146.427 2126.53 146.427 Q2129.4 146.427 2131.46 147.561 Q2133.52 148.695 2134.84 150.987 L2134.84 147.052 L2139.1 147.052 L2139.1 169.76 Z" fill="#000000" fill-rule="evenodd" fill-opacity="1" /><path clip-path="url(#clip290)" d="M 0 0 M2143.12 162.746 L2143.12 147.052 L2147.38 147.052 L2147.38 162.584 Q2147.38 166.265 2148.82 168.116 Q2150.25 169.945 2153.12 169.945 Q2156.57 169.945 2158.56 167.746 Q2160.58 165.547 2160.58 161.751 L2160.58 147.052 L2164.84 147.052 L2164.84 172.978 L2160.58 172.978 L2160.58 168.996 Q2159.03 171.357 2156.97 172.515 Q2154.93 173.649 2152.22 173.649 Q2147.75 173.649 2145.44 170.871 Q2143.12 168.093 2143.12 162.746 M2153.84 146.427 L2153.84 146.427 Z" fill="#000000" fill-rule="evenodd" fill-opacity="1" /><path clip-path="url(#clip290)" d="M 0 0 M2191.48 158.95 L2191.48 161.033 L2171.9 161.033 Q2172.17 165.431 2174.53 167.746 Q2176.92 170.038 2181.16 170.038 Q2183.61 170.038 2185.9 169.436 Q2188.22 168.834 2190.48 167.63 L2190.48 171.658 Q2188.19 172.63 2185.78 173.14 Q2183.38 173.649 2180.9 173.649 Q2174.7 173.649 2171.06 170.038 Q2167.45 166.427 2167.45 160.269 Q2167.45 153.904 2170.88 150.177 Q2174.33 146.427 2180.16 146.427 Q2185.39 146.427 2188.42 149.806 Q2191.48 153.163 2191.48 158.95 M2187.22 157.7 Q2187.17 154.205 2185.25 152.121 Q2183.35 150.038 2180.21 150.038 Q2176.64 150.038 2174.49 152.052 Q2172.36 154.066 2172.03 157.723 L2187.22 157.7 Z" fill="#000000" fill-rule="evenodd" fill-opacity="1" /><path clip-path="url(#clip290)" d="M 0 0 M2212.47 147.816 L2212.47 151.843 Q2210.67 150.917 2208.72 150.455 Q2206.78 149.992 2204.7 149.992 Q2201.53 149.992 2199.93 150.964 Q2198.35 151.936 2198.35 153.88 Q2198.35 155.362 2199.49 156.218 Q2200.62 157.052 2204.05 157.816 L2205.51 158.14 Q2210.04 159.112 2211.94 160.894 Q2213.86 162.654 2213.86 165.825 Q2213.86 169.436 2210.99 171.542 Q2208.15 173.649 2203.15 173.649 Q2201.06 173.649 2198.79 173.232 Q2196.55 172.839 2194.05 172.028 L2194.05 167.63 Q2196.41 168.857 2198.7 169.482 Q2200.99 170.084 2203.24 170.084 Q2206.25 170.084 2207.87 169.066 Q2209.49 168.024 2209.49 166.149 Q2209.49 164.413 2208.31 163.487 Q2207.15 162.561 2203.19 161.704 L2201.71 161.357 Q2197.75 160.524 2195.99 158.811 Q2194.23 157.075 2194.23 154.066 Q2194.23 150.408 2196.83 148.418 Q2199.42 146.427 2204.19 146.427 Q2206.55 146.427 2208.63 146.774 Q2210.72 147.121 2212.47 147.816 Z" fill="#000000" fill-rule="evenodd" fill-opacity="1" /><path clip-path="url(#clip290)" d="M 0 0 M2234.86 147.816 L2234.86 151.843 Q2233.05 150.917 2231.11 150.455 Q2229.16 149.992 2227.08 149.992 Q2223.91 149.992 2222.31 150.964 Q2220.74 151.936 2220.74 153.88 Q2220.74 155.362 2221.87 156.218 Q2223.01 157.052 2226.43 157.816 L2227.89 158.14 Q2232.43 159.112 2234.33 160.894 Q2236.25 162.654 2236.25 165.825 Q2236.25 169.436 2233.38 171.542 Q2230.53 173.649 2225.53 173.649 Q2223.45 173.649 2221.18 173.232 Q2218.93 172.839 2216.43 172.028 L2216.43 167.63 Q2218.79 168.857 2221.09 169.482 Q2223.38 170.084 2225.62 170.084 Q2228.63 170.084 2230.25 169.066 Q2231.87 168.024 2231.87 166.149 Q2231.87 164.413 2230.69 163.487 Q2229.53 162.561 2225.58 161.704 L2224.09 161.357 Q2220.14 160.524 2218.38 158.811 Q2216.62 157.075 2216.62 154.066 Q2216.62 150.408 2219.21 148.418 Q2221.8 146.427 2226.57 146.427 Q2228.93 146.427 2231.02 146.774 Q2233.1 147.121 2234.86 147.816 Z" fill="#000000" fill-rule="evenodd" fill-opacity="1" /><circle clip-path="url(#clip290)" cx="1782.86" cy="216.178" r="23" fill="#e26f46" fill-rule="evenodd" fill-opacity="1" stroke="#000000" stroke-opacity="1" stroke-width="5.12"/>
<path clip-path="url(#clip290)" d="M 0 0 M1894.98 220.194 Q1894.98 215.564 1893.05 213.018 Q1891.16 210.472 1887.71 210.472 Q1884.28 210.472 1882.36 213.018 Q1880.46 215.564 1880.46 220.194 Q1880.46 224.8 1882.36 227.346 Q1884.28 229.893 1887.71 229.893 Q1891.16 229.893 1893.05 227.346 Q1894.98 224.8 1894.98 220.194 M1899.24 230.24 Q1899.24 236.86 1896.3 240.078 Q1893.36 243.319 1887.29 243.319 Q1885.05 243.319 1883.05 242.971 Q1881.06 242.647 1879.19 241.953 L1879.19 237.809 Q1881.06 238.828 1882.89 239.314 Q1884.72 239.8 1886.62 239.8 Q1890.81 239.8 1892.89 237.601 Q1894.98 235.425 1894.98 231.004 L1894.98 228.897 Q1893.66 231.189 1891.6 232.323 Q1889.54 233.458 1886.67 233.458 Q1881.9 233.458 1878.98 229.823 Q1876.06 226.189 1876.06 220.194 Q1876.06 214.175 1878.98 210.541 Q1881.9 206.907 1886.67 206.907 Q1889.54 206.907 1891.6 208.041 Q1893.66 209.175 1894.98 211.467 L1894.98 207.532 L1899.24 207.532 L1899.24 230.24 Z" fill="#000000" fill-rule="evenodd" fill-opacity="1" /><path clip-path="url(#clip290)" d="M 0 0 M1925.88 219.43 L1925.88 221.513 L1906.3 221.513 Q1906.57 225.911 1908.93 228.226 Q1911.32 230.518 1915.55 230.518 Q1918.01 230.518 1920.3 229.916 Q1922.61 229.314 1924.88 228.11 L1924.88 232.138 Q1922.59 233.11 1920.18 233.62 Q1917.78 234.129 1915.3 234.129 Q1909.1 234.129 1905.46 230.518 Q1901.85 226.907 1901.85 220.749 Q1901.85 214.384 1905.28 210.657 Q1908.73 206.907 1914.56 206.907 Q1919.79 206.907 1922.82 210.286 Q1925.88 213.643 1925.88 219.43 M1921.62 218.18 Q1921.57 214.685 1919.65 212.601 Q1917.75 210.518 1914.61 210.518 Q1911.04 210.518 1908.89 212.532 Q1906.76 214.546 1906.43 218.203 L1921.62 218.18 Z" fill="#000000" fill-rule="evenodd" fill-opacity="1" /><path clip-path="url(#clip290)" d="M 0 0 M1951.9 217.809 L1951.9 233.458 L1947.64 233.458 L1947.64 217.948 Q1947.64 214.268 1946.2 212.439 Q1944.77 210.61 1941.9 210.61 Q1938.45 210.61 1936.46 212.81 Q1934.47 215.009 1934.47 218.805 L1934.47 233.458 L1930.18 233.458 L1930.18 207.532 L1934.47 207.532 L1934.47 211.56 Q1935.99 209.222 1938.05 208.064 Q1940.14 206.907 1942.85 206.907 Q1947.31 206.907 1949.61 209.685 Q1951.9 212.439 1951.9 217.809 Z" fill="#000000" fill-rule="evenodd" fill-opacity="1" /><path clip-path="url(#clip290)" d="M 0 0 M1972.17 232.74 L1972.17 228.481 Q1973.93 229.314 1975.74 229.754 Q1977.55 230.194 1979.28 230.194 Q1983.91 230.194 1986.34 227.092 Q1988.79 223.967 1989.14 217.624 Q1987.8 219.615 1985.74 220.68 Q1983.68 221.745 1981.18 221.745 Q1975.99 221.745 1972.96 218.62 Q1969.95 215.472 1969.95 210.032 Q1969.95 204.708 1973.1 201.49 Q1976.25 198.273 1981.48 198.273 Q1987.48 198.273 1990.62 202.879 Q1993.79 207.462 1993.79 216.212 Q1993.79 224.384 1989.91 229.268 Q1986.04 234.129 1979.49 234.129 Q1977.73 234.129 1975.92 233.782 Q1974.12 233.434 1972.17 232.74 M1981.48 218.087 Q1984.63 218.087 1986.46 215.934 Q1988.31 213.782 1988.31 210.032 Q1988.31 206.305 1986.46 204.152 Q1984.63 201.976 1981.48 201.976 Q1978.33 201.976 1976.48 204.152 Q1974.65 206.305 1974.65 210.032 Q1974.65 213.782 1976.48 215.934 Q1978.33 218.087 1981.48 218.087 Z" fill="#000000" fill-rule="evenodd" fill-opacity="1" /><path clip-path="url(#clip290)" d="M 0 0 M2008.86 201.976 Q2005.25 201.976 2003.42 205.541 Q2001.62 209.083 2001.62 216.212 Q2001.62 223.319 2003.42 226.884 Q2005.25 230.425 2008.86 230.425 Q2012.5 230.425 2014.3 226.884 Q2016.13 223.319 2016.13 216.212 Q2016.13 209.083 2014.3 205.541 Q2012.5 201.976 2008.86 201.976 M2008.86 198.273 Q2014.67 198.273 2017.73 202.879 Q2020.81 207.462 2020.81 216.212 Q2020.81 224.939 2017.73 229.546 Q2014.67 234.129 2008.86 234.129 Q2003.05 234.129 1999.98 229.546 Q1996.92 224.939 1996.92 216.212 Q1996.92 207.462 1999.98 202.879 Q2003.05 198.273 2008.86 198.273 Z" fill="#000000" fill-rule="evenodd" fill-opacity="1" /><circle clip-path="url(#clip290)" cx="1782.86" cy="276.658" r="23" fill="#3da44d" fill-rule="evenodd" fill-opacity="1" stroke="#000000" stroke-opacity="1" stroke-width="5.12"/>
<path clip-path="url(#clip290)" d="M 0 0 M1894.98 280.674 Q1894.98 276.044 1893.05 273.498 Q1891.16 270.952 1887.71 270.952 Q1884.28 270.952 1882.36 273.498 Q1880.46 276.044 1880.46 280.674 Q1880.46 285.28 1882.36 287.826 Q1884.28 290.373 1887.71 290.373 Q1891.16 290.373 1893.05 287.826 Q1894.98 285.28 1894.98 280.674 M1899.24 290.72 Q1899.24 297.34 1896.3 300.558 Q1893.36 303.799 1887.29 303.799 Q1885.05 303.799 1883.05 303.451 Q1881.06 303.127 1879.19 302.433 L1879.19 298.289 Q1881.06 299.308 1882.89 299.794 Q1884.72 300.28 1886.62 300.28 Q1890.81 300.28 1892.89 298.081 Q1894.98 295.905 1894.98 291.484 L1894.98 289.377 Q1893.66 291.669 1891.6 292.803 Q1889.54 293.938 1886.67 293.938 Q1881.9 293.938 1878.98 290.303 Q1876.06 286.669 1876.06 280.674 Q1876.06 274.655 1878.98 271.021 Q1881.9 267.387 1886.67 267.387 Q1889.54 267.387 1891.6 268.521 Q1893.66 269.655 1894.98 271.947 L1894.98 268.012 L1899.24 268.012 L1899.24 290.72 Z" fill="#000000" fill-rule="evenodd" fill-opacity="1" /><path clip-path="url(#clip290)" d="M 0 0 M1925.88 279.91 L1925.88 281.993 L1906.3 281.993 Q1906.57 286.391 1908.93 288.706 Q1911.32 290.998 1915.55 290.998 Q1918.01 290.998 1920.3 290.396 Q1922.61 289.794 1924.88 288.59 L1924.88 292.618 Q1922.59 293.59 1920.18 294.1 Q1917.78 294.609 1915.3 294.609 Q1909.1 294.609 1905.46 290.998 Q1901.85 287.387 1901.85 281.229 Q1901.85 274.864 1905.28 271.137 Q1908.73 267.387 1914.56 267.387 Q1919.79 267.387 1922.82 270.766 Q1925.88 274.123 1925.88 279.91 M1921.62 278.66 Q1921.57 275.165 1919.65 273.081 Q1917.75 270.998 1914.61 270.998 Q1911.04 270.998 1908.89 273.012 Q1906.76 275.026 1906.43 278.683 L1921.62 278.66 Z" fill="#000000" fill-rule="evenodd" fill-opacity="1" /><path clip-path="url(#clip290)" d="M 0 0 M1951.9 278.289 L1951.9 293.938 L1947.64 293.938 L1947.64 278.428 Q1947.64 274.748 1946.2 272.919 Q1944.77 271.09 1941.9 271.09 Q1938.45 271.09 1936.46 273.29 Q1934.47 275.489 1934.47 279.285 L1934.47 293.938 L1930.18 293.938 L1930.18 268.012 L1934.47 268.012 L1934.47 272.04 Q1935.99 269.702 1938.05 268.544 Q1940.14 267.387 1942.85 267.387 Q1947.31 267.387 1949.61 270.165 Q1951.9 272.919 1951.9 278.289 Z" fill="#000000" fill-rule="evenodd" fill-opacity="1" /><path clip-path="url(#clip290)" d="M 0 0 M1972.17 293.22 L1972.17 288.961 Q1973.93 289.794 1975.74 290.234 Q1977.55 290.674 1979.28 290.674 Q1983.91 290.674 1986.34 287.572 Q1988.79 284.447 1989.14 278.104 Q1987.8 280.095 1985.74 281.16 Q1983.68 282.225 1981.18 282.225 Q1975.99 282.225 1972.96 279.1 Q1969.95 275.952 1969.95 270.512 Q1969.95 265.188 1973.1 261.97 Q1976.25 258.753 1981.48 258.753 Q1987.48 258.753 1990.62 263.359 Q1993.79 267.942 1993.79 276.692 Q1993.79 284.864 1989.91 289.748 Q1986.04 294.609 1979.49 294.609 Q1977.73 294.609 1975.92 294.262 Q1974.12 293.914 1972.17 293.22 M1981.48 278.567 Q1984.63 278.567 1986.46 276.414 Q1988.31 274.262 1988.31 270.512 Q1988.31 266.785 1986.46 264.632 Q1984.63 262.456 1981.48 262.456 Q1978.33 262.456 1976.48 264.632 Q1974.65 266.785 1974.65 270.512 Q1974.65 274.262 1976.48 276.414 Q1978.33 278.567 1981.48 278.567 Z" fill="#000000" fill-rule="evenodd" fill-opacity="1" /><path clip-path="url(#clip290)" d="M 0 0 M1998.91 259.378 L2017.27 259.378 L2017.27 263.313 L2003.19 263.313 L2003.19 271.785 Q2004.21 271.438 2005.23 271.276 Q2006.25 271.09 2007.27 271.09 Q2013.05 271.09 2016.43 274.262 Q2019.81 277.433 2019.81 282.85 Q2019.81 288.428 2016.34 291.53 Q2012.87 294.609 2006.55 294.609 Q2004.37 294.609 2002.11 294.238 Q1999.86 293.868 1997.45 293.127 L1997.45 288.428 Q1999.54 289.563 2001.76 290.118 Q2003.98 290.674 2006.46 290.674 Q2010.46 290.674 2012.8 288.567 Q2015.14 286.461 2015.14 282.85 Q2015.14 279.239 2012.8 277.132 Q2010.46 275.026 2006.46 275.026 Q2004.58 275.026 2002.71 275.442 Q2000.86 275.859 1998.91 276.739 L1998.91 259.378 Z" fill="#000000" fill-rule="evenodd" fill-opacity="1" /><circle clip-path="url(#clip290)" cx="1782.86" cy="337.138" r="23" fill="#c271d2" fill-rule="evenodd" fill-opacity="1" stroke="#000000" stroke-opacity="1" stroke-width="5.12"/>
<path clip-path="url(#clip290)" d="M 0 0 M1894.98 341.154 Q1894.98 336.524 1893.05 333.978 Q1891.16 331.432 1887.71 331.432 Q1884.28 331.432 1882.36 333.978 Q1880.46 336.524 1880.46 341.154 Q1880.46 345.76 1882.36 348.306 Q1884.28 350.853 1887.71 350.853 Q1891.16 350.853 1893.05 348.306 Q1894.98 345.76 1894.98 341.154 M1899.24 351.2 Q1899.24 357.82 1896.3 361.038 Q1893.36 364.279 1887.29 364.279 Q1885.05 364.279 1883.05 363.931 Q1881.06 363.607 1879.19 362.913 L1879.19 358.769 Q1881.06 359.788 1882.89 360.274 Q1884.72 360.76 1886.62 360.76 Q1890.81 360.76 1892.89 358.561 Q1894.98 356.385 1894.98 351.964 L1894.98 349.857 Q1893.66 352.149 1891.6 353.283 Q1889.54 354.418 1886.67 354.418 Q1881.9 354.418 1878.98 350.783 Q1876.06 347.149 1876.06 341.154 Q1876.06 335.135 1878.98 331.501 Q1881.9 327.867 1886.67 327.867 Q1889.54 327.867 1891.6 329.001 Q1893.66 330.135 1894.98 332.427 L1894.98 328.492 L1899.24 328.492 L1899.24 351.2 Z" fill="#000000" fill-rule="evenodd" fill-opacity="1" /><path clip-path="url(#clip290)" d="M 0 0 M1925.88 340.39 L1925.88 342.473 L1906.3 342.473 Q1906.57 346.871 1908.93 349.186 Q1911.32 351.478 1915.55 351.478 Q1918.01 351.478 1920.3 350.876 Q1922.61 350.274 1924.88 349.07 L1924.88 353.098 Q1922.59 354.07 1920.18 354.58 Q1917.78 355.089 1915.3 355.089 Q1909.1 355.089 1905.46 351.478 Q1901.85 347.867 1901.85 341.709 Q1901.85 335.344 1905.28 331.617 Q1908.73 327.867 1914.56 327.867 Q1919.79 327.867 1922.82 331.246 Q1925.88 334.603 1925.88 340.39 M1921.62 339.14 Q1921.57 335.645 1919.65 333.561 Q1917.75 331.478 1914.61 331.478 Q1911.04 331.478 1908.89 333.492 Q1906.76 335.506 1906.43 339.163 L1921.62 339.14 Z" fill="#000000" fill-rule="evenodd" fill-opacity="1" /><path clip-path="url(#clip290)" d="M 0 0 M1951.9 338.769 L1951.9 354.418 L1947.64 354.418 L1947.64 338.908 Q1947.64 335.228 1946.2 333.399 Q1944.77 331.57 1941.9 331.57 Q1938.45 331.57 1936.46 333.77 Q1934.47 335.969 1934.47 339.765 L1934.47 354.418 L1930.18 354.418 L1930.18 328.492 L1934.47 328.492 L1934.47 332.52 Q1935.99 330.182 1938.05 329.024 Q1940.14 327.867 1942.85 327.867 Q1947.31 327.867 1949.61 330.645 Q1951.9 333.399 1951.9 338.769 Z" fill="#000000" fill-rule="evenodd" fill-opacity="1" /><path clip-path="url(#clip290)" d="M 0 0 M1972.85 350.482 L1980.48 350.482 L1980.48 324.117 L1972.17 325.783 L1972.17 321.524 L1980.44 319.858 L1985.11 319.858 L1985.11 350.482 L1992.75 350.482 L1992.75 354.418 L1972.85 354.418 L1972.85 350.482 Z" fill="#000000" fill-rule="evenodd" fill-opacity="1" /><path clip-path="url(#clip290)" d="M 0 0 M2007.82 322.936 Q2004.21 322.936 2002.38 326.501 Q2000.58 330.043 2000.58 337.172 Q2000.58 344.279 2002.38 347.844 Q2004.21 351.385 2007.82 351.385 Q2011.46 351.385 2013.26 347.844 Q2015.09 344.279 2015.09 337.172 Q2015.09 330.043 2013.26 326.501 Q2011.46 322.936 2007.82 322.936 M2007.82 319.233 Q2013.63 319.233 2016.69 323.839 Q2019.77 328.422 2019.77 337.172 Q2019.77 345.899 2016.69 350.506 Q2013.63 355.089 2007.82 355.089 Q2002.01 355.089 1998.93 350.506 Q1995.88 345.899 1995.88 337.172 Q1995.88 328.422 1998.93 323.839 Q2002.01 319.233 2007.82 319.233 Z" fill="#000000" fill-rule="evenodd" fill-opacity="1" /><path clip-path="url(#clip290)" d="M 0 0 M2034.84 322.936 Q2031.23 322.936 2029.4 326.501 Q2027.59 330.043 2027.59 337.172 Q2027.59 344.279 2029.4 347.844 Q2031.23 351.385 2034.84 351.385 Q2038.47 351.385 2040.28 347.844 Q2042.1 344.279 2042.1 337.172 Q2042.1 330.043 2040.28 326.501 Q2038.47 322.936 2034.84 322.936 M2034.84 319.233 Q2040.65 319.233 2043.7 323.839 Q2046.78 328.422 2046.78 337.172 Q2046.78 345.899 2043.7 350.506 Q2040.65 355.089 2034.84 355.089 Q2029.03 355.089 2025.95 350.506 Q2022.89 345.899 2022.89 337.172 Q2022.89 328.422 2025.95 323.839 Q2029.03 319.233 2034.84 319.233 Z" fill="#000000" fill-rule="evenodd" fill-opacity="1" /><circle clip-path="url(#clip290)" cx="1782.86" cy="397.618" r="23" fill="#ac8d18" fill-rule="evenodd" fill-opacity="1" stroke="#000000" stroke-opacity="1" stroke-width="5.12"/>
<path clip-path="url(#clip290)" d="M 0 0 M1894.98 401.634 Q1894.98 397.004 1893.05 394.458 Q1891.16 391.912 1887.71 391.912 Q1884.28 391.912 1882.36 394.458 Q1880.46 397.004 1880.46 401.634 Q1880.46 406.24 1882.36 408.786 Q1884.28 411.333 1887.71 411.333 Q1891.16 411.333 1893.05 408.786 Q1894.98 406.24 1894.98 401.634 M1899.24 411.68 Q1899.24 418.3 1896.3 421.518 Q1893.36 424.759 1887.29 424.759 Q1885.05 424.759 1883.05 424.411 Q1881.06 424.087 1879.19 423.393 L1879.19 419.249 Q1881.06 420.268 1882.89 420.754 Q1884.72 421.24 1886.62 421.24 Q1890.81 421.24 1892.89 419.041 Q1894.98 416.865 1894.98 412.444 L1894.98 410.337 Q1893.66 412.629 1891.6 413.763 Q1889.54 414.898 1886.67 414.898 Q1881.9 414.898 1878.98 411.263 Q1876.06 407.629 1876.06 401.634 Q1876.06 395.615 1878.98 391.981 Q1881.9 388.347 1886.67 388.347 Q1889.54 388.347 1891.6 389.481 Q1893.66 390.615 1894.98 392.907 L1894.98 388.972 L1899.24 388.972 L1899.24 411.68 Z" fill="#000000" fill-rule="evenodd" fill-opacity="1" /><path clip-path="url(#clip290)" d="M 0 0 M1925.88 400.87 L1925.88 402.953 L1906.3 402.953 Q1906.57 407.351 1908.93 409.666 Q1911.32 411.958 1915.55 411.958 Q1918.01 411.958 1920.3 411.356 Q1922.61 410.754 1924.88 409.55 L1924.88 413.578 Q1922.59 414.55 1920.18 415.06 Q1917.78 415.569 1915.3 415.569 Q1909.1 415.569 1905.46 411.958 Q1901.85 408.347 1901.85 402.189 Q1901.85 395.824 1905.28 392.097 Q1908.73 388.347 1914.56 388.347 Q1919.79 388.347 1922.82 391.726 Q1925.88 395.083 1925.88 400.87 M1921.62 399.62 Q1921.57 396.125 1919.65 394.041 Q1917.75 391.958 1914.61 391.958 Q1911.04 391.958 1908.89 393.972 Q1906.76 395.986 1906.43 399.643 L1921.62 399.62 Z" fill="#000000" fill-rule="evenodd" fill-opacity="1" /><path clip-path="url(#clip290)" d="M 0 0 M1951.9 399.249 L1951.9 414.898 L1947.64 414.898 L1947.64 399.388 Q1947.64 395.708 1946.2 393.879 Q1944.77 392.05 1941.9 392.05 Q1938.45 392.05 1936.46 394.25 Q1934.47 396.449 1934.47 400.245 L1934.47 414.898 L1930.18 414.898 L1930.18 388.972 L1934.47 388.972 L1934.47 393 Q1935.99 390.662 1938.05 389.504 Q1940.14 388.347 1942.85 388.347 Q1947.31 388.347 1949.61 391.125 Q1951.9 393.879 1951.9 399.249 Z" fill="#000000" fill-rule="evenodd" fill-opacity="1" /><path clip-path="url(#clip290)" d="M 0 0 M1972.85 410.962 L1980.48 410.962 L1980.48 384.597 L1972.17 386.263 L1972.17 382.004 L1980.44 380.338 L1985.11 380.338 L1985.11 410.962 L1992.75 410.962 L1992.75 414.898 L1972.85 414.898 L1972.85 410.962 Z" fill="#000000" fill-rule="evenodd" fill-opacity="1" /><path clip-path="url(#clip290)" d="M 0 0 M2007.82 383.416 Q2004.21 383.416 2002.38 386.981 Q2000.58 390.523 2000.58 397.652 Q2000.58 404.759 2002.38 408.324 Q2004.21 411.865 2007.82 411.865 Q2011.46 411.865 2013.26 408.324 Q2015.09 404.759 2015.09 397.652 Q2015.09 390.523 2013.26 386.981 Q2011.46 383.416 2007.82 383.416 M2007.82 379.713 Q2013.63 379.713 2016.69 384.319 Q2019.77 388.902 2019.77 397.652 Q2019.77 406.379 2016.69 410.986 Q2013.63 415.569 2007.82 415.569 Q2002.01 415.569 1998.93 410.986 Q1995.88 406.379 1995.88 397.652 Q1995.88 388.902 1998.93 384.319 Q2002.01 379.713 2007.82 379.713 Z" fill="#000000" fill-rule="evenodd" fill-opacity="1" /><path clip-path="url(#clip290)" d="M 0 0 M2024.88 380.338 L2043.24 380.338 L2043.24 384.273 L2029.17 384.273 L2029.17 392.745 Q2030.18 392.398 2031.2 392.236 Q2032.22 392.05 2033.24 392.05 Q2039.03 392.05 2042.41 395.222 Q2045.79 398.393 2045.79 403.81 Q2045.79 409.388 2042.31 412.49 Q2038.84 415.569 2032.52 415.569 Q2030.35 415.569 2028.08 415.198 Q2025.83 414.828 2023.42 414.087 L2023.42 409.388 Q2025.51 410.523 2027.73 411.078 Q2029.95 411.634 2032.43 411.634 Q2036.43 411.634 2038.77 409.527 Q2041.11 407.421 2041.11 403.81 Q2041.11 400.199 2038.77 398.092 Q2036.43 395.986 2032.43 395.986 Q2030.55 395.986 2028.68 396.402 Q2026.83 396.819 2024.88 397.699 L2024.88 380.338 Z" fill="#000000" fill-rule="evenodd" fill-opacity="1" /><circle clip-path="url(#clip290)" cx="1782.86" cy="458.098" r="23" fill="#00a9ad" fill-rule="evenodd" fill-opacity="1" stroke="#000000" stroke-opacity="1" stroke-width="5.12"/>
<path clip-path="url(#clip290)" d="M 0 0 M1894.98 462.114 Q1894.98 457.484 1893.05 454.938 Q1891.16 452.392 1887.71 452.392 Q1884.28 452.392 1882.36 454.938 Q1880.46 457.484 1880.46 462.114 Q1880.46 466.72 1882.36 469.266 Q1884.28 471.813 1887.71 471.813 Q1891.16 471.813 1893.05 469.266 Q1894.98 466.72 1894.98 462.114 M1899.24 472.16 Q1899.24 478.78 1896.3 481.998 Q1893.36 485.239 1887.29 485.239 Q1885.05 485.239 1883.05 484.891 Q1881.06 484.567 1879.19 483.873 L1879.19 479.729 Q1881.06 480.748 1882.89 481.234 Q1884.72 481.72 1886.62 481.72 Q1890.81 481.72 1892.89 479.521 Q1894.98 477.345 1894.98 472.924 L1894.98 470.817 Q1893.66 473.109 1891.6 474.243 Q1889.54 475.378 1886.67 475.378 Q1881.9 475.378 1878.98 471.743 Q1876.06 468.109 1876.06 462.114 Q1876.06 456.095 1878.98 452.461 Q1881.9 448.827 1886.67 448.827 Q1889.54 448.827 1891.6 449.961 Q1893.66 451.095 1894.98 453.387 L1894.98 449.452 L1899.24 449.452 L1899.24 472.16 Z" fill="#000000" fill-rule="evenodd" fill-opacity="1" /><path clip-path="url(#clip290)" d="M 0 0 M1925.88 461.35 L1925.88 463.433 L1906.3 463.433 Q1906.57 467.831 1908.93 470.146 Q1911.32 472.438 1915.55 472.438 Q1918.01 472.438 1920.3 471.836 Q1922.61 471.234 1924.88 470.03 L1924.88 474.058 Q1922.59 475.03 1920.18 475.54 Q1917.78 476.049 1915.3 476.049 Q1909.1 476.049 1905.46 472.438 Q1901.85 468.827 1901.85 462.669 Q1901.85 456.304 1905.28 452.577 Q1908.73 448.827 1914.56 448.827 Q1919.79 448.827 1922.82 452.206 Q1925.88 455.563 1925.88 461.35 M1921.62 460.1 Q1921.57 456.605 1919.65 454.521 Q1917.75 452.438 1914.61 452.438 Q1911.04 452.438 1908.89 454.452 Q1906.76 456.466 1906.43 460.123 L1921.62 460.1 Z" fill="#000000" fill-rule="evenodd" fill-opacity="1" /><path clip-path="url(#clip290)" d="M 0 0 M1951.9 459.729 L1951.9 475.378 L1947.64 475.378 L1947.64 459.868 Q1947.64 456.188 1946.2 454.359 Q1944.77 452.53 1941.9 452.53 Q1938.45 452.53 1936.46 454.73 Q1934.47 456.929 1934.47 460.725 L1934.47 475.378 L1930.18 475.378 L1930.18 449.452 L1934.47 449.452 L1934.47 453.48 Q1935.99 451.142 1938.05 449.984 Q1940.14 448.827 1942.85 448.827 Q1947.31 448.827 1949.61 451.605 Q1951.9 454.359 1951.9 459.729 Z" fill="#000000" fill-rule="evenodd" fill-opacity="1" /><path clip-path="url(#clip290)" d="M 0 0 M1972.85 471.442 L1980.48 471.442 L1980.48 445.077 L1972.17 446.743 L1972.17 442.484 L1980.44 440.818 L1985.11 440.818 L1985.11 471.442 L1992.75 471.442 L1992.75 475.378 L1972.85 475.378 L1972.85 471.442 Z" fill="#000000" fill-rule="evenodd" fill-opacity="1" /><path clip-path="url(#clip290)" d="M 0 0 M1998.63 471.442 L2006.27 471.442 L2006.27 445.077 L1997.96 446.743 L1997.96 442.484 L2006.23 440.818 L2010.9 440.818 L2010.9 471.442 L2018.54 471.442 L2018.54 475.378 L1998.63 475.378 L1998.63 471.442 Z" fill="#000000" fill-rule="evenodd" fill-opacity="1" /><path clip-path="url(#clip290)" d="M 0 0 M2033.61 443.896 Q2030 443.896 2028.17 447.461 Q2026.36 451.003 2026.36 458.132 Q2026.36 465.239 2028.17 468.804 Q2030 472.345 2033.61 472.345 Q2037.24 472.345 2039.05 468.804 Q2040.88 465.239 2040.88 458.132 Q2040.88 451.003 2039.05 447.461 Q2037.24 443.896 2033.61 443.896 M2033.61 440.193 Q2039.42 440.193 2042.48 444.799 Q2045.55 449.382 2045.55 458.132 Q2045.55 466.859 2042.48 471.466 Q2039.42 476.049 2033.61 476.049 Q2027.8 476.049 2024.72 471.466 Q2021.67 466.859 2021.67 458.132 Q2021.67 449.382 2024.72 444.799 Q2027.8 440.193 2033.61 440.193 Z" fill="#000000" fill-rule="evenodd" fill-opacity="1" /></svg>
